1,9876465468,Steel,10,L,Filled,OK,"Summer Weiss",,,,789654,"Leaking Seal",,,,,,,,,,,
2,9876465469,Plastic,10,L,Filled,OK,APA,2016-09-13,2016-09-18,,,,,,,,,,,,,,
3,9876465470,Plastic,20,L,Empty,Broken,,,,,,,,,,,,,,,,,
4,9876465471,Steel,51,L,Delivered,OK,"Summer Weiss",2016-09-13,2016-09-18,"St. Pauls Cathedral",789654,"St. Paul",125470094,thilo@test.co.za,"68 Grewia str",Doornpoort,Pretoria,186,,,,,Y
2,9876465469,Plastic,10,L,Filled,OK,APA,2016-09-13,2016-09-18,,,,,,,,,,,,,,
3,9876465470,Plastic,20,L,Empty,Broken,,,,,,,,,,,,,,,,,
4,9876465471,Steel,51,L,Delivered,OK,"Summer Weiss",2016-09-13,2016-09-18,"St. Pauls Cathedral",789654,"St. Paul",125470094,thilo@test.co.za,"68 Grewia str",Doornpoort,Pretoria,186,,,,,Y
5,9876465472,Steel,10,L,Filled,OK,"Summer Weiss",2016-09-13,2016-09-18,,789654,,,,,,,,,,,,
2,9876465469,Plastic,10,L,Filled,OK,APA,2016-09-13,2016-09-18,,,,,,,,,,,,,,
3,9876465470,Plastic,20,L,Empty,Broken,,,,,,,,,,,,,,,,,
4,9876465471,Steel,51,L,Delivered,OK,"Summer Weiss",2016-09-13,2016-09-18,"St. Pauls Cathedral",789654,"St. Paul",125470094,thilo@test.co.za,"68 Grewia str",Doornpoort,Pretoria,186,,,,,Y
5,9876465472,Steel,10,L,Filled,OK,"Summer Weiss",2016-09-13,2016-09-18,,789654,,,,,,,,,,,,
6,9876465473,Plastic,10,L,Empty,OK,,,,,,,,,,,,,,,,,
7,9876465474,Steel,20,L,Empty,Broken,,,,,,,,,,,,,,,,,
8,9876465475,Plastic,51,L,Delivered,OK,"Summer Weiss",2016-09-13,2016-09-18,"St. Pauls Cathedral",789654,,,,,,,,,,,,
9,9876465476,Plastic,10,L,Filled,OK,"Summer Weiss",2016-09-13,2016-09-18,,789654,,,,,,,,,,,,
10,9876465477,Steel,10,L,Empty,OK,,,,,,,,,,,,,,,,,
11,9876465478,Steel,20,L,Empty,Broken,,,,,,,,,,,,,,,,,
12,9876465479,Plastic,51,L,Delivered,OK,"Summer Weiss",2016-09-13,2016-09-18,"St. Pauls Cathedral",789654,,,,,,,,,,,,
13,9876465480,Steel,10,L,Filled,OK,"Summer Weiss",2016-09-13,2016-09-18,,789654,,,,,,,,,,,,
14,9876465481,Plastic,10,L,Empty,OK2,,,,,,,,,,,,,,,,,
15,9876465482,Plastic,20,L,Empty,Broken,,,,,,,,,,,,,,,,,
16,9876465483,Steel,51,L,Delivered,OK,"Summer Weiss",2016-09-13,2016-09-18,"Pub & Grill",789654,Gearge,125470500,test@chrome.co.za,"168 Grewia str",Doornpoort2,Pretoria,186,"P.O.Box 12437",Onderstepoort,Pretoria,110,
17,9876465484,Steel,10,L,Filled,,"Summer Weiss",2016-09-13,2016-09-18,,789654,,,,,,,,,,,,
18,9876465485,Plastic,10,L,,OK,,,,,,,,,,,,,,,,,
19,9876465486,Steel,20,L,,Broken,,,,,,,,,,,,,,,,,
20,9876465487,Plastic,51,L,Delivered,OK,"Summer Weiss",2016-09-13,2016-09-18,"St. Pauls Cathedral",789654,,,,,,,,,,,,
21,9876465488,Plastic,10,L,Filled2,OK,"Summer Weiss",2016-09-13,2016-09-18,,789654,,,,,,,,,,,,
22,9876465489,Steel,10,L,Empty,OK,,,,,,,,,,,,,,,,,
23,9876465490,Steel,20,L,Empty,Broken,,,,,,,,,,,,,,,,,
24,9876465491,Plastic,51,L,Delivered,OK,"Summer Weiss",2016-09-13,2016-09-18,"St. Pauls Cathedral",789654,,,,,,,,,,,,
25,9876465492,Steel,10,L,Empty,Broken,,,,,,,,,,,,,,,,,
26,9876465493,Plastic,10,L,Delivered,OK,"Summer Weiss",2016-09-13,2016-09-18,"St. Pauls Cathedral",789654,,,,,,,,,,,,
27,9876465494,Plastic,20,L,Filled,OK,"Summer Weiss",2016-09-13,2016-09-18,,789654,,,,,,,,,,,,
28,9876465495,Steel,51,L,Empty,OK,,,,,,,,,,,,,,,,,
29,9876465496,Steel,10,L,Empty,Broken,,,,,,,,,,,,,,,,,
30,9876465497,Plastic,10,L,Delivered,OK,"Summer Weiss",2016-09-13,2016-09-18,"St. Pauls Cathedral",789654,,,,,,,,,,,,
31,9876465498,Steel,20,L,Filled,OK,"Summer Weiss",2016-09-13,2016-09-18,,789654,,,,,,,,,,,,
32,9876465499,Plastic,51,L,Empty,OK,,,,,,,,,,,,,,,,,
33,9876465500,Plastic,10,L,Empty,Broken,,,,,,,,,,,,,,,,,
34,9876465501,Steel,10,L,Delivered,OK,"Summer Weiss",2016-09-13,2016-09-18,"Pub & Grill",789654,,,,,,,,,,,,
35,9876465502,Steel,20,L,Filled,OK,"Summer Weiss",2016-09-13,2016-09-18,,789654,,,,,,,,,,,,
36,9876465503,Plastic,51,L,Empty,OK,,,,,,,,,,,,,,,,,
37,9876465504,Steel,10,L,Empty,Broken,,,,,,,,,,,,,,,,,
38,9876465505,Plastic,10,L,Delivered,OK,"Summer Weiss",2016-09-13,2016-09-18,"Pub & Grill",789654,,,,,,,,,,,,
39,9876465506,Plastic,20,L,Empty,Broken,,,,,,,,,,,,,,,,,
40,9876465507,Steel,51,L,Delivered,OK,"Summer Weiss",2016-09-13,2016-09-18,"St. Pauls Cathedral",789654,,,,,,,,,,,,
41,9876465508,Steel,10,L,Filled,OK,"Summer Weiss",2016-09-13,2016-09-18,,789654,,,,,,,,,,,,
42,9876465509,Plastic,10,L,Empty,OK,,,,,,,,,,,,,,,,,
43,9876465510,Steel,20,L,Empty,Broken,,,,,,,,,,,,,,,,,
44,9876465511,Plastic,51,L,Delivered,OK,"Summer Weiss",2016-09-13,2016-09-18,"St. Pauls Cathedral",789654,,,,,,,,,,,,
45,9876465512,Plastic,10,L,Filled,OK,"Summer Weiss",2016-09-13,2016-09-18,,789654,,,,,,,,,,,,
2,9876465469,Plastic,10,L,Filled,OK,APA,2016-09-13,2016-09-18,,,,,,,,,,,,,,
3,9876465470,Plastic,20,L,Empty,Broken,,,,,,,,,,,,,,,,,
4,9876465471,Steel,51,L,Delivered,OK,"Summer Weiss",2016-09-13,2016-09-18,"St. Pauls Cathedral",789654,"St. Paul",125470094,thilo@test.co.za,"68 Grewia str",Doornpoort,Pretoria,186,,,,,Y
5,9876465472,Steel,10,L,Filled,OK,"Summer Weiss",2016-09-13,2016-09-18,,789654,,,,,,,,,,,,
6,9876465473,Plastic,10,L,Empty,OK,,,,,,,,,,,,,,,,,
7,9876465474,Steel,20,L,Empty,Broken,,,,,,,,,,,,,,,,,
8,9876465475,Plastic,51,L,Delivered,OK,"Summer Weiss",2016-09-13,2016-09-18,"St. Pauls Cathedral",789654,,,,,,,,,,,,
9,9876465476,Plastic,10,L,Filled,OK,"Summer Weiss",2016-09-13,2016-09-18,,789654,,,,,,,,,,,,
10,9876465477,Steel,10,L,Empty,OK,,,,,,,,,,,,,,,,,
11,9876465478,Steel,20,L,Empty,Broken,,,,,,,,,,,,,,,,,
12,9876465479,Plastic,51,L,Delivered,OK,"Summer Weiss",2016-09-13,2016-09-18,"St. Pauls Cathedral",789654,,,,,,,,,,,,
13,9876465480,Steel,10,L,Filled,OK,"Summer Weiss",2016-09-13,2016-09-18,,789654,,,,,,,,,,,,
14,9876465481,Plastic,10,L,Empty,OK2,,,,,,,,,,,,,,,,,
15,9876465482,Plastic,20,L,Empty,Broken,,,,,,,,,,,,,,,,,
16,9876465483,Steel,51,L,Delivered,OK,"Summer Weiss",2016-09-13,2016-09-18,"Pub & Grill",789654,Gearge,125470500,test@chrome.co.za,"168 Grewia str",Doornpoort2,Pretoria,186,"P.O.Box 12437",Onderstepoort,Pretoria,110,
17,9876465484,Steel,10,L,Filled,,"Summer Weiss",2016-09-13,2016-09-18,,789654,,,,,,,,,,,,
18,9876465485,Plastic,10,L,,OK,,,,,,,,,,,,,,,,,
19,9876465486,Steel,20,L,,Broken,,,,,,,,,,,,,,,,,
20,9876465487,Plastic,51,L,Delivered,OK,"Summer Weiss",2016-09-13,2016-09-18,"St. Pauls Cathedral",789654,,,,,,,,,,,,
21,9876465488,Plastic,10,L,Filled2,OK,"Summer Weiss",2016-09-13,2016-09-18,,789654,,,,,,,,,,,,
22,9876465489,Steel,10,L,Empty,OK,,,,,,,,,,,,,,,,,
23,9876465490,Steel,20,L,Empty,Broken,,,,,,,,,,,,,,,,,
24,9876465491,Plastic,51,L,Delivered,OK,"Summer Weiss",2016-09-13,2016-09-18,"St. Pauls Cathedral",789654,,,,,,,,,,,,
25,9876465492,Steel,10,L,Empty,Broken,,,,,,,,,,,,,,,,,
26,9876465493,Plastic,10,L,Delivered,OK,"Summer Weiss",2016-09-13,2016-09-18,"St. Pauls Cathedral",789654,,,,,,,,,,,,
27,9876465494,Plastic,20,L,Filled,OK,"Summer Weiss",2016-09-13,2016-09-18,,789654,,,,,,,,,,,,
28,9876465495,Steel,51,L,Empty,OK,,,,,,,,,,,,,,,,,
29,9876465496,Steel,10,L,Empty,Broken,,,,,,,,,,,,,,,,,
30,9876465497,Plastic,10,L,Delivered,OK,"Summer Weiss",2016-09-13,2016-09-18,"St. Pauls Cathedral",789654,,,,,,,,,,,,
31,9876465498,Steel,20,L,Filled,OK,"Summer Weiss",2016-09-13,2016-09-18,,789654,,,,,,,,,,,,
32,9876465499,Plastic,51,L,Empty,OK,,,,,,,,,,,,,,,,,
33,9876465500,Plastic,10,L,Empty,Broken,,,,,,,,,,,,,,,,,
34,9876465501,Steel,10,L,Delivered,OK,"Summer Weiss",2016-09-13,2016-09-18,"Pub & Grill",789654,,,,,,,,,,,,
35,9876465502,Steel,20,L,Filled,OK,"Summer Weiss",2016-09-13,2016-09-18,,789654,,,,,,,,,,,,
36,9876465503,Plastic,51,L,Empty,OK,,,,,,,,,,,,,,,,,
37,9876465504,Steel,10,L,Empty,Broken,,,,,,,,,,,,,,,,,
38,9876465505,Plastic,10,L,Delivered,OK,"Summer Weiss",2016-09-13,2016-09-18,"Pub & Grill",789654,,,,,,,,,,,,
39,9876465506,Plastic,20,L,Empty,Broken,,,,,,,,,,,,,,,,,
40,9876465507,Steel,51,L,Delivered,OK,"Summer Weiss",2016-09-13,2016-09-18,"St. Pauls Cathedral",789654,,,,,,,,,,,,
41,9876465508,Steel,10,L,Filled,OK,"Summer Weiss",2016-09-13,2016-09-18,,789654,,,,,,,,,,,,
42,9876465509,Plastic,10,L,Empty,OK,,,,,,,,,,,,,,,,,
43,9876465510,Steel,20,L,Empty,Broken,,,,,,,,,,,,,,,,,
44,9876465511,Plastic,51,L,Delivered,OK,"Summer Weiss",2016-09-13,2016-09-18,"St. Pauls Cathedral",789654,,,,,,,,,,,,
45,9876465512,Plastic,10,L,Filled,OK,"Summer Weiss",2016-09-13,2016-09-18,,789654,,,,,,,,,,,,
