[------------------------------------------------------------------------------]
[ PDFlib 8.0.3  PHP5 binding on Linux-x86_64 (le) 2012-07-19 14:47:15          ]
[ Classes: api=1 warning=1                                                     ]
[ Enter in vi to compile it:                                                   ]
[ %s/)$/);/g   and   %s/"(NULL)"/NULL/g   and   %s/\[[^]]*\]//g                ]
[ Program should run on a little-endian platform                               ]
[------------------------------------------------------------------------------]
PDF_set_parameter(p_0x7fdea9c4e120, "licensefile", "/etc/php5/apache2/pdflib_license.txt")
PDF_set_parameter(p_0x7fdea9c4e120, "textformat", "bytes")
PDF_set_parameter(p_0x7fdea9c4e120, "SearchPath", "/var/www/admin.aatravel.co.za/web/juno/utility/color_profiles")
[New category:resource "SearchPath:/usr/local/PDFlib"]
[New category:resource "SearchPath:/usr/local/PDFlib/PDFlib"]
[New category:resource "SearchPath:/usr/local/PDFlib/PDFlib/8.0"]
[New category:resource "SearchPath:/usr/local/PDFlib/PDFlib/8.0/resource/cmap"]
[New category:resource "SearchPath:/usr/local/PDFlib/PDFlib/8.0/resource/fonts"]
[New category:resource "SearchPath:/usr/local/PDFlib/PDFlib/8.0/resource/icc"]
[New category:resource "SearchPath:/var/www/admin.aatravel.co.za/web/juno/utility/color_profiles"]

PDF_begin_document(p_0x7fdea9c4e120, "/var/www/admin.aatravel.co.za/web/juno/stuff/establishments/010993/ads/772/pdf/1342702035.pdf", /*c*/0, "")
[Begin document]
[1]
PDF_set_info2(p_0x7fdea9c4e120, "Creator", "AA TRAVEL GUIDES", /*c*/16)
PDF_set_info2(p_0x7fdea9c4e120, "Author", "Thilo Muller", /*c*/12)
PDF_set_info2(p_0x7fdea9c4e120, "Title", "AA AD | Aletheim Guest House  | 2012 SA Best - Quarter Page Ad (114x49mm) | 19/07/2012", /*c*/86)

PDF_begin_page_ext(p_0x7fdea9c4e120, 323.129252, 138.888889, "")
[Begin page #1]
PDF_set_parameter(p_0x7fdea9c4e120, "FontOutline", "HelveticaCondensedBold=/var/www/admin.aatravel.co.za/web/juno/stuff/ad_templates/fonts/helvetica-condensed-bold.ttf")
[New category:resource "FontOutline:HelveticaCondensedBold = /var/www/admin.aatravel.co.za/web/juno/stuff/ad_templates/fonts/helvetica-condensed-bold.ttf"]
PDF_load_font(p_0x7fdea9c4e120, "HelveticaCondensedBold", /*c*/0, "unicode", "embedding")
[1]
PDF_setfont(p_0x7fdea9c4e120, 1, 24.000000)
PDF_set_parameter(p_0x7fdea9c4e120, "FontOutline", "HelveticaCondensed=/var/www/admin.aatravel.co.za/web/juno/stuff/ad_templates/fonts/helvetica-condensed.ttf")
[New category:resource "FontOutline:HelveticaCondensed = /var/www/admin.aatravel.co.za/web/juno/stuff/ad_templates/fonts/helvetica-condensed.ttf"]
PDF_load_font(p_0x7fdea9c4e120, "HelveticaCondensed", /*c*/0, "unicode", "embedding")
[2]
PDF_setfont(p_0x7fdea9c4e120, 2, 24.000000)
PDF_setcolor(p_0x7fdea9c4e120, "fill", "cmyk", 0.000000, 0.400000, 0.500000, 0.000000)
PDF_setcolor(p_0x7fdea9c4e120, "fill", "cmyk", 0.000000, 0.400000, 0.500000, 0.000000)
PDF_rect(p_0x7fdea9c4e120, 0.000000, 128.888889, 323.129252, 10.000000)
PDF_fill(p_0x7fdea9c4e120)
PDF_fit_textline(p_0x7fdea9c4e120, "ALETHEIM GUEST HOUSE COLLECTION", /*c*/31, 0.000000, 133.786848, "position={left center} kerning=true charspacing=-0.4 wordspacing=-0.2 fontsize=8 fillcolor={cmyk 0 0 0 1} fontname=HelveticaCondensedBold encoding=unicode")
PDF_fit_textline(p_0x7fdea9c4e120, "DIAMOND FIELDS - Kimberley", /*c*/26, 323.129252, 133.786848, "position={right center} kerning=true charspacing=-0.4 wordspacing=-0.2 fontsize=8 fillcolor={cmyk 0 0 0 1} fontname=HelveticaCondensedBold encoding=unicode")
PDF_setcolor(p_0x7fdea9c4e120, "fill", "cmyk", 0.000000, 0.400000, 0.500000, 0.000000)
PDF_rect(p_0x7fdea9c4e120, 0.000000, 114.388889, 125.000000, 12.000000)
PDF_fill(p_0x7fdea9c4e120)
PDF_fit_textline(p_0x7fdea9c4e120, "Dbl: B pp B&B", /*c*/13, 0.000000, 120.888889, "position={left center} kerning=true charspacing=-0.3 wordspacing=-0.2 fontsize=9 fillcolor={cmyk 1 1 1 0}  fontname=HelveticaCondensedBold encoding=unicode")
PDF_fit_textline(p_0x7fdea9c4e120, "Finalist 2011 AA Travel Guides Accommodation Awards", /*c*/51, 0.000000, 109.913832, "position={left center} kerning=true charspacing=-0.4 wordspacing=-0.2 fontsize=7 fillcolor={cmyk 0 0 0 1} fontname=HelveticaCondensed encoding=unicode")
PDF_load_image(p_0x7fdea9c4e120, "auto", "/var/www/admin.aatravel.co.za/web/juno/stuff/ad_templates/img/star_cmyk.jpg", /*c*/0, "")
[1]
PDF_fit_image(p_0x7fdea9c4e120, 1, 0.000000, 96.299320, "boxsize={8 8} fitmethod=entire position=center matchbox={name=img margin=-2}")
PDF_close_image(p_0x7fdea9c4e120, 1)
PDF_load_image(p_0x7fdea9c4e120, "auto", "/var/www/admin.aatravel.co.za/web/juno/stuff/ad_templates/img/star_cmyk.jpg", /*c*/0, "")
[1]
PDF_fit_image(p_0x7fdea9c4e120, 1, 8.200000, 96.299320, "boxsize={8 8} fitmethod=entire position=center matchbox={name=img margin=-2}")
PDF_close_image(p_0x7fdea9c4e120, 1)
PDF_load_image(p_0x7fdea9c4e120, "auto", "/var/www/admin.aatravel.co.za/web/juno/stuff/ad_templates/img/star_cmyk.jpg", /*c*/0, "")
[1]
PDF_fit_image(p_0x7fdea9c4e120, 1, 16.400000, 96.299320, "boxsize={8 8} fitmethod=entire position=center matchbox={name=img margin=-2}")
PDF_close_image(p_0x7fdea9c4e120, 1)
PDF_load_image(p_0x7fdea9c4e120, "auto", "/var/www/admin.aatravel.co.za/web/juno/stuff/ad_templates/img/star_cmyk.jpg", /*c*/0, "")
[1]
PDF_fit_image(p_0x7fdea9c4e120, 1, 24.600000, 96.299320, "boxsize={8 8} fitmethod=entire position=center matchbox={name=img margin=-2}")
PDF_close_image(p_0x7fdea9c4e120, 1)
PDF_load_image(p_0x7fdea9c4e120, "auto", "/var/www/admin.aatravel.co.za/web/hires_temp/010993_1301650280_H600.jpg", /*c*/0, "")
[1]
PDF_fit_image(p_0x7fdea9c4e120, 1, 0.000000, -0.032880, "boxsize={123.58276644 82.4036281179} position={center} fitmethod=entire")
PDF_close_image(p_0x7fdea9c4e120, 1)
PDF_load_image(p_0x7fdea9c4e120, "auto", "/var/www/admin.aatravel.co.za/web/juno/stuff/ad_templates/img/icons_cmyk/AMEX.jpg", /*c*/0, "")
[1]
PDF_fit_image(p_0x7fdea9c4e120, 1, 128.000000, 8.503401, "boxsize={7.65306122449 7.65306122449} fitmethod=entire position=center matchbox={name=img2 margin=-2}")
PDF_close_image(p_0x7fdea9c4e120, 1)
PDF_load_image(p_0x7fdea9c4e120, "auto", "/var/www/admin.aatravel.co.za/web/juno/stuff/ad_templates/img/icons_cmyk/PETSARRANG.jpg", /*c*/0, "")
[1]
PDF_fit_image(p_0x7fdea9c4e120, 1, 136.503401, 8.503401, "boxsize={7.65306122449 7.65306122449} fitmethod=entire position=center matchbox={name=img2 margin=-2}")
PDF_close_image(p_0x7fdea9c4e120, 1)
PDF_load_image(p_0x7fdea9c4e120, "auto", "/var/www/admin.aatravel.co.za/web/juno/stuff/ad_templates/img/icons_cmyk/DISABLED.jpg", /*c*/0, "")
[1]
PDF_fit_image(p_0x7fdea9c4e120, 1, 145.006803, 8.503401, "boxsize={7.65306122449 7.65306122449} fitmethod=entire position=center matchbox={name=img2 margin=-2}")
PDF_close_image(p_0x7fdea9c4e120, 1)
PDF_load_image(p_0x7fdea9c4e120, "auto", "/var/www/admin.aatravel.co.za/web/juno/stuff/ad_templates/img/icons_cmyk/EXTREME.jpg", /*c*/0, "")
[1]
PDF_fit_image(p_0x7fdea9c4e120, 1, 153.510204, 8.503401, "boxsize={7.65306122449 7.65306122449} fitmethod=entire position=center matchbox={name=img2 margin=-2}")
PDF_close_image(p_0x7fdea9c4e120, 1)
PDF_load_image(p_0x7fdea9c4e120, "auto", "/var/www/admin.aatravel.co.za/web/juno/stuff/ad_templates/img/icons_cmyk/CREDCARDS.jpg", /*c*/0, "")
[1]
PDF_fit_image(p_0x7fdea9c4e120, 1, 162.013605, 8.503401, "boxsize={7.65306122449 7.65306122449} fitmethod=entire position=center matchbox={name=img2 margin=-2}")
PDF_close_image(p_0x7fdea9c4e120, 1)
PDF_load_image(p_0x7fdea9c4e120, "auto", "/var/www/admin.aatravel.co.za/web/juno/stuff/ad_templates/img/icons_cmyk/SPMEALS.jpg", /*c*/0, "")
[1]
PDF_fit_image(p_0x7fdea9c4e120, 1, 170.517007, 8.503401, "boxsize={7.65306122449 7.65306122449} fitmethod=entire position=center matchbox={name=img2 margin=-2}")
PDF_close_image(p_0x7fdea9c4e120, 1)
PDF_load_image(p_0x7fdea9c4e120, "auto", "/var/www/admin.aatravel.co.za/web/juno/stuff/ad_templates/img/icons_cmyk/LTDRMSERV.jpg", /*c*/0, "")
[1]
PDF_fit_image(p_0x7fdea9c4e120, 1, 179.020408, 8.503401, "boxsize={7.65306122449 7.65306122449} fitmethod=entire position=center matchbox={name=img2 margin=-2}")
PDF_close_image(p_0x7fdea9c4e120, 1)
PDF_load_image(p_0x7fdea9c4e120, "auto", "/var/www/admin.aatravel.co.za/web/juno/stuff/ad_templates/img/icons_cmyk/IRONSERV.jpg", /*c*/0, "")
[1]
PDF_fit_image(p_0x7fdea9c4e120, 1, 187.523810, 8.503401, "boxsize={7.65306122449 7.65306122449} fitmethod=entire position=center matchbox={name=img2 margin=-2}")
PDF_close_image(p_0x7fdea9c4e120, 1)
PDF_load_image(p_0x7fdea9c4e120, "auto", "/var/www/admin.aatravel.co.za/web/juno/stuff/ad_templates/img/icons_cmyk/LAUNDSERV.jpg", /*c*/0, "")
[1]
PDF_fit_image(p_0x7fdea9c4e120, 1, 196.027211, 8.503401, "boxsize={7.65306122449 7.65306122449} fitmethod=entire position=center matchbox={name=img2 margin=-2}")
PDF_close_image(p_0x7fdea9c4e120, 1)
PDF_load_image(p_0x7fdea9c4e120, "auto", "/var/www/admin.aatravel.co.za/web/juno/stuff/ad_templates/img/icons_cmyk/BABYSIT.jpg", /*c*/0, "")
[1]
PDF_fit_image(p_0x7fdea9c4e120, 1, 204.530612, 8.503401, "boxsize={7.65306122449 7.65306122449} fitmethod=entire position=center matchbox={name=img2 margin=-2}")
PDF_close_image(p_0x7fdea9c4e120, 1)
PDF_load_image(p_0x7fdea9c4e120, "auto", "/var/www/admin.aatravel.co.za/web/juno/stuff/ad_templates/img/icons_cmyk/IRONBOARD.jpg", /*c*/0, "")
[1]
PDF_fit_image(p_0x7fdea9c4e120, 1, 213.034014, 8.503401, "boxsize={7.65306122449 7.65306122449} fitmethod=entire position=center matchbox={name=img2 margin=-2}")
PDF_close_image(p_0x7fdea9c4e120, 1)
PDF_load_image(p_0x7fdea9c4e120, "auto", "/var/www/admin.aatravel.co.za/web/juno/stuff/ad_templates/img/icons_cmyk/BARFRIDGE.jpg", /*c*/0, "")
[1]
PDF_fit_image(p_0x7fdea9c4e120, 1, 221.537415, 8.503401, "boxsize={7.65306122449 7.65306122449} fitmethod=entire position=center matchbox={name=img2 margin=-2}")
PDF_close_image(p_0x7fdea9c4e120, 1)
PDF_load_image(p_0x7fdea9c4e120, "auto", "/var/www/admin.aatravel.co.za/web/juno/stuff/ad_templates/img/icons_cmyk/TEACOFFEE.jpg", /*c*/0, "")
[1]
PDF_fit_image(p_0x7fdea9c4e120, 1, 230.040816, 8.503401, "boxsize={7.65306122449 7.65306122449} fitmethod=entire position=center matchbox={name=img2 margin=-2}")
PDF_close_image(p_0x7fdea9c4e120, 1)
PDF_load_image(p_0x7fdea9c4e120, "auto", "/var/www/admin.aatravel.co.za/web/juno/stuff/ad_templates/img/icons_cmyk/SAFE.jpg", /*c*/0, "")
[1]
PDF_fit_image(p_0x7fdea9c4e120, 1, 238.544218, 8.503401, "boxsize={7.65306122449 7.65306122449} fitmethod=entire position=center matchbox={name=img2 margin=-2}")
PDF_close_image(p_0x7fdea9c4e120, 1)
PDF_load_image(p_0x7fdea9c4e120, "auto", "/var/www/admin.aatravel.co.za/web/juno/stuff/ad_templates/img/icons_cmyk/HEATING.jpg", /*c*/0, "")
[1]
PDF_fit_image(p_0x7fdea9c4e120, 1, 247.047619, 8.503401, "boxsize={7.65306122449 7.65306122449} fitmethod=entire position=center matchbox={name=img2 margin=-2}")
PDF_close_image(p_0x7fdea9c4e120, 1)
PDF_load_image(p_0x7fdea9c4e120, "auto", "/var/www/admin.aatravel.co.za/web/juno/stuff/ad_templates/img/icons_cmyk/AIRCOND.jpg", /*c*/0, "")
[1]
PDF_fit_image(p_0x7fdea9c4e120, 1, 255.551020, 8.503401, "boxsize={7.65306122449 7.65306122449} fitmethod=entire position=center matchbox={name=img2 margin=-2}")
PDF_close_image(p_0x7fdea9c4e120, 1)
PDF_load_image(p_0x7fdea9c4e120, "auto", "/var/www/admin.aatravel.co.za/web/juno/stuff/ad_templates/img/icons_cmyk/TOILETRIES.jpg", /*c*/0, "")
[1]
PDF_fit_image(p_0x7fdea9c4e120, 1, 264.054422, 8.503401, "boxsize={7.65306122449 7.65306122449} fitmethod=entire position=center matchbox={name=img2 margin=-2}")
PDF_close_image(p_0x7fdea9c4e120, 1)
PDF_load_image(p_0x7fdea9c4e120, "auto", "/var/www/admin.aatravel.co.za/web/juno/stuff/ad_templates/img/icons_cmyk/HAIRDRIER.jpg", /*c*/0, "")
[1]
PDF_fit_image(p_0x7fdea9c4e120, 1, 272.557823, 8.503401, "boxsize={7.65306122449 7.65306122449} fitmethod=entire position=center matchbox={name=img2 margin=-2}")
PDF_close_image(p_0x7fdea9c4e120, 1)
PDF_load_image(p_0x7fdea9c4e120, "auto", "/var/www/admin.aatravel.co.za/web/juno/stuff/ad_templates/img/icons_cmyk/SATELLITE.jpg", /*c*/0, "")
[1]
PDF_fit_image(p_0x7fdea9c4e120, 1, 281.061224, 8.503401, "boxsize={7.65306122449 7.65306122449} fitmethod=entire position=center matchbox={name=img2 margin=-2}")
PDF_close_image(p_0x7fdea9c4e120, 1)
PDF_load_image(p_0x7fdea9c4e120, "auto", "/var/www/admin.aatravel.co.za/web/juno/stuff/ad_templates/img/icons_cmyk/MICROWV.jpg", /*c*/0, "")
[1]
PDF_fit_image(p_0x7fdea9c4e120, 1, 289.564626, 8.503401, "boxsize={7.65306122449 7.65306122449} fitmethod=entire position=center matchbox={name=img2 margin=-2}")
PDF_close_image(p_0x7fdea9c4e120, 1)
PDF_load_image(p_0x7fdea9c4e120, "auto", "/var/www/admin.aatravel.co.za/web/juno/stuff/ad_templates/img/icons_cmyk/COT.jpg", /*c*/0, "")
[1]
PDF_fit_image(p_0x7fdea9c4e120, 1, 298.068027, 8.503401, "boxsize={7.65306122449 7.65306122449} fitmethod=entire position=center matchbox={name=img2 margin=-2}")
PDF_close_image(p_0x7fdea9c4e120, 1)
PDF_load_image(p_0x7fdea9c4e120, "auto", "/var/www/admin.aatravel.co.za/web/juno/stuff/ad_templates/img/icons_cmyk/NONSMOKE.jpg", /*c*/0, "")
[1]
PDF_fit_image(p_0x7fdea9c4e120, 1, 306.571429, 8.503401, "boxsize={7.65306122449 7.65306122449} fitmethod=entire position=center matchbox={name=img2 margin=-2}")
PDF_close_image(p_0x7fdea9c4e120, 1)
PDF_load_image(p_0x7fdea9c4e120, "auto", "/var/www/admin.aatravel.co.za/web/juno/stuff/ad_templates/img/icons_cmyk/COVERPARK.jpg", /*c*/0, "")
[1]
PDF_fit_image(p_0x7fdea9c4e120, 1, 315.074830, 8.503401, "boxsize={7.65306122449 7.65306122449} fitmethod=entire position=center matchbox={name=img2 margin=-2}")
PDF_close_image(p_0x7fdea9c4e120, 1)
PDF_load_image(p_0x7fdea9c4e120, "auto", "/var/www/admin.aatravel.co.za/web/juno/stuff/ad_templates/img/icons_cmyk/OPENPARK.jpg", /*c*/0, "")
[1]
PDF_fit_image(p_0x7fdea9c4e120, 1, 128.000000, 0.000000, "boxsize={7.65306122449 7.65306122449} fitmethod=entire position=center matchbox={name=img2 margin=-2}")
PDF_close_image(p_0x7fdea9c4e120, 1)
PDF_load_image(p_0x7fdea9c4e120, "auto", "/var/www/admin.aatravel.co.za/web/juno/stuff/ad_templates/img/icons_cmyk/LAUNDROMAT.jpg", /*c*/0, "")
[1]
PDF_fit_image(p_0x7fdea9c4e120, 1, 136.503401, 0.000000, "boxsize={7.65306122449 7.65306122449} fitmethod=entire position=center matchbox={name=img2 margin=-2}")
PDF_close_image(p_0x7fdea9c4e120, 1)
PDF_load_image(p_0x7fdea9c4e120, "auto", "/var/www/admin.aatravel.co.za/web/juno/stuff/ad_templates/img/icons_cmyk/TVRSATELLI.jpg", /*c*/0, "")
[1]
PDF_fit_image(p_0x7fdea9c4e120, 1, 145.006803, 0.000000, "boxsize={7.65306122449 7.65306122449} fitmethod=entire position=center matchbox={name=img2 margin=-2}")
PDF_close_image(p_0x7fdea9c4e120, 1)
PDF_load_image(p_0x7fdea9c4e120, "auto", "/var/www/admin.aatravel.co.za/web/juno/stuff/ad_templates/img/icons_cmyk/EMAILINTER.jpg", /*c*/0, "")
[1]
PDF_fit_image(p_0x7fdea9c4e120, 1, 153.510204, 0.000000, "boxsize={7.65306122449 7.65306122449} fitmethod=entire position=center matchbox={name=img2 margin=-2}")
PDF_close_image(p_0x7fdea9c4e120, 1)
PDF_load_image(p_0x7fdea9c4e120, "auto", "/var/www/admin.aatravel.co.za/web/juno/stuff/ad_templates/img/icons_cmyk/CONFERENCE.jpg", /*c*/0, "")
[1]
PDF_fit_image(p_0x7fdea9c4e120, 1, 162.013605, 0.000000, "boxsize={7.65306122449 7.65306122449} fitmethod=entire position=center matchbox={name=img2 margin=-2}")
PDF_close_image(p_0x7fdea9c4e120, 1)
PDF_load_image(p_0x7fdea9c4e120, "auto", "/var/www/admin.aatravel.co.za/web/juno/stuff/ad_templates/img/icons_cmyk/RESTAURANT.jpg", /*c*/0, "")
[1]
PDF_fit_image(p_0x7fdea9c4e120, 1, 170.517007, 0.000000, "boxsize={7.65306122449 7.65306122449} fitmethod=entire position=center matchbox={name=img2 margin=-2}")
PDF_close_image(p_0x7fdea9c4e120, 1)
PDF_load_image(p_0x7fdea9c4e120, "auto", "/var/www/admin.aatravel.co.za/web/juno/stuff/ad_templates/img/icons_cmyk/BRAAI.jpg", /*c*/0, "")
[1]
PDF_fit_image(p_0x7fdea9c4e120, 1, 179.020408, 0.000000, "boxsize={7.65306122449 7.65306122449} fitmethod=entire position=center matchbox={name=img2 margin=-2}")
PDF_close_image(p_0x7fdea9c4e120, 1)
PDF_load_image(p_0x7fdea9c4e120, "auto", "/var/www/admin.aatravel.co.za/web/juno/stuff/ad_templates/img/icons_cmyk/SWIMPOOL.jpg", /*c*/0, "")
[1]
PDF_fit_image(p_0x7fdea9c4e120, 1, 187.523810, 0.000000, "boxsize={7.65306122449 7.65306122449} fitmethod=entire position=center matchbox={name=img2 margin=-2}")
PDF_close_image(p_0x7fdea9c4e120, 1)
PDF_load_image(p_0x7fdea9c4e120, "auto", "/var/www/admin.aatravel.co.za/web/juno/stuff/ad_templates/img/icons_cmyk/BIRDWATCH.jpg", /*c*/0, "")
[1]
PDF_fit_image(p_0x7fdea9c4e120, 1, 196.027211, 0.000000, "boxsize={7.65306122449 7.65306122449} fitmethod=entire position=center matchbox={name=img2 margin=-2}")
PDF_close_image(p_0x7fdea9c4e120, 1)
PDF_load_image(p_0x7fdea9c4e120, "auto", "/var/www/admin.aatravel.co.za/web/juno/stuff/ad_templates/img/icons_cmyk/AMEX.jpg", /*c*/0, "")
[1]
PDF_fit_image(p_0x7fdea9c4e120, 1, 204.530612, 0.000000, "boxsize={7.65306122449 7.65306122449} fitmethod=entire position=center matchbox={name=img2 margin=-2}")
PDF_close_image(p_0x7fdea9c4e120, 1)
PDF_create_textflow(p_0x7fdea9c4e120, "<&icon1><&end> +27 (0) 82 553 1366;", /*c*/35, "macro {\012\011\011\011\011\011\011icon1 {matchbox={name=icon1 boxwidth=6 boxheight={4 0} offsettop=2}}\012\011\011\011\011\011\011end {matchbox={end}}\012\011\011\011\011\011\011}\012\011\011\011\011\011\011 kerning=true charspacing=-0.4 wordspacing=-0.2 fontsize=7 fillcolor={cmyk 0 0 0 1} fontname=HelveticaCondensedBold encoding=unicode")
[1]
PDF_fit_textflow(p_0x7fdea9c4e120, 1, 128.000000, 17.006803, 323.129252, 52.437642, "linespreadlimit=110%")
["_stop"]
PDF_load_image(p_0x7fdea9c4e120, "auto", "/var/www/admin.aatravel.co.za/web/juno/stuff/ad_templates/img/icons_cmyk/tel.jpg", /*c*/0, "")
[1]
PDF_info_matchbox(p_0x7fdea9c4e120, "icon1", /*c*/0, 1, "x1")
[128.000000]
PDF_info_matchbox(p_0x7fdea9c4e120, "icon1", /*c*/0, 1, "y1")
[45.437642]
PDF_info_matchbox(p_0x7fdea9c4e120, "icon1", /*c*/0, 1, "width")
[6.000000]
PDF_info_matchbox(p_0x7fdea9c4e120, "icon1", /*c*/0, 1, "height")
[6.000000]
PDF_fit_image(p_0x7fdea9c4e120, 1, 128.000000, 45.437642, "boxsize={6 6} fitmethod=entire position=center")
PDF_create_textflow(p_0x7fdea9c4e120, "<&icon2><&end> +27 (0) 86 519 6957;", /*c*/35, "macro {\012\011\011\011\011\011\011icon2 {matchbox={name=icon2 boxwidth=6 boxheight={4 0} offsettop=2}}\012\011\011\011\011\011\011end {matchbox={end}}\012\011\011\011\011\011\011}\012\011\011\011\011\011\011 kerning=true charspacing=-0.4 wordspacing=-0.2 fontsize=7 fillcolor={cmyk 0 0 0 1} fontname=HelveticaCondensedBold encoding=unicode")
[2]
PDF_fit_textflow(p_0x7fdea9c4e120, 2, 128.000000, 17.006803, 323.129252, 45.351474, "linespreadlimit=110%")
["_stop"]
PDF_load_image(p_0x7fdea9c4e120, "auto", "/var/www/admin.aatravel.co.za/web/juno/stuff/ad_templates/img/icons_cmyk/fax.jpg", /*c*/0, "")
[2]
PDF_info_matchbox(p_0x7fdea9c4e120, "icon2", /*c*/0, 1, "x1")
[128.000000]
PDF_info_matchbox(p_0x7fdea9c4e120, "icon2", /*c*/0, 1, "y1")
[38.351474]
PDF_info_matchbox(p_0x7fdea9c4e120, "icon2", /*c*/0, 1, "width")
[6.000000]
PDF_info_matchbox(p_0x7fdea9c4e120, "icon2", /*c*/0, 1, "height")
[6.000000]
PDF_fit_image(p_0x7fdea9c4e120, 2, 128.000000, 38.351474, "boxsize={6 6} fitmethod=entire position=center")
PDF_create_textflow(p_0x7fdea9c4e120, "<&icon3><&end> 59 Milner St.", /*c*/28, "macro {\012\011\011\011\011\011\011icon3 {matchbox={name=icon3 boxwidth=6 boxheight={4 0} offsettop=2}}\012\011\011\011\011\011\011end {matchbox={end}}\012\011\011\011\011\011\011}\012\011\011\011\011\011\011 kerning=true charspacing=-0.4 wordspacing=-0.2 fontsize=7 fillcolor={cmyk 0 0 0 1} fontname=HelveticaCondensedBold encoding=unicode")
[3]
PDF_fit_textflow(p_0x7fdea9c4e120, 3, 128.000000, 17.006803, 323.129252, 38.265306, "linespreadlimit=110%")
["_stop"]
PDF_load_image(p_0x7fdea9c4e120, "auto", "/var/www/admin.aatravel.co.za/web/juno/stuff/ad_templates/img/icons_cmyk/physical.jpg", /*c*/0, "")
[3]
PDF_info_matchbox(p_0x7fdea9c4e120, "icon3", /*c*/0, 1, "x1")
[128.000000]
PDF_info_matchbox(p_0x7fdea9c4e120, "icon3", /*c*/0, 1, "y1")
[31.265306]
PDF_info_matchbox(p_0x7fdea9c4e120, "icon3", /*c*/0, 1, "width")
[6.000000]
PDF_info_matchbox(p_0x7fdea9c4e120, "icon3", /*c*/0, 1, "height")
[6.000000]
PDF_fit_image(p_0x7fdea9c4e120, 3, 128.000000, 31.265306, "boxsize={6 6} fitmethod=entire position=center")
PDF_create_textflow(p_0x7fdea9c4e120, "<&icon4><&end> aletheimguesthouse@gmail.com", /*c*/43, "macro {\012\011\011\011\011\011\011icon4 {matchbox={name=icon4 boxwidth=6 boxheight={4 0} offsettop=2}}\012\011\011\011\011\011\011end {matchbox={end}}\012\011\011\011\011\011\011}\012\011\011\011\011\011\011 kerning=true charspacing=-0.4 wordspacing=-0.2 fontsize=7 fillcolor={cmyk 0 0 0 1} fontname=HelveticaCondensedBold encoding=unicode")
[4]
PDF_fit_textflow(p_0x7fdea9c4e120, 4, 128.000000, 17.006803, 323.129252, 31.179138, "linespreadlimit=110%")
["_stop"]
PDF_load_image(p_0x7fdea9c4e120, "auto", "/var/www/admin.aatravel.co.za/web/juno/stuff/ad_templates/img/icons_cmyk/email.jpg", /*c*/0, "")
[4]
PDF_info_matchbox(p_0x7fdea9c4e120, "icon4", /*c*/0, 1, "x1")
[128.000000]
PDF_info_matchbox(p_0x7fdea9c4e120, "icon4", /*c*/0, 1, "y1")
[24.179138]
PDF_info_matchbox(p_0x7fdea9c4e120, "icon4", /*c*/0, 1, "width")
[6.000000]
PDF_info_matchbox(p_0x7fdea9c4e120, "icon4", /*c*/0, 1, "height")
[6.000000]
PDF_fit_image(p_0x7fdea9c4e120, 4, 128.000000, 24.179138, "boxsize={6 6} fitmethod=entire position=center")
PDF_create_textflow(p_0x7fdea9c4e120, "<&icon5><&end> www.aletheim.co.za", /*c*/33, "macro {\012\011\011\011\011\011\011icon5 {matchbox={name=icon5 boxwidth=6 boxheight={4 0} offsettop=2}}\012\011\011\011\011\011\011end {matchbox={end}}\012\011\011\011\011\011\011}\012\011\011\011\011\011\011 kerning=true charspacing=-0.4 wordspacing=-0.2 fontsize=7 fillcolor={cmyk 0 0 0 1} fontname=HelveticaCondensedBold encoding=unicode")
[5]
PDF_fit_textflow(p_0x7fdea9c4e120, 5, 128.000000, 17.006803, 323.129252, 24.092971, "linespreadlimit=110%")
["_stop"]
PDF_load_image(p_0x7fdea9c4e120, "auto", "/var/www/admin.aatravel.co.za/web/juno/stuff/ad_templates/img/icons_cmyk/web.jpg", /*c*/0, "")
[5]
PDF_info_matchbox(p_0x7fdea9c4e120, "icon5", /*c*/0, 1, "x1")
[128.000000]
PDF_info_matchbox(p_0x7fdea9c4e120, "icon5", /*c*/0, 1, "y1")
[17.092971]
PDF_info_matchbox(p_0x7fdea9c4e120, "icon5", /*c*/0, 1, "width")
[6.000000]
PDF_info_matchbox(p_0x7fdea9c4e120, "icon5", /*c*/0, 1, "height")
[6.000000]
PDF_fit_image(p_0x7fdea9c4e120, 5, 128.000000, 17.092971, "boxsize={6 6} fitmethod=entire position=center")
PDF_load_image(p_0x7fdea9c4e120, "auto", "/var/www/admin.aatravel.co.za/web/juno/stuff/ad_templates/img/AA_cmyk.jpg", /*c*/0, "")
[6]
PDF_fit_image(p_0x7fdea9c4e120, 6, 130.000000, 104.875283, "boxsize={14.5 21.6} fitmethod=entire  matchbox={name=img margin=-2 boxheight={descender ascender} createwrapbox}")
PDF_close_image(p_0x7fdea9c4e120, 6)
PDF_create_textflow(p_0x7fdea9c4e120, "Superior - B&B Guest House with Self-Catering - Large: 9 Rooms. <adjustmethod=split alignment=justify kerning=true fontsize=8 charspacing=-0.1 wordspacing=-0.3 fillcolor={cmyk 0 0 0 1} fontname=HelveticaCondensed encoding=unicode>Milner Street offers 2 charming garden cottages, fully equipped, attractively decorated and an en suite B&B room with main house entrance. Close to all attractions. Carrington Court is a fully-equipped town house in historical Carrington Road. House Yada offers 6 en suite B&B rooms.  ", /*c*/515, " adjustmethod=split alignment=justify kerning=true fontsize=8 fillcolor={cmyk 0 0 0 1} fontname=HelveticaCondensedBold encoding=unicode ")
[6]
PDF_fit_textflow(p_0x7fdea9c4e120, 6, 130.000000, 128.888889, 323.129252, 56.000000, "  wrap={usematchboxes={{img}}} verticalalign=justify")
["_stop"]
PDF_end_page_ext(p_0x7fdea9c4e120, "")
[End page #1]

PDF_end_document(p_0x7fdea9c4e120, "")
[Full product name: "PDFlib"]
[Document ID: <680AF7894042E541DBF5226B964E8372> <680AF7894042E541DBF5226B964E8372>]
[End document]

PDF_delete(p_0x7fdea9c4e120)
[2012-07-19 14:47:17]
