[------------------------------------------------------------------------------]
[ PDFlib 8.0.3  PHP5 binding on Linux-x86_64 (le) 2011-10-31 12:57:41          ]
[ Classes: api=1 warning=1                                                     ]
[ Enter in vi to compile it:                                                   ]
[ %s/)$/);/g   and   %s/"(NULL)"/NULL/g   and   %s/\[[^]]*\]//g                ]
[ Program should run on a little-endian platform                               ]
[------------------------------------------------------------------------------]
PDF_set_parameter(p_0x7f0605a6fa60, "licensefile", "/etc/php5/apache2/pdflib_license.txt")
PDF_set_parameter(p_0x7f0605a6fa60, "textformat", "bytes")

PDF_begin_document(p_0x7f0605a6fa60, "/var/www/admin.aatravel.co.za/web/juno/stuff/establishments/120997/ads/671/pdf/1320062261.pdf", /*c*/0, "")
[Begin document]
[1]
PDF_set_info2(p_0x7f0605a6fa60, "Creator", "AA TRAVEL GUIDES", /*c*/16)
PDF_set_info2(p_0x7f0605a6fa60, "Author", "Livy Detert", /*c*/11)
PDF_set_info2(p_0x7f0605a6fa60, "Title", "AA AD | A La Fugue Guest House | 2011 Accommodation Guide (Phase2) - Quarter Page Ad (89x50mm) | 31/10/2011", /*c*/107)

PDF_begin_page_ext(p_0x7f0605a6fa60, 252.267574, 141.723356, "")
[New category:resource "SearchPath:/usr/local/PDFlib"]
[New category:resource "SearchPath:/usr/local/PDFlib/PDFlib"]
[New category:resource "SearchPath:/usr/local/PDFlib/PDFlib/8.0"]
[New category:resource "SearchPath:/usr/local/PDFlib/PDFlib/8.0/resource/cmap"]
[New category:resource "SearchPath:/usr/local/PDFlib/PDFlib/8.0/resource/fonts"]
[New category:resource "SearchPath:/usr/local/PDFlib/PDFlib/8.0/resource/icc"]
[Begin page #1]
PDF_set_parameter(p_0x7f0605a6fa60, "FontOutline", "HelveticaCondensedBold=/var/www/admin.aatravel.co.za/web/juno/stuff/ad_templates/fonts/helvetica-condensed-bold.ttf")
[New category:resource "FontOutline:HelveticaCondensedBold = /var/www/admin.aatravel.co.za/web/juno/stuff/ad_templates/fonts/helvetica-condensed-bold.ttf"]
PDF_load_font(p_0x7f0605a6fa60, "HelveticaCondensedBold", /*c*/0, "unicode", "embedding")
[1]
PDF_setfont(p_0x7f0605a6fa60, 1, 24.000000)
PDF_set_parameter(p_0x7f0605a6fa60, "FontOutline", "HelveticaCondensed=/var/www/admin.aatravel.co.za/web/juno/stuff/ad_templates/fonts/helvetica-condensed.ttf")
[New category:resource "FontOutline:HelveticaCondensed = /var/www/admin.aatravel.co.za/web/juno/stuff/ad_templates/fonts/helvetica-condensed.ttf"]
PDF_load_font(p_0x7f0605a6fa60, "HelveticaCondensed", /*c*/0, "unicode", "embedding")
[2]
PDF_setfont(p_0x7f0605a6fa60, 2, 24.000000)
PDF_setcolor(p_0x7f0605a6fa60, "fill", "cmyk", 0.000000, 0.400000, 0.500000, 0.000000)
PDF_rect(p_0x7f0605a6fa60, 0.000000, 131.802721, 252.267574, 9.920635)
PDF_fill(p_0x7f0605a6fa60)
PDF_fit_textline(p_0x7f0605a6fa60, "Green Kalahari - Upington", /*c*/25, 2.834467, 136.621315, "position={left center} kerning=true charspacing=-0.3 wordspacing=-0.2 fontsize=7 fillcolor={cmyk 0 0.4 0.5 1} fontname=HelveticaCondensedBold encoding=unicode")
PDF_fit_textline(p_0x7f0605a6fa60, "A LA FUGUE GUEST HOUSE", /*c*/22, 0.000000, 125.283447, "position={left top} kerning=true charspacing=-0.4 wordspacing=-0.2 fontsize=8 fillcolor={cmyk 0 0 0 1} fontname=HelveticaCondensedBold encoding=unicode")
PDF_load_image(p_0x7f0605a6fa60, "auto", "/var/www/admin.aatravel.co.za/web/juno/stuff/ad_templates/img/AA_cmyk.jpg", /*c*/0, "")
[1]
PDF_fit_image(p_0x7f0605a6fa60, 1, 0.000000, 93.650794, "boxsize={16.5 23.6} fitmethod=entire position=center matchbox={name=img margin=-2}")
PDF_close_image(p_0x7f0605a6fa60, 1)
PDF_create_textflow(p_0x7f0605a6fa60, "Highly Recommended - B&B Guest House with Self-Catering: 6 Rooms.\012Peaceful surroundings, beautiful tropical garden, pool and lapa for luxurious relaxation. Our French-Swiss hostess, &nbsp;Jacqueline, welcomes you personally and offers delicious breakfasts, brunches and the finest gourmet dinners (prior arrangement). <&star19><&end>    <&star19><&end>    <&star19><&end>    <&star19><&end>", /*c*/390, " macro {star19 {matchbox={name=star19 boxwidth=5 boxheight={ascender descender} offsettop=1}}\012\011\011\011\011end {matchbox={end}} } adjustmethod=split alignment=justify kerning=true charspacing=-0.3 wordspacing=-0.3 fontsize=8 fillcolor={cmyk 0 0 0 1} fontname=HelveticaCondensedBold encoding=unicode ")
[1]
PDF_fit_textflow(p_0x7f0605a6fa60, 1, 0.000000, 119.047619, 121.882086, 28.344671, "verticalalign=justify linespreadlimit=115% wrap={usematchboxes={{img}}} ")
["_stop"]
PDF_load_image(p_0x7f0605a6fa60, "auto", "/var/www/admin.aatravel.co.za/web/juno/stuff/ad_templates/img/star_cmyk.jpg", /*c*/0, "")
[1]
PDF_info_matchbox(p_0x7f0605a6fa60, "star19", /*c*/0, 0, "count")
[4.000000]
PDF_info_matchbox(p_0x7f0605a6fa60, "star19", /*c*/0, 1, "x1")
[116.582086]
PDF_info_matchbox(p_0x7f0605a6fa60, "star19", /*c*/0, 1, "y1")
[36.029888]
PDF_info_matchbox(p_0x7f0605a6fa60, "star19", /*c*/0, 1, "width")
[5.000000]
PDF_info_matchbox(p_0x7f0605a6fa60, "star19", /*c*/0, 1, "height")
[8.504000]
PDF_fit_image(p_0x7f0605a6fa60, 1, 116.582086, 36.029888, "boxsize={10 9} fitmethod=entire position=center")
PDF_info_matchbox(p_0x7f0605a6fa60, "star19", /*c*/0, 2, "x1")
[0.000000]
PDF_info_matchbox(p_0x7f0605a6fa60, "star19", /*c*/0, 2, "y1")
[26.840671]
PDF_info_matchbox(p_0x7f0605a6fa60, "star19", /*c*/0, 2, "width")
[5.000000]
PDF_info_matchbox(p_0x7f0605a6fa60, "star19", /*c*/0, 2, "height")
[8.504000]
PDF_fit_image(p_0x7f0605a6fa60, 1, 0.000000, 26.840671, "boxsize={10 9} fitmethod=entire position=center")
PDF_info_matchbox(p_0x7f0605a6fa60, "star19", /*c*/0, 3, "x1")
[10.600000]
PDF_info_matchbox(p_0x7f0605a6fa60, "star19", /*c*/0, 3, "y1")
[26.840671]
PDF_info_matchbox(p_0x7f0605a6fa60, "star19", /*c*/0, 3, "width")
[5.000000]
PDF_info_matchbox(p_0x7f0605a6fa60, "star19", /*c*/0, 3, "height")
[8.504000]
PDF_fit_image(p_0x7f0605a6fa60, 1, 10.600000, 26.840671, "boxsize={10 9} fitmethod=entire position=center")
PDF_info_matchbox(p_0x7f0605a6fa60, "star19", /*c*/0, 4, "x1")
[21.200000]
PDF_info_matchbox(p_0x7f0605a6fa60, "star19", /*c*/0, 4, "y1")
[26.840671]
PDF_info_matchbox(p_0x7f0605a6fa60, "star19", /*c*/0, 4, "width")
[5.000000]
PDF_info_matchbox(p_0x7f0605a6fa60, "star19", /*c*/0, 4, "height")
[8.504000]
PDF_fit_image(p_0x7f0605a6fa60, 1, 21.200000, 26.840671, "boxsize={10 9} fitmethod=entire position=center")
PDF_load_image(p_0x7f0605a6fa60, "auto", "/var/www/admin.aatravel.co.za/web/hires_temp/120997_1285750276_H600.jpg", /*c*/0, "")
[2]
PDF_fit_image(p_0x7f0605a6fa60, 2, 126.133787, 27.352608, "boxsize={129.25170068 100.907029478} position={center} fitmethod=entire")
PDF_close_image(p_0x7f0605a6fa60, 2)
PDF_create_textflow(p_0x7f0605a6fa60, "T: +27 (0)54 338 0424 · C: +27 (0)82 789 9324 · F: +27 (0)54 338 0084\012a-la-fugue@mweb.co.za · www.lafugue-guesthouse.com", /*c*/120, "alignment=center kerning=true charspacing=-0.4 wordspacing=-0.2 fontsize=7.5 fillcolor={cmyk 0 0 0 1} fontname=HelveticaCondensedBold encoding=unicode")
[2]
PDF_fit_textflow(p_0x7f0605a6fa60, 2, 0.000000, 5.668934, 252.267574, 23.242630, "verticalalign=justify linespreadlimit=110%")
["_stop"]
PDF_end_page_ext(p_0x7f0605a6fa60, "")
[End page #1]

PDF_end_document(p_0x7f0605a6fa60, "")
[Full product name: "PDFlib"]
[Document ID: <43A958E4973950983313F84C9574EDB5> <43A958E4973950983313F84C9574EDB5>]
[End document]

PDF_delete(p_0x7f0605a6fa60)
[2011-10-31 12:57:42]
[------------------------------------------------------------------------------]
[ PDFlib 8.0.3  PHP5 binding on Linux-x86_64 (le) 2011-10-31 12:58:55          ]
[ Classes: api=1 warning=1                                                     ]
[ Enter in vi to compile it:                                                   ]
[ %s/)$/);/g   and   %s/"(NULL)"/NULL/g   and   %s/\[[^]]*\]//g                ]
[ Program should run on a little-endian platform                               ]
[------------------------------------------------------------------------------]
PDF_set_parameter(p_0x7f0605a5f2b8, "licensefile", "/etc/php5/apache2/pdflib_license.txt")
PDF_set_parameter(p_0x7f0605a5f2b8, "textformat", "bytes")

PDF_begin_document(p_0x7f0605a5f2b8, "/var/www/admin.aatravel.co.za/web/juno/stuff/establishments/120997/ads/671/pdf/1320062335.pdf", /*c*/0, "")
[Begin document]
[1]
PDF_set_info2(p_0x7f0605a5f2b8, "Creator", "AA TRAVEL GUIDES", /*c*/16)
PDF_set_info2(p_0x7f0605a5f2b8, "Author", "Livy Detert", /*c*/11)
PDF_set_info2(p_0x7f0605a5f2b8, "Title", "AA AD | A La Fugue Guest House | 2011 Accommodation Guide (Phase2) - Quarter Page Ad (89x50mm) | 31/10/2011", /*c*/107)

PDF_begin_page_ext(p_0x7f0605a5f2b8, 252.267574, 141.723356, "")
[New category:resource "SearchPath:/usr/local/PDFlib"]
[New category:resource "SearchPath:/usr/local/PDFlib/PDFlib"]
[New category:resource "SearchPath:/usr/local/PDFlib/PDFlib/8.0"]
[New category:resource "SearchPath:/usr/local/PDFlib/PDFlib/8.0/resource/cmap"]
[New category:resource "SearchPath:/usr/local/PDFlib/PDFlib/8.0/resource/fonts"]
[New category:resource "SearchPath:/usr/local/PDFlib/PDFlib/8.0/resource/icc"]
[Begin page #1]
PDF_set_parameter(p_0x7f0605a5f2b8, "FontOutline", "HelveticaCondensedBold=/var/www/admin.aatravel.co.za/web/juno/stuff/ad_templates/fonts/helvetica-condensed-bold.ttf")
[New category:resource "FontOutline:HelveticaCondensedBold = /var/www/admin.aatravel.co.za/web/juno/stuff/ad_templates/fonts/helvetica-condensed-bold.ttf"]
PDF_load_font(p_0x7f0605a5f2b8, "HelveticaCondensedBold", /*c*/0, "unicode", "embedding")
[1]
PDF_setfont(p_0x7f0605a5f2b8, 1, 24.000000)
PDF_set_parameter(p_0x7f0605a5f2b8, "FontOutline", "HelveticaCondensed=/var/www/admin.aatravel.co.za/web/juno/stuff/ad_templates/fonts/helvetica-condensed.ttf")
[New category:resource "FontOutline:HelveticaCondensed = /var/www/admin.aatravel.co.za/web/juno/stuff/ad_templates/fonts/helvetica-condensed.ttf"]
PDF_load_font(p_0x7f0605a5f2b8, "HelveticaCondensed", /*c*/0, "unicode", "embedding")
[2]
PDF_setfont(p_0x7f0605a5f2b8, 2, 24.000000)
PDF_setcolor(p_0x7f0605a5f2b8, "fill", "cmyk", 0.000000, 0.400000, 0.500000, 0.000000)
PDF_rect(p_0x7f0605a5f2b8, 0.000000, 131.802721, 252.267574, 9.920635)
PDF_fill(p_0x7f0605a5f2b8)
PDF_fit_textline(p_0x7f0605a5f2b8, "Green Kalahari - Upington", /*c*/25, 2.834467, 136.621315, "position={left center} kerning=true charspacing=-0.3 wordspacing=-0.2 fontsize=7 fillcolor={cmyk 0 0.4 0.5 1} fontname=HelveticaCondensedBold encoding=unicode")
PDF_fit_textline(p_0x7f0605a5f2b8, "A LA FUGUE GUEST HOUSE", /*c*/22, 0.000000, 125.283447, "position={left top} kerning=true charspacing=-0.4 wordspacing=-0.2 fontsize=8 fillcolor={cmyk 0 0 0 1} fontname=HelveticaCondensedBold encoding=unicode")
PDF_load_image(p_0x7f0605a5f2b8, "auto", "/var/www/admin.aatravel.co.za/web/juno/stuff/ad_templates/img/AA_cmyk.jpg", /*c*/0, "")
[1]
PDF_fit_image(p_0x7f0605a5f2b8, 1, 0.000000, 93.650794, "boxsize={16.5 23.6} fitmethod=entire position=center matchbox={name=img margin=-2}")
PDF_close_image(p_0x7f0605a5f2b8, 1)
PDF_create_textflow(p_0x7f0605a5f2b8, "Highly Recommended - B&B Guest House with Self-Catering: 6 Rooms.\012Peaceful surroundings, beautiful garden, pool and lapa for luxurious relaxation. Our French-Swiss hostess, &nbsp;Jacqueline, welcomes you personally and offers delicious breakfasts, brunches and the finest gourmet dinners (prior arrangement). <&star19><&end>    <&star19><&end>    <&star19><&end>    <&star19><&end>", /*c*/381, " macro {star19 {matchbox={name=star19 boxwidth=5 boxheight={ascender descender} offsettop=1}}\012\011\011\011\011end {matchbox={end}} } adjustmethod=split alignment=justify kerning=true charspacing=-0.3 wordspacing=-0.3 fontsize=8 fillcolor={cmyk 0 0 0 1} fontname=HelveticaCondensedBold encoding=unicode ")
[1]
PDF_fit_textflow(p_0x7f0605a5f2b8, 1, 0.000000, 119.047619, 121.882086, 28.344671, "verticalalign=justify linespreadlimit=115% wrap={usematchboxes={{img}}} ")
["_stop"]
PDF_load_image(p_0x7f0605a5f2b8, "auto", "/var/www/admin.aatravel.co.za/web/juno/stuff/ad_templates/img/star_cmyk.jpg", /*c*/0, "")
[1]
PDF_info_matchbox(p_0x7f0605a5f2b8, "star19", /*c*/0, 0, "count")
[4.000000]
PDF_info_matchbox(p_0x7f0605a5f2b8, "star19", /*c*/0, 1, "x1")
[62.420000]
PDF_info_matchbox(p_0x7f0605a5f2b8, "star19", /*c*/0, 1, "y1")
[45.543619]
PDF_info_matchbox(p_0x7f0605a5f2b8, "star19", /*c*/0, 1, "width")
[5.000000]
PDF_info_matchbox(p_0x7f0605a5f2b8, "star19", /*c*/0, 1, "height")
[8.504000]
PDF_fit_image(p_0x7f0605a5f2b8, 1, 62.420000, 45.543619, "boxsize={10 9} fitmethod=entire position=center")
PDF_info_matchbox(p_0x7f0605a5f2b8, "star19", /*c*/0, 2, "x1")
[73.020000]
PDF_info_matchbox(p_0x7f0605a5f2b8, "star19", /*c*/0, 2, "y1")
[45.543619]
PDF_info_matchbox(p_0x7f0605a5f2b8, "star19", /*c*/0, 2, "width")
[5.000000]
PDF_info_matchbox(p_0x7f0605a5f2b8, "star19", /*c*/0, 2, "height")
[8.504000]
PDF_fit_image(p_0x7f0605a5f2b8, 1, 73.020000, 45.543619, "boxsize={10 9} fitmethod=entire position=center")
PDF_info_matchbox(p_0x7f0605a5f2b8, "star19", /*c*/0, 3, "x1")
[83.620000]
PDF_info_matchbox(p_0x7f0605a5f2b8, "star19", /*c*/0, 3, "y1")
[45.543619]
PDF_info_matchbox(p_0x7f0605a5f2b8, "star19", /*c*/0, 3, "width")
[5.000000]
PDF_info_matchbox(p_0x7f0605a5f2b8, "star19", /*c*/0, 3, "height")
[8.504000]
PDF_fit_image(p_0x7f0605a5f2b8, 1, 83.620000, 45.543619, "boxsize={10 9} fitmethod=entire position=center")
PDF_info_matchbox(p_0x7f0605a5f2b8, "star19", /*c*/0, 4, "x1")
[94.220000]
PDF_info_matchbox(p_0x7f0605a5f2b8, "star19", /*c*/0, 4, "y1")
[45.543619]
PDF_info_matchbox(p_0x7f0605a5f2b8, "star19", /*c*/0, 4, "width")
[5.000000]
PDF_info_matchbox(p_0x7f0605a5f2b8, "star19", /*c*/0, 4, "height")
[8.504000]
PDF_fit_image(p_0x7f0605a5f2b8, 1, 94.220000, 45.543619, "boxsize={10 9} fitmethod=entire position=center")
PDF_load_image(p_0x7f0605a5f2b8, "auto", "/var/www/admin.aatravel.co.za/web/hires_temp/120997_1285750276_H600.jpg", /*c*/0, "")
[2]
PDF_fit_image(p_0x7f0605a5f2b8, 2, 126.133787, 27.352608, "boxsize={129.25170068 100.907029478} position={center} fitmethod=entire")
PDF_close_image(p_0x7f0605a5f2b8, 2)
PDF_create_textflow(p_0x7f0605a5f2b8, "T: +27 (0)54 338 0424 · C: +27 (0)82 789 9324 · F: +27 (0)54 338 0084\012a-la-fugue@mweb.co.za · www.lafugue-guesthouse.com", /*c*/120, "alignment=center kerning=true charspacing=-0.4 wordspacing=-0.2 fontsize=7.5 fillcolor={cmyk 0 0 0 1} fontname=HelveticaCondensedBold encoding=unicode")
[2]
PDF_fit_textflow(p_0x7f0605a5f2b8, 2, 0.000000, 5.668934, 252.267574, 23.242630, "verticalalign=justify linespreadlimit=110%")
["_stop"]
PDF_end_page_ext(p_0x7f0605a5f2b8, "")
[End page #1]

PDF_end_document(p_0x7f0605a5f2b8, "")
[Full product name: "PDFlib"]
[Document ID: <6A569D5F3CD3D6ECD26BF638728ACE7A> <6A569D5F3CD3D6ECD26BF638728ACE7A>]
[End document]

PDF_delete(p_0x7f0605a5f2b8)
[2011-10-31 12:58:56]
[------------------------------------------------------------------------------]
[ PDFlib 8.0.3  PHP5 binding on Linux-x86_64 (le) 2011-10-31 13:00:07          ]
[ Classes: api=1 warning=1                                                     ]
[ Enter in vi to compile it:                                                   ]
[ %s/)$/);/g   and   %s/"(NULL)"/NULL/g   and   %s/\[[^]]*\]//g                ]
[ Program should run on a little-endian platform                               ]
[------------------------------------------------------------------------------]
PDF_set_parameter(p_0x7f6569f3bb58, "licensefile", "/etc/php5/apache2/pdflib_license.txt")
PDF_set_parameter(p_0x7f6569f3bb58, "textformat", "bytes")

PDF_begin_document(p_0x7f6569f3bb58, "/var/www/admin.aatravel.co.za/web/juno/stuff/establishments/120997/ads/671/pdf/1320062407.pdf", /*c*/0, "")
[Begin document]
[1]
PDF_set_info2(p_0x7f6569f3bb58, "Creator", "AA TRAVEL GUIDES", /*c*/16)
PDF_set_info2(p_0x7f6569f3bb58, "Author", "Livy Detert", /*c*/11)
PDF_set_info2(p_0x7f6569f3bb58, "Title", "AA AD | A La Fugue Guest House | 2011 Accommodation Guide (Phase2) - Quarter Page Ad (89x50mm) | 31/10/2011", /*c*/107)

PDF_begin_page_ext(p_0x7f6569f3bb58, 252.267574, 141.723356, "")
[New category:resource "SearchPath:/usr/local/PDFlib"]
[New category:resource "SearchPath:/usr/local/PDFlib/PDFlib"]
[New category:resource "SearchPath:/usr/local/PDFlib/PDFlib/8.0"]
[New category:resource "SearchPath:/usr/local/PDFlib/PDFlib/8.0/resource/cmap"]
[New category:resource "SearchPath:/usr/local/PDFlib/PDFlib/8.0/resource/fonts"]
[New category:resource "SearchPath:/usr/local/PDFlib/PDFlib/8.0/resource/icc"]
[Begin page #1]
PDF_set_parameter(p_0x7f6569f3bb58, "FontOutline", "HelveticaCondensedBold=/var/www/admin.aatravel.co.za/web/juno/stuff/ad_templates/fonts/helvetica-condensed-bold.ttf")
[New category:resource "FontOutline:HelveticaCondensedBold = /var/www/admin.aatravel.co.za/web/juno/stuff/ad_templates/fonts/helvetica-condensed-bold.ttf"]
PDF_load_font(p_0x7f6569f3bb58, "HelveticaCondensedBold", /*c*/0, "unicode", "embedding")
[1]
PDF_setfont(p_0x7f6569f3bb58, 1, 24.000000)
PDF_set_parameter(p_0x7f6569f3bb58, "FontOutline", "HelveticaCondensed=/var/www/admin.aatravel.co.za/web/juno/stuff/ad_templates/fonts/helvetica-condensed.ttf")
[New category:resource "FontOutline:HelveticaCondensed = /var/www/admin.aatravel.co.za/web/juno/stuff/ad_templates/fonts/helvetica-condensed.ttf"]
PDF_load_font(p_0x7f6569f3bb58, "HelveticaCondensed", /*c*/0, "unicode", "embedding")
[2]
PDF_setfont(p_0x7f6569f3bb58, 2, 24.000000)
PDF_setcolor(p_0x7f6569f3bb58, "fill", "cmyk", 0.000000, 0.400000, 0.500000, 0.000000)
PDF_rect(p_0x7f6569f3bb58, 0.000000, 131.802721, 252.267574, 9.920635)
PDF_fill(p_0x7f6569f3bb58)
PDF_fit_textline(p_0x7f6569f3bb58, "Green Kalahari - Upington", /*c*/25, 2.834467, 136.621315, "position={left center} kerning=true charspacing=-0.3 wordspacing=-0.2 fontsize=7 fillcolor={cmyk 0 0.4 0.5 1} fontname=HelveticaCondensedBold encoding=unicode")
PDF_fit_textline(p_0x7f6569f3bb58, "Rates: B pp B&B", /*c*/15, 249.433107, 136.621315, "position={right center} kerning=true charspacing=-0.3 wordspacing=-0.2 fontsize=7 fillcolor={cmyk 0 0.4 0.5 1}")
PDF_fit_textline(p_0x7f6569f3bb58, "A LA FUGUE GUEST HOUSE", /*c*/22, 0.000000, 125.283447, "position={left top} kerning=true charspacing=-0.4 wordspacing=-0.2 fontsize=8 fillcolor={cmyk 0 0 0 1} fontname=HelveticaCondensedBold encoding=unicode")
PDF_load_image(p_0x7f6569f3bb58, "auto", "/var/www/admin.aatravel.co.za/web/juno/stuff/ad_templates/img/AA_cmyk.jpg", /*c*/0, "")
[1]
PDF_fit_image(p_0x7f6569f3bb58, 1, 0.000000, 93.650794, "boxsize={16.5 23.6} fitmethod=entire position=center matchbox={name=img margin=-2}")
PDF_close_image(p_0x7f6569f3bb58, 1)
PDF_create_textflow(p_0x7f6569f3bb58, "Highly Recommended - B&B Guest House with Self-Catering: 6 Rooms.\012Peaceful surroundings, beautiful garden, pool and lapa for luxurious relaxation. Our French-Swiss hostess,  Jacqueline, welcomes you personally and offers delicious breakfasts, brunches and the finest gourmet dinners (prior arrangement). <&star19><&end>    <&star19><&end>    <&star19><&end>    <&star19><&end>", /*c*/376, " macro {star19 {matchbox={name=star19 boxwidth=5 boxheight={ascender descender} offsettop=1}}\012\011\011\011\011end {matchbox={end}} } adjustmethod=split alignment=justify kerning=true charspacing=-0.3 wordspacing=-0.3 fontsize=8 fillcolor={cmyk 0 0 0 1} fontname=HelveticaCondensedBold encoding=unicode ")
[1]
PDF_fit_textflow(p_0x7f6569f3bb58, 1, 0.000000, 119.047619, 121.882086, 28.344671, "verticalalign=justify linespreadlimit=115% wrap={usematchboxes={{img}}} ")
["_stop"]
PDF_load_image(p_0x7f6569f3bb58, "auto", "/var/www/admin.aatravel.co.za/web/juno/stuff/ad_templates/img/star_cmyk.jpg", /*c*/0, "")
[1]
PDF_info_matchbox(p_0x7f6569f3bb58, "star19", /*c*/0, 0, "count")
[4.000000]
PDF_info_matchbox(p_0x7f6569f3bb58, "star19", /*c*/0, 1, "x1")
[44.604000]
PDF_info_matchbox(p_0x7f6569f3bb58, "star19", /*c*/0, 1, "y1")
[45.543619]
PDF_info_matchbox(p_0x7f6569f3bb58, "star19", /*c*/0, 1, "width")
[5.000000]
PDF_info_matchbox(p_0x7f6569f3bb58, "star19", /*c*/0, 1, "height")
[8.504000]
PDF_fit_image(p_0x7f6569f3bb58, 1, 44.604000, 45.543619, "boxsize={10 9} fitmethod=entire position=center")
PDF_info_matchbox(p_0x7f6569f3bb58, "star19", /*c*/0, 2, "x1")
[55.204000]
PDF_info_matchbox(p_0x7f6569f3bb58, "star19", /*c*/0, 2, "y1")
[45.543619]
PDF_info_matchbox(p_0x7f6569f3bb58, "star19", /*c*/0, 2, "width")
[5.000000]
PDF_info_matchbox(p_0x7f6569f3bb58, "star19", /*c*/0, 2, "height")
[8.504000]
PDF_fit_image(p_0x7f6569f3bb58, 1, 55.204000, 45.543619, "boxsize={10 9} fitmethod=entire position=center")
PDF_info_matchbox(p_0x7f6569f3bb58, "star19", /*c*/0, 3, "x1")
[65.804000]
PDF_info_matchbox(p_0x7f6569f3bb58, "star19", /*c*/0, 3, "y1")
[45.543619]
PDF_info_matchbox(p_0x7f6569f3bb58, "star19", /*c*/0, 3, "width")
[5.000000]
PDF_info_matchbox(p_0x7f6569f3bb58, "star19", /*c*/0, 3, "height")
[8.504000]
PDF_fit_image(p_0x7f6569f3bb58, 1, 65.804000, 45.543619, "boxsize={10 9} fitmethod=entire position=center")
PDF_info_matchbox(p_0x7f6569f3bb58, "star19", /*c*/0, 4, "x1")
[76.404000]
PDF_info_matchbox(p_0x7f6569f3bb58, "star19", /*c*/0, 4, "y1")
[45.543619]
PDF_info_matchbox(p_0x7f6569f3bb58, "star19", /*c*/0, 4, "width")
[5.000000]
PDF_info_matchbox(p_0x7f6569f3bb58, "star19", /*c*/0, 4, "height")
[8.504000]
PDF_fit_image(p_0x7f6569f3bb58, 1, 76.404000, 45.543619, "boxsize={10 9} fitmethod=entire position=center")
PDF_load_image(p_0x7f6569f3bb58, "auto", "/var/www/admin.aatravel.co.za/web/hires_temp/120997_1285750276_H600.jpg", /*c*/0, "")
[2]
PDF_fit_image(p_0x7f6569f3bb58, 2, 126.133787, 27.352608, "boxsize={129.25170068 100.907029478} position={center} fitmethod=entire")
PDF_close_image(p_0x7f6569f3bb58, 2)
PDF_create_textflow(p_0x7f6569f3bb58, "T: +27 (0)54 338 0424 · C: +27 (0)82 789 9324 · F: +27 (0)54 338 0084\012a-la-fugue@mweb.co.za · www.lafugue-guesthouse.com", /*c*/120, "alignment=center kerning=true charspacing=-0.4 wordspacing=-0.2 fontsize=7.5 fillcolor={cmyk 0 0 0 1} fontname=HelveticaCondensedBold encoding=unicode")
[2]
PDF_fit_textflow(p_0x7f6569f3bb58, 2, 0.000000, 5.668934, 252.267574, 23.242630, "verticalalign=justify linespreadlimit=110%")
["_stop"]
PDF_end_page_ext(p_0x7f6569f3bb58, "")
[End page #1]

PDF_end_document(p_0x7f6569f3bb58, "")
[Full product name: "PDFlib"]
[Document ID: <9D00E3A10F5B7717FDB817D9636519C7> <9D00E3A10F5B7717FDB817D9636519C7>]
[End document]

PDF_delete(p_0x7f6569f3bb58)
[2011-10-31 13:00:08]
[------------------------------------------------------------------------------]
[ PDFlib 8.0.3  PHP5 binding on Linux-x86_64 (le) 2011-10-31 13:01:53          ]
[ Classes: api=1 warning=1                                                     ]
[ Enter in vi to compile it:                                                   ]
[ %s/)$/);/g   and   %s/"(NULL)"/NULL/g   and   %s/\[[^]]*\]//g                ]
[ Program should run on a little-endian platform                               ]
[------------------------------------------------------------------------------]
PDF_set_parameter(p_0x7f6569fc5dd0, "licensefile", "/etc/php5/apache2/pdflib_license.txt")
PDF_set_parameter(p_0x7f6569fc5dd0, "textformat", "bytes")

PDF_begin_document(p_0x7f6569fc5dd0, "/var/www/admin.aatravel.co.za/web/juno/stuff/establishments/120997/ads/671/pdf/1320062513.pdf", /*c*/0, "")
[Begin document]
[1]
PDF_set_info2(p_0x7f6569fc5dd0, "Creator", "AA TRAVEL GUIDES", /*c*/16)
PDF_set_info2(p_0x7f6569fc5dd0, "Author", "Livy Detert", /*c*/11)
PDF_set_info2(p_0x7f6569fc5dd0, "Title", "AA AD | A La Fugue Guest House | 2011 Accommodation Guide (Phase2) - Quarter Page Ad (89x50mm) | 31/10/2011", /*c*/107)

PDF_begin_page_ext(p_0x7f6569fc5dd0, 252.267574, 141.723356, "")
[New category:resource "SearchPath:/usr/local/PDFlib"]
[New category:resource "SearchPath:/usr/local/PDFlib/PDFlib"]
[New category:resource "SearchPath:/usr/local/PDFlib/PDFlib/8.0"]
[New category:resource "SearchPath:/usr/local/PDFlib/PDFlib/8.0/resource/cmap"]
[New category:resource "SearchPath:/usr/local/PDFlib/PDFlib/8.0/resource/fonts"]
[New category:resource "SearchPath:/usr/local/PDFlib/PDFlib/8.0/resource/icc"]
[Begin page #1]
PDF_set_parameter(p_0x7f6569fc5dd0, "FontOutline", "HelveticaCondensedBold=/var/www/admin.aatravel.co.za/web/juno/stuff/ad_templates/fonts/helvetica-condensed-bold.ttf")
[New category:resource "FontOutline:HelveticaCondensedBold = /var/www/admin.aatravel.co.za/web/juno/stuff/ad_templates/fonts/helvetica-condensed-bold.ttf"]
PDF_load_font(p_0x7f6569fc5dd0, "HelveticaCondensedBold", /*c*/0, "unicode", "embedding")
[1]
PDF_setfont(p_0x7f6569fc5dd0, 1, 24.000000)
PDF_set_parameter(p_0x7f6569fc5dd0, "FontOutline", "HelveticaCondensed=/var/www/admin.aatravel.co.za/web/juno/stuff/ad_templates/fonts/helvetica-condensed.ttf")
[New category:resource "FontOutline:HelveticaCondensed = /var/www/admin.aatravel.co.za/web/juno/stuff/ad_templates/fonts/helvetica-condensed.ttf"]
PDF_load_font(p_0x7f6569fc5dd0, "HelveticaCondensed", /*c*/0, "unicode", "embedding")
[2]
PDF_setfont(p_0x7f6569fc5dd0, 2, 24.000000)
PDF_setcolor(p_0x7f6569fc5dd0, "fill", "cmyk", 0.000000, 0.400000, 0.500000, 0.000000)
PDF_rect(p_0x7f6569fc5dd0, 0.000000, 131.802721, 252.267574, 9.920635)
PDF_fill(p_0x7f6569fc5dd0)
PDF_fit_textline(p_0x7f6569fc5dd0, "Green Kalahari - Upington", /*c*/25, 2.834467, 136.621315, "position={left center} kerning=true charspacing=-0.3 wordspacing=-0.2 fontsize=7 fillcolor={cmyk 0 0.4 0.5 1} fontname=HelveticaCondensedBold encoding=unicode")
PDF_fit_textline(p_0x7f6569fc5dd0, "Rates: B pp B&B", /*c*/15, 249.433107, 136.621315, "position={right center} kerning=true charspacing=-0.3 wordspacing=-0.2 fontsize=7 fillcolor={cmyk 0 0.4 0.5 1}")
PDF_fit_textline(p_0x7f6569fc5dd0, "A LA FUGUE GUEST HOUSE", /*c*/22, 0.000000, 125.283447, "position={left top} kerning=true charspacing=-0.4 wordspacing=-0.2 fontsize=8 fillcolor={cmyk 0 0 0 1} fontname=HelveticaCondensedBold encoding=unicode")
PDF_load_image(p_0x7f6569fc5dd0, "auto", "/var/www/admin.aatravel.co.za/web/juno/stuff/ad_templates/img/AA_cmyk.jpg", /*c*/0, "")
[1]
PDF_fit_image(p_0x7f6569fc5dd0, 1, 0.000000, 93.650794, "boxsize={16.5 23.6} fitmethod=entire position=center matchbox={name=img margin=-2}")
PDF_close_image(p_0x7f6569fc5dd0, 1)
PDF_create_textflow(p_0x7f6569fc5dd0, "Highly Recommended - B&B Guest House with Self-Catering: 6 Rooms.\012Peaceful surroundings, beautiful garden, pool and lapa for luxurious relaxation. Our French-Swiss hostess, Jacqueline, welcomes you personally and offers delicious breakfasts, brunches and the finest gourmet dinners (prior arrange- ment). <&star19><&end>    <&star19><&end>    <&star19><&end>    <&star19><&end>", /*c*/377, " macro {star19 {matchbox={name=star19 boxwidth=5 boxheight={ascender descender} offsettop=1}}\012\011\011\011\011end {matchbox={end}} } adjustmethod=split alignment=justify kerning=true charspacing=-0.3 wordspacing=-0.3 fontsize=8 fillcolor={cmyk 0 0 0 1} fontname=HelveticaCondensedBold encoding=unicode ")
[1]
PDF_fit_textflow(p_0x7f6569fc5dd0, 1, 0.000000, 119.047619, 121.882086, 28.344671, "verticalalign=justify linespreadlimit=115% wrap={usematchboxes={{img}}} ")
["_stop"]
PDF_load_image(p_0x7f6569fc5dd0, "auto", "/var/www/admin.aatravel.co.za/web/juno/stuff/ad_templates/img/star_cmyk.jpg", /*c*/0, "")
[1]
PDF_info_matchbox(p_0x7f6569fc5dd0, "star19", /*c*/0, 0, "count")
[4.000000]
PDF_info_matchbox(p_0x7f6569fc5dd0, "star19", /*c*/0, 1, "x1")
[21.376000]
PDF_info_matchbox(p_0x7f6569fc5dd0, "star19", /*c*/0, 1, "y1")
[45.543619]
PDF_info_matchbox(p_0x7f6569fc5dd0, "star19", /*c*/0, 1, "width")
[5.000000]
PDF_info_matchbox(p_0x7f6569fc5dd0, "star19", /*c*/0, 1, "height")
[8.504000]
PDF_fit_image(p_0x7f6569fc5dd0, 1, 21.376000, 45.543619, "boxsize={10 9} fitmethod=entire position=center")
PDF_info_matchbox(p_0x7f6569fc5dd0, "star19", /*c*/0, 2, "x1")
[31.976000]
PDF_info_matchbox(p_0x7f6569fc5dd0, "star19", /*c*/0, 2, "y1")
[45.543619]
PDF_info_matchbox(p_0x7f6569fc5dd0, "star19", /*c*/0, 2, "width")
[5.000000]
PDF_info_matchbox(p_0x7f6569fc5dd0, "star19", /*c*/0, 2, "height")
[8.504000]
PDF_fit_image(p_0x7f6569fc5dd0, 1, 31.976000, 45.543619, "boxsize={10 9} fitmethod=entire position=center")
PDF_info_matchbox(p_0x7f6569fc5dd0, "star19", /*c*/0, 3, "x1")
[42.576000]
PDF_info_matchbox(p_0x7f6569fc5dd0, "star19", /*c*/0, 3, "y1")
[45.543619]
PDF_info_matchbox(p_0x7f6569fc5dd0, "star19", /*c*/0, 3, "width")
[5.000000]
PDF_info_matchbox(p_0x7f6569fc5dd0, "star19", /*c*/0, 3, "height")
[8.504000]
PDF_fit_image(p_0x7f6569fc5dd0, 1, 42.576000, 45.543619, "boxsize={10 9} fitmethod=entire position=center")
PDF_info_matchbox(p_0x7f6569fc5dd0, "star19", /*c*/0, 4, "x1")
[53.176000]
PDF_info_matchbox(p_0x7f6569fc5dd0, "star19", /*c*/0, 4, "y1")
[45.543619]
PDF_info_matchbox(p_0x7f6569fc5dd0, "star19", /*c*/0, 4, "width")
[5.000000]
PDF_info_matchbox(p_0x7f6569fc5dd0, "star19", /*c*/0, 4, "height")
[8.504000]
PDF_fit_image(p_0x7f6569fc5dd0, 1, 53.176000, 45.543619, "boxsize={10 9} fitmethod=entire position=center")
PDF_load_image(p_0x7f6569fc5dd0, "auto", "/var/www/admin.aatravel.co.za/web/hires_temp/120997_1285750276_H600.jpg", /*c*/0, "")
[2]
PDF_fit_image(p_0x7f6569fc5dd0, 2, 126.133787, 27.352608, "boxsize={129.25170068 100.907029478} position={center} fitmethod=entire")
PDF_close_image(p_0x7f6569fc5dd0, 2)
PDF_create_textflow(p_0x7f6569fc5dd0, "T: +27 (0)54 338 0424 · C: +27 (0)82 789 9324 · F: +27 (0)54 338 0084\012a-la-fugue@mweb.co.za · www.lafugue-guesthouse.com", /*c*/120, "alignment=center kerning=true charspacing=-0.4 wordspacing=-0.2 fontsize=7.5 fillcolor={cmyk 0 0 0 1} fontname=HelveticaCondensedBold encoding=unicode")
[2]
PDF_fit_textflow(p_0x7f6569fc5dd0, 2, 0.000000, 5.668934, 252.267574, 23.242630, "verticalalign=justify linespreadlimit=110%")
["_stop"]
PDF_end_page_ext(p_0x7f6569fc5dd0, "")
[End page #1]

PDF_end_document(p_0x7f6569fc5dd0, "")
[Full product name: "PDFlib"]
[Document ID: <ECC2AE46070602F7DD0D5844B5A7CBB6> <ECC2AE46070602F7DD0D5844B5A7CBB6>]
[End document]

PDF_delete(p_0x7f6569fc5dd0)
[2011-10-31 13:01:54]
[------------------------------------------------------------------------------]
[ PDFlib 8.0.3  PHP5 binding on Linux-x86_64 (le) 2011-10-31 13:03:29          ]
[ Classes: api=1 warning=1                                                     ]
[ Enter in vi to compile it:                                                   ]
[ %s/)$/);/g   and   %s/"(NULL)"/NULL/g   and   %s/\[[^]]*\]//g                ]
[ Program should run on a little-endian platform                               ]
[------------------------------------------------------------------------------]
PDF_set_parameter(p_0x7f6569f39a30, "licensefile", "/etc/php5/apache2/pdflib_license.txt")
PDF_set_parameter(p_0x7f6569f39a30, "textformat", "bytes")

PDF_begin_document(p_0x7f6569f39a30, "/var/www/admin.aatravel.co.za/web/juno/stuff/establishments/120997/ads/671/pdf/1320062609.pdf", /*c*/0, "")
[Begin document]
[1]
PDF_set_info2(p_0x7f6569f39a30, "Creator", "AA TRAVEL GUIDES", /*c*/16)
PDF_set_info2(p_0x7f6569f39a30, "Author", "Livy Detert", /*c*/11)
PDF_set_info2(p_0x7f6569f39a30, "Title", "AA AD | A La Fugue Guest House | 2011 Accommodation Guide (Phase2) - Quarter Page Ad (89x50mm) | 31/10/2011", /*c*/107)

PDF_begin_page_ext(p_0x7f6569f39a30, 252.267574, 141.723356, "")
[New category:resource "SearchPath:/usr/local/PDFlib"]
[New category:resource "SearchPath:/usr/local/PDFlib/PDFlib"]
[New category:resource "SearchPath:/usr/local/PDFlib/PDFlib/8.0"]
[New category:resource "SearchPath:/usr/local/PDFlib/PDFlib/8.0/resource/cmap"]
[New category:resource "SearchPath:/usr/local/PDFlib/PDFlib/8.0/resource/fonts"]
[New category:resource "SearchPath:/usr/local/PDFlib/PDFlib/8.0/resource/icc"]
[Begin page #1]
PDF_set_parameter(p_0x7f6569f39a30, "FontOutline", "HelveticaCondensedBold=/var/www/admin.aatravel.co.za/web/juno/stuff/ad_templates/fonts/helvetica-condensed-bold.ttf")
[New category:resource "FontOutline:HelveticaCondensedBold = /var/www/admin.aatravel.co.za/web/juno/stuff/ad_templates/fonts/helvetica-condensed-bold.ttf"]
PDF_load_font(p_0x7f6569f39a30, "HelveticaCondensedBold", /*c*/0, "unicode", "embedding")
[1]
PDF_setfont(p_0x7f6569f39a30, 1, 24.000000)
PDF_set_parameter(p_0x7f6569f39a30, "FontOutline", "HelveticaCondensed=/var/www/admin.aatravel.co.za/web/juno/stuff/ad_templates/fonts/helvetica-condensed.ttf")
[New category:resource "FontOutline:HelveticaCondensed = /var/www/admin.aatravel.co.za/web/juno/stuff/ad_templates/fonts/helvetica-condensed.ttf"]
PDF_load_font(p_0x7f6569f39a30, "HelveticaCondensed", /*c*/0, "unicode", "embedding")
[2]
PDF_setfont(p_0x7f6569f39a30, 2, 24.000000)
PDF_setcolor(p_0x7f6569f39a30, "fill", "cmyk", 0.000000, 0.400000, 0.500000, 0.000000)
PDF_rect(p_0x7f6569f39a30, 0.000000, 131.802721, 252.267574, 9.920635)
PDF_fill(p_0x7f6569f39a30)
PDF_fit_textline(p_0x7f6569f39a30, "Green Kalahari - Upington", /*c*/25, 2.834467, 136.621315, "position={left center} kerning=true charspacing=-0.3 wordspacing=-0.2 fontsize=7 fillcolor={cmyk 0 0.4 0.5 1} fontname=HelveticaCondensedBold encoding=unicode")
PDF_fit_textline(p_0x7f6569f39a30, "Rates: B pp B&B", /*c*/15, 249.433107, 136.621315, "position={right center} kerning=true charspacing=-0.3 wordspacing=-0.2 fontsize=7 fillcolor={cmyk 0 0.4 0.5 1}")
PDF_fit_textline(p_0x7f6569f39a30, "A LA FUGUE GUEST HOUSE", /*c*/22, 0.000000, 125.283447, "position={left top} kerning=true charspacing=-0.4 wordspacing=-0.2 fontsize=8 fillcolor={cmyk 0 0 0 1} fontname=HelveticaCondensedBold encoding=unicode")
PDF_load_image(p_0x7f6569f39a30, "auto", "/var/www/admin.aatravel.co.za/web/juno/stuff/ad_templates/img/AA_cmyk.jpg", /*c*/0, "")
[1]
PDF_fit_image(p_0x7f6569f39a30, 1, 0.000000, 93.650794, "boxsize={16.5 23.6} fitmethod=entire position=center matchbox={name=img margin=-2}")
PDF_close_image(p_0x7f6569f39a30, 1)
PDF_create_textflow(p_0x7f6569f39a30, "Highly Recommended - B&B Guest House with Self-Catering: 6 Rooms.\012Peaceful surroundings, beautiful garden, pool and lapa for luxurious relaxation. Our French-Swiss hostess, Jacqueline, welcomes you personally and offers delicious breakfasts, brunches and the finest gourmet dinners (prior arrangement). <&star19><&end>    <&star19><&end>    <&star19><&end>    <&star19><&end>", /*c*/375, " macro {star19 {matchbox={name=star19 boxwidth=5 boxheight={ascender descender} offsettop=1}}\012\011\011\011\011end {matchbox={end}} } adjustmethod=split alignment=justify kerning=true charspacing=-0.3 wordspacing=-0.3 fontsize=8 fillcolor={cmyk 0 0 0 1} fontname=HelveticaCondensedBold encoding=unicode ")
[1]
PDF_fit_textflow(p_0x7f6569f39a30, 1, 0.000000, 119.047619, 121.882086, 28.344671, "verticalalign=justify linespreadlimit=115% wrap={usematchboxes={{img}}} ")
["_stop"]
PDF_load_image(p_0x7f6569f39a30, "auto", "/var/www/admin.aatravel.co.za/web/juno/stuff/ad_templates/img/star_cmyk.jpg", /*c*/0, "")
[1]
PDF_info_matchbox(p_0x7f6569f39a30, "star19", /*c*/0, 0, "count")
[4.000000]
PDF_info_matchbox(p_0x7f6569f39a30, "star19", /*c*/0, 1, "x1")
[44.604000]
PDF_info_matchbox(p_0x7f6569f39a30, "star19", /*c*/0, 1, "y1")
[45.543619]
PDF_info_matchbox(p_0x7f6569f39a30, "star19", /*c*/0, 1, "width")
[5.000000]
PDF_info_matchbox(p_0x7f6569f39a30, "star19", /*c*/0, 1, "height")
[8.504000]
PDF_fit_image(p_0x7f6569f39a30, 1, 44.604000, 45.543619, "boxsize={10 9} fitmethod=entire position=center")
PDF_info_matchbox(p_0x7f6569f39a30, "star19", /*c*/0, 2, "x1")
[55.204000]
PDF_info_matchbox(p_0x7f6569f39a30, "star19", /*c*/0, 2, "y1")
[45.543619]
PDF_info_matchbox(p_0x7f6569f39a30, "star19", /*c*/0, 2, "width")
[5.000000]
PDF_info_matchbox(p_0x7f6569f39a30, "star19", /*c*/0, 2, "height")
[8.504000]
PDF_fit_image(p_0x7f6569f39a30, 1, 55.204000, 45.543619, "boxsize={10 9} fitmethod=entire position=center")
PDF_info_matchbox(p_0x7f6569f39a30, "star19", /*c*/0, 3, "x1")
[65.804000]
PDF_info_matchbox(p_0x7f6569f39a30, "star19", /*c*/0, 3, "y1")
[45.543619]
PDF_info_matchbox(p_0x7f6569f39a30, "star19", /*c*/0, 3, "width")
[5.000000]
PDF_info_matchbox(p_0x7f6569f39a30, "star19", /*c*/0, 3, "height")
[8.504000]
PDF_fit_image(p_0x7f6569f39a30, 1, 65.804000, 45.543619, "boxsize={10 9} fitmethod=entire position=center")
PDF_info_matchbox(p_0x7f6569f39a30, "star19", /*c*/0, 4, "x1")
[76.404000]
PDF_info_matchbox(p_0x7f6569f39a30, "star19", /*c*/0, 4, "y1")
[45.543619]
PDF_info_matchbox(p_0x7f6569f39a30, "star19", /*c*/0, 4, "width")
[5.000000]
PDF_info_matchbox(p_0x7f6569f39a30, "star19", /*c*/0, 4, "height")
[8.504000]
PDF_fit_image(p_0x7f6569f39a30, 1, 76.404000, 45.543619, "boxsize={10 9} fitmethod=entire position=center")
PDF_load_image(p_0x7f6569f39a30, "auto", "/var/www/admin.aatravel.co.za/web/hires_temp/120997_1285750276_H600.jpg", /*c*/0, "")
[2]
PDF_fit_image(p_0x7f6569f39a30, 2, 126.133787, 27.352608, "boxsize={129.25170068 100.907029478} position={center} fitmethod=entire")
PDF_close_image(p_0x7f6569f39a30, 2)
PDF_create_textflow(p_0x7f6569f39a30, "T: +27 (0)54 338 0424 · C: +27 (0)82 789 9324 · F: +27 (0)54 338 0084\012a-la-fugue@mweb.co.za · www.lafugue-guesthouse.com", /*c*/120, "alignment=center kerning=true charspacing=-0.4 wordspacing=-0.2 fontsize=7.5 fillcolor={cmyk 0 0 0 1} fontname=HelveticaCondensedBold encoding=unicode")
[2]
PDF_fit_textflow(p_0x7f6569f39a30, 2, 0.000000, 5.668934, 252.267574, 23.242630, "verticalalign=justify linespreadlimit=110%")
["_stop"]
PDF_end_page_ext(p_0x7f6569f39a30, "")
[End page #1]

PDF_end_document(p_0x7f6569f39a30, "")
[Full product name: "PDFlib"]
[Document ID: <7DCF59D826A0E6ADEFDA618BAEA0750A> <7DCF59D826A0E6ADEFDA618BAEA0750A>]
[End document]

PDF_delete(p_0x7f6569f39a30)
[2011-10-31 13:03:29]
[------------------------------------------------------------------------------]
[ PDFlib 8.0.3  PHP5 binding on Linux-x86_64 (le) 2011-10-31 13:04:13          ]
[ Classes: api=1 warning=1                                                     ]
[ Enter in vi to compile it:                                                   ]
[ %s/)$/);/g   and   %s/"(NULL)"/NULL/g   and   %s/\[[^]]*\]//g                ]
[ Program should run on a little-endian platform                               ]
[------------------------------------------------------------------------------]
PDF_set_parameter(p_0x7f6569fc55c0, "licensefile", "/etc/php5/apache2/pdflib_license.txt")
PDF_set_parameter(p_0x7f6569fc55c0, "textformat", "bytes")

PDF_begin_document(p_0x7f6569fc55c0, "/var/www/admin.aatravel.co.za/web/juno/stuff/establishments/120997/ads/671/pdf/1320062653.pdf", /*c*/0, "")
[Begin document]
[1]
PDF_set_info2(p_0x7f6569fc55c0, "Creator", "AA TRAVEL GUIDES", /*c*/16)
PDF_set_info2(p_0x7f6569fc55c0, "Author", "Livy Detert", /*c*/11)
PDF_set_info2(p_0x7f6569fc55c0, "Title", "AA AD | A La Fugue Guest House | 2011 Accommodation Guide (Phase2) - Quarter Page Ad (89x50mm) | 31/10/2011", /*c*/107)

PDF_begin_page_ext(p_0x7f6569fc55c0, 252.267574, 141.723356, "")
[New category:resource "SearchPath:/usr/local/PDFlib"]
[New category:resource "SearchPath:/usr/local/PDFlib/PDFlib"]
[New category:resource "SearchPath:/usr/local/PDFlib/PDFlib/8.0"]
[New category:resource "SearchPath:/usr/local/PDFlib/PDFlib/8.0/resource/cmap"]
[New category:resource "SearchPath:/usr/local/PDFlib/PDFlib/8.0/resource/fonts"]
[New category:resource "SearchPath:/usr/local/PDFlib/PDFlib/8.0/resource/icc"]
[Begin page #1]
PDF_set_parameter(p_0x7f6569fc55c0, "FontOutline", "HelveticaCondensedBold=/var/www/admin.aatravel.co.za/web/juno/stuff/ad_templates/fonts/helvetica-condensed-bold.ttf")
[New category:resource "FontOutline:HelveticaCondensedBold = /var/www/admin.aatravel.co.za/web/juno/stuff/ad_templates/fonts/helvetica-condensed-bold.ttf"]
PDF_load_font(p_0x7f6569fc55c0, "HelveticaCondensedBold", /*c*/0, "unicode", "embedding")
[1]
PDF_setfont(p_0x7f6569fc55c0, 1, 24.000000)
PDF_set_parameter(p_0x7f6569fc55c0, "FontOutline", "HelveticaCondensed=/var/www/admin.aatravel.co.za/web/juno/stuff/ad_templates/fonts/helvetica-condensed.ttf")
[New category:resource "FontOutline:HelveticaCondensed = /var/www/admin.aatravel.co.za/web/juno/stuff/ad_templates/fonts/helvetica-condensed.ttf"]
PDF_load_font(p_0x7f6569fc55c0, "HelveticaCondensed", /*c*/0, "unicode", "embedding")
[2]
PDF_setfont(p_0x7f6569fc55c0, 2, 24.000000)
PDF_setcolor(p_0x7f6569fc55c0, "fill", "cmyk", 0.000000, 0.400000, 0.500000, 0.000000)
PDF_rect(p_0x7f6569fc55c0, 0.000000, 131.802721, 252.267574, 9.920635)
PDF_fill(p_0x7f6569fc55c0)
PDF_fit_textline(p_0x7f6569fc55c0, "Green Kalahari - Upington", /*c*/25, 2.834467, 136.621315, "position={left center} kerning=true charspacing=-0.3 wordspacing=-0.2 fontsize=7 fillcolor={cmyk 0 0.4 0.5 1} fontname=HelveticaCondensedBold encoding=unicode")
PDF_fit_textline(p_0x7f6569fc55c0, "Rates: B pp B&B", /*c*/15, 249.433107, 136.621315, "position={right center} kerning=true charspacing=-0.3 wordspacing=-0.2 fontsize=7 fillcolor={cmyk 0 0.4 0.5 1}")
PDF_fit_textline(p_0x7f6569fc55c0, "A LA FUGUE GUEST HOUSE", /*c*/22, 0.000000, 125.283447, "position={left top} kerning=true charspacing=-0.4 wordspacing=-0.2 fontsize=8 fillcolor={cmyk 0 0 0 1} fontname=HelveticaCondensedBold encoding=unicode")
PDF_load_image(p_0x7f6569fc55c0, "auto", "/var/www/admin.aatravel.co.za/web/juno/stuff/ad_templates/img/AA_cmyk.jpg", /*c*/0, "")
[1]
PDF_fit_image(p_0x7f6569fc55c0, 1, 0.000000, 93.650794, "boxsize={16.5 23.6} fitmethod=entire position=center matchbox={name=img margin=-2}")
PDF_close_image(p_0x7f6569fc55c0, 1)
PDF_create_textflow(p_0x7f6569fc55c0, "Highly Recommended - B&B Guest House with Self-Catering: 6 Rooms.\012Peaceful surroundings, beautiful garden, pool and lapa for luxurious relaxation. Our French-Swiss hostess, Jacqueline, welcomes you personally and offers delicious breakfasts, brunches and the finest gourmet dinners (prior arrange- ment). <&star19><&end>    <&star19><&end>    <&star19><&end>    <&star19><&end>", /*c*/377, " macro {star19 {matchbox={name=star19 boxwidth=5 boxheight={ascender descender} offsettop=1}}\012\011\011\011\011end {matchbox={end}} } adjustmethod=split alignment=justify kerning=true charspacing=-0.3 wordspacing=-0.3 fontsize=8 fillcolor={cmyk 0 0 0 1} fontname=HelveticaCondensedBold encoding=unicode ")
[1]
PDF_fit_textflow(p_0x7f6569fc55c0, 1, 0.000000, 119.047619, 121.882086, 28.344671, "verticalalign=justify linespreadlimit=115% wrap={usematchboxes={{img}}} ")
["_stop"]
PDF_load_image(p_0x7f6569fc55c0, "auto", "/var/www/admin.aatravel.co.za/web/juno/stuff/ad_templates/img/star_cmyk.jpg", /*c*/0, "")
[1]
PDF_info_matchbox(p_0x7f6569fc55c0, "star19", /*c*/0, 0, "count")
[4.000000]
PDF_info_matchbox(p_0x7f6569fc55c0, "star19", /*c*/0, 1, "x1")
[21.376000]
PDF_info_matchbox(p_0x7f6569fc55c0, "star19", /*c*/0, 1, "y1")
[45.543619]
PDF_info_matchbox(p_0x7f6569fc55c0, "star19", /*c*/0, 1, "width")
[5.000000]
PDF_info_matchbox(p_0x7f6569fc55c0, "star19", /*c*/0, 1, "height")
[8.504000]
PDF_fit_image(p_0x7f6569fc55c0, 1, 21.376000, 45.543619, "boxsize={10 9} fitmethod=entire position=center")
PDF_info_matchbox(p_0x7f6569fc55c0, "star19", /*c*/0, 2, "x1")
[31.976000]
PDF_info_matchbox(p_0x7f6569fc55c0, "star19", /*c*/0, 2, "y1")
[45.543619]
PDF_info_matchbox(p_0x7f6569fc55c0, "star19", /*c*/0, 2, "width")
[5.000000]
PDF_info_matchbox(p_0x7f6569fc55c0, "star19", /*c*/0, 2, "height")
[8.504000]
PDF_fit_image(p_0x7f6569fc55c0, 1, 31.976000, 45.543619, "boxsize={10 9} fitmethod=entire position=center")
PDF_info_matchbox(p_0x7f6569fc55c0, "star19", /*c*/0, 3, "x1")
[42.576000]
PDF_info_matchbox(p_0x7f6569fc55c0, "star19", /*c*/0, 3, "y1")
[45.543619]
PDF_info_matchbox(p_0x7f6569fc55c0, "star19", /*c*/0, 3, "width")
[5.000000]
PDF_info_matchbox(p_0x7f6569fc55c0, "star19", /*c*/0, 3, "height")
[8.504000]
PDF_fit_image(p_0x7f6569fc55c0, 1, 42.576000, 45.543619, "boxsize={10 9} fitmethod=entire position=center")
PDF_info_matchbox(p_0x7f6569fc55c0, "star19", /*c*/0, 4, "x1")
[53.176000]
PDF_info_matchbox(p_0x7f6569fc55c0, "star19", /*c*/0, 4, "y1")
[45.543619]
PDF_info_matchbox(p_0x7f6569fc55c0, "star19", /*c*/0, 4, "width")
[5.000000]
PDF_info_matchbox(p_0x7f6569fc55c0, "star19", /*c*/0, 4, "height")
[8.504000]
PDF_fit_image(p_0x7f6569fc55c0, 1, 53.176000, 45.543619, "boxsize={10 9} fitmethod=entire position=center")
PDF_load_image(p_0x7f6569fc55c0, "auto", "/var/www/admin.aatravel.co.za/web/hires_temp/120997_1285750276_H600.jpg", /*c*/0, "")
[2]
PDF_fit_image(p_0x7f6569fc55c0, 2, 126.133787, 27.352608, "boxsize={129.25170068 100.907029478} position={center} fitmethod=entire")
PDF_close_image(p_0x7f6569fc55c0, 2)
PDF_create_textflow(p_0x7f6569fc55c0, "T: +27 (0)54 338 0424 · C: +27 (0)82 789 9324 · F: +27 (0)54 338 0084\012a-la-fugue@mweb.co.za · www.lafugue-guesthouse.com", /*c*/120, "alignment=center kerning=true charspacing=-0.4 wordspacing=-0.2 fontsize=7.5 fillcolor={cmyk 0 0 0 1} fontname=HelveticaCondensedBold encoding=unicode")
[2]
PDF_fit_textflow(p_0x7f6569fc55c0, 2, 0.000000, 5.668934, 252.267574, 23.242630, "verticalalign=justify linespreadlimit=110%")
["_stop"]
PDF_end_page_ext(p_0x7f6569fc55c0, "")
[End page #1]

PDF_end_document(p_0x7f6569fc55c0, "")
[Full product name: "PDFlib"]
[Document ID: <5590A9BBCDFFC7714943D0E1F8403930> <5590A9BBCDFFC7714943D0E1F8403930>]
[End document]

PDF_delete(p_0x7f6569fc55c0)
[2011-10-31 13:04:13]
