[------------------------------------------------------------------------------]
[ PDFlib 8.0.3  PHP5 binding on Linux-x86_64 (le) 2012-07-28 17:32:23          ]
[ Classes: api=1 warning=1                                                     ]
[ Enter in vi to compile it:                                                   ]
[ %s/)$/);/g   and   %s/"(NULL)"/NULL/g   and   %s/\[[^]]*\]//g                ]
[ Program should run on a little-endian platform                               ]
[------------------------------------------------------------------------------]
PDF_set_parameter(p_0x7f2fe9974710, "licensefile", "/etc/php5/apache2/pdflib_license.txt")
PDF_set_parameter(p_0x7f2fe9974710, "textformat", "bytes")
PDF_set_parameter(p_0x7f2fe9974710, "SearchPath", "/var/www/admin.aatravel.co.za/web/juno/utility/color_profiles")
[New category:resource "SearchPath:/usr/local/PDFlib"]
[New category:resource "SearchPath:/usr/local/PDFlib/PDFlib"]
[New category:resource "SearchPath:/usr/local/PDFlib/PDFlib/8.0"]
[New category:resource "SearchPath:/usr/local/PDFlib/PDFlib/8.0/resource/cmap"]
[New category:resource "SearchPath:/usr/local/PDFlib/PDFlib/8.0/resource/fonts"]
[New category:resource "SearchPath:/usr/local/PDFlib/PDFlib/8.0/resource/icc"]
[New category:resource "SearchPath:/var/www/admin.aatravel.co.za/web/juno/utility/color_profiles"]

PDF_begin_document(p_0x7f2fe9974710, "/var/www/admin.aatravel.co.za/web/juno/stuff/establishments/RE7804/ads/814/pdf/1343489543.pdf", /*c*/0, "")
[Begin document]
[1]
PDF_set_info2(p_0x7f2fe9974710, "Creator", "AA TRAVEL GUIDES", /*c*/16)
PDF_set_info2(p_0x7f2fe9974710, "Author", "Vanessa Weltman", /*c*/15)
PDF_set_info2(p_0x7f2fe9974710, "Title", "AA AD | Reilly's Rock Hilltop Lodge | 2012 SA Best - Quarter Page Ad (114x49mm) | 28/07/2012", /*c*/92)

PDF_begin_page_ext(p_0x7f2fe9974710, 323.129252, 138.888889, "")
[Begin page #1]
PDF_set_parameter(p_0x7f2fe9974710, "FontOutline", "HelveticaCondensedBold=/var/www/admin.aatravel.co.za/web/juno/stuff/ad_templates/fonts/helvetica-condensed-bold.ttf")
[New category:resource "FontOutline:HelveticaCondensedBold = /var/www/admin.aatravel.co.za/web/juno/stuff/ad_templates/fonts/helvetica-condensed-bold.ttf"]
PDF_load_font(p_0x7f2fe9974710, "HelveticaCondensedBold", /*c*/0, "unicode", "embedding")
[1]
PDF_setfont(p_0x7f2fe9974710, 1, 24.000000)
PDF_set_parameter(p_0x7f2fe9974710, "FontOutline", "HelveticaCondensed=/var/www/admin.aatravel.co.za/web/juno/stuff/ad_templates/fonts/helvetica-condensed.ttf")
[New category:resource "FontOutline:HelveticaCondensed = /var/www/admin.aatravel.co.za/web/juno/stuff/ad_templates/fonts/helvetica-condensed.ttf"]
PDF_load_font(p_0x7f2fe9974710, "HelveticaCondensed", /*c*/0, "unicode", "embedding")
[2]
PDF_setfont(p_0x7f2fe9974710, 2, 24.000000)
PDF_setcolor(p_0x7f2fe9974710, "fill", "cmyk", 0.100000, 0.200000, 0.300000, 0.000000)
PDF_setcolor(p_0x7f2fe9974710, "fill", "cmyk", 0.100000, 0.200000, 0.300000, 0.000000)
PDF_rect(p_0x7f2fe9974710, 0.000000, 128.888889, 323.129252, 10.000000)
PDF_fill(p_0x7f2fe9974710)
PDF_fit_textline(p_0x7f2fe9974710, "Reilly's Rock Hilltop Lodge", /*c*/27, 0.000000, 133.786848, "position={left center} kerning=true charspacing=-0.4 wordspacing=-0.2 fontsize=8 fillcolor={cmyk 0 0 0 1} fontname=HelveticaCondensedBold encoding=unicode")
PDF_fit_textline(p_0x7f2fe9974710, "Swaziland - Ezulwini", /*c*/20, 323.129252, 133.786848, "position={right center} kerning=true charspacing=-0.4 wordspacing=-0.2 fontsize=8 fillcolor={cmyk 0 0 0 1} fontname=HelveticaCondensedBold encoding=unicode")
PDF_setcolor(p_0x7f2fe9974710, "fill", "cmyk", 0.100000, 0.200000, 0.300000, 0.000000)
PDF_rect(p_0x7f2fe9974710, 0.000000, 114.388889, 125.000000, 12.000000)
PDF_fill(p_0x7f2fe9974710)
PDF_fit_textline(p_0x7f2fe9974710, "On Request", /*c*/10, 0.000000, 120.888889, "position={left center} kerning=true charspacing=-0.3 wordspacing=-0.2 fontsize=9 fillcolor={cmyk 1 1 1 0}  fontname=HelveticaCondensedBold encoding=unicode")
PDF_load_image(p_0x7f2fe9974710, "auto", "/var/www/admin.aatravel.co.za/web/juno/ico/0.gif", /*c*/0, "")
[1]
PDF_fit_image(p_0x7f2fe9974710, 1, 0.000000, -0.032880, "boxsize={123.58276644 82.4036281179} position={center} fitmethod=entire")
PDF_close_image(p_0x7f2fe9974710, 1)
PDF_load_image(p_0x7f2fe9974710, "auto", "/var/www/admin.aatravel.co.za/web/juno/stuff/ad_templates/img/icons_cmyk/PFOLIO.jpg", /*c*/0, "")
[1]
PDF_fit_image(p_0x7f2fe9974710, 1, 130.000000, 0.000000, "boxsize={7.65306122449 7.65306122449} fitmethod=entire position=center matchbox={name=img2 margin=-2}")
PDF_close_image(p_0x7f2fe9974710, 1)
PDF_load_image(p_0x7f2fe9974710, "auto", "/var/www/admin.aatravel.co.za/web/juno/stuff/ad_templates/img/icons_cmyk/AMEX.jpg", /*c*/0, "")
[1]
PDF_fit_image(p_0x7f2fe9974710, 1, 138.503401, 0.000000, "boxsize={7.65306122449 7.65306122449} fitmethod=entire position=center matchbox={name=img2 margin=-2}")
PDF_close_image(p_0x7f2fe9974710, 1)
PDF_load_image(p_0x7f2fe9974710, "auto", "/var/www/admin.aatravel.co.za/web/juno/stuff/ad_templates/img/icons_cmyk/BIRDWATCH.jpg", /*c*/0, "")
[1]
PDF_fit_image(p_0x7f2fe9974710, 1, 147.006803, 0.000000, "boxsize={7.65306122449 7.65306122449} fitmethod=entire position=center matchbox={name=img2 margin=-2}")
PDF_close_image(p_0x7f2fe9974710, 1)
PDF_load_image(p_0x7f2fe9974710, "auto", "/var/www/admin.aatravel.co.za/web/juno/stuff/ad_templates/img/icons_cmyk/GAMEVIEW.jpg", /*c*/0, "")
[1]
PDF_fit_image(p_0x7f2fe9974710, 1, 155.510204, 0.000000, "boxsize={7.65306122449 7.65306122449} fitmethod=entire position=center matchbox={name=img2 margin=-2}")
PDF_close_image(p_0x7f2fe9974710, 1)
PDF_load_image(p_0x7f2fe9974710, "auto", "/var/www/admin.aatravel.co.za/web/juno/stuff/ad_templates/img/icons_cmyk/HIKING.jpg", /*c*/0, "")
[1]
PDF_fit_image(p_0x7f2fe9974710, 1, 164.013605, 0.000000, "boxsize={7.65306122449 7.65306122449} fitmethod=entire position=center matchbox={name=img2 margin=-2}")
PDF_close_image(p_0x7f2fe9974710, 1)
PDF_load_image(p_0x7f2fe9974710, "auto", "/var/www/admin.aatravel.co.za/web/juno/stuff/ad_templates/img/icons_cmyk/MTBIKE.jpg", /*c*/0, "")
[1]
PDF_fit_image(p_0x7f2fe9974710, 1, 172.517007, 0.000000, "boxsize={7.65306122449 7.65306122449} fitmethod=entire position=center matchbox={name=img2 margin=-2}")
PDF_close_image(p_0x7f2fe9974710, 1)
PDF_load_image(p_0x7f2fe9974710, "auto", "/var/www/admin.aatravel.co.za/web/juno/stuff/ad_templates/img/icons_cmyk/HORSERIDNG.jpg", /*c*/0, "")
[1]
PDF_fit_image(p_0x7f2fe9974710, 1, 181.020408, 0.000000, "boxsize={7.65306122449 7.65306122449} fitmethod=entire position=center matchbox={name=img2 margin=-2}")
PDF_close_image(p_0x7f2fe9974710, 1)
PDF_load_image(p_0x7f2fe9974710, "auto", "/var/www/admin.aatravel.co.za/web/juno/stuff/ad_templates/img/icons_cmyk/CEILINGFAN.jpg", /*c*/0, "")
[1]
PDF_fit_image(p_0x7f2fe9974710, 1, 189.523810, 0.000000, "boxsize={7.65306122449 7.65306122449} fitmethod=entire position=center matchbox={name=img2 margin=-2}")
PDF_close_image(p_0x7f2fe9974710, 1)
PDF_load_image(p_0x7f2fe9974710, "auto", "/var/www/admin.aatravel.co.za/web/juno/stuff/ad_templates/img/icons_cmyk/LAUNDSERV.jpg", /*c*/0, "")
[1]
PDF_fit_image(p_0x7f2fe9974710, 1, 198.027211, 0.000000, "boxsize={7.65306122449 7.65306122449} fitmethod=entire position=center matchbox={name=img2 margin=-2}")
PDF_close_image(p_0x7f2fe9974710, 1)
PDF_load_image(p_0x7f2fe9974710, "auto", "/var/www/admin.aatravel.co.za/web/juno/stuff/ad_templates/img/icons_cmyk/IRONSERV.jpg", /*c*/0, "")
[1]
PDF_fit_image(p_0x7f2fe9974710, 1, 206.530612, 0.000000, "boxsize={7.65306122449 7.65306122449} fitmethod=entire position=center matchbox={name=img2 margin=-2}")
PDF_close_image(p_0x7f2fe9974710, 1)
PDF_load_image(p_0x7f2fe9974710, "auto", "/var/www/admin.aatravel.co.za/web/juno/stuff/ad_templates/img/icons_cmyk/SPMEALS.jpg", /*c*/0, "")
[1]
PDF_fit_image(p_0x7f2fe9974710, 1, 215.034014, 0.000000, "boxsize={7.65306122449 7.65306122449} fitmethod=entire position=center matchbox={name=img2 margin=-2}")
PDF_close_image(p_0x7f2fe9974710, 1)
PDF_load_image(p_0x7f2fe9974710, "auto", "/var/www/admin.aatravel.co.za/web/juno/stuff/ad_templates/img/icons_cmyk/CREDCARDS.jpg", /*c*/0, "")
[1]
PDF_fit_image(p_0x7f2fe9974710, 1, 223.537415, 0.000000, "boxsize={7.65306122449 7.65306122449} fitmethod=entire position=center matchbox={name=img2 margin=-2}")
PDF_close_image(p_0x7f2fe9974710, 1)
PDF_load_image(p_0x7f2fe9974710, "auto", "/var/www/admin.aatravel.co.za/web/juno/stuff/ad_templates/img/icons_cmyk/DISABLED.jpg", /*c*/0, "")
[1]
PDF_fit_image(p_0x7f2fe9974710, 1, 232.040816, 0.000000, "boxsize={7.65306122449 7.65306122449} fitmethod=entire position=center matchbox={name=img2 margin=-2}")
PDF_close_image(p_0x7f2fe9974710, 1)
PDF_load_image(p_0x7f2fe9974710, "auto", "/var/www/admin.aatravel.co.za/web/juno/stuff/ad_templates/img/icons_cmyk/NOPETS.jpg", /*c*/0, "")
[1]
PDF_fit_image(p_0x7f2fe9974710, 1, 240.544218, 0.000000, "boxsize={7.65306122449 7.65306122449} fitmethod=entire position=center matchbox={name=img2 margin=-2}")
PDF_close_image(p_0x7f2fe9974710, 1)
PDF_create_textflow(p_0x7f2fe9974710, "<&icon1><&end> +(268) 2528 3943;", /*c*/32, "macro {\012\011\011\011\011\011\011icon1 {matchbox={name=icon1 boxwidth=6 boxheight={4 0} offsettop=2}}\012\011\011\011\011\011\011end {matchbox={end}}\012\011\011\011\011\011\011}\012\011\011\011\011\011\011 kerning=true charspacing=-0.4 wordspacing=-0.2 fontsize=7 fillcolor={cmyk 0 0 0 1} fontname=HelveticaCondensedBold encoding=unicode")
[1]
PDF_fit_textflow(p_0x7f2fe9974710, 1, 130.000000, 9.000000, 323.129252, 49.000000, "linespreadlimit=110%")
["_stop"]
PDF_load_image(p_0x7f2fe9974710, "auto", "/var/www/admin.aatravel.co.za/web/juno/stuff/ad_templates/img/icons_cmyk/tel.jpg", /*c*/0, "")
[1]
PDF_info_matchbox(p_0x7f2fe9974710, "icon1", /*c*/0, 1, "x1")
[130.000000]
PDF_info_matchbox(p_0x7f2fe9974710, "icon1", /*c*/0, 1, "y1")
[42.000000]
PDF_info_matchbox(p_0x7f2fe9974710, "icon1", /*c*/0, 1, "width")
[6.000000]
PDF_info_matchbox(p_0x7f2fe9974710, "icon1", /*c*/0, 1, "height")
[6.000000]
PDF_fit_image(p_0x7f2fe9974710, 1, 130.000000, 42.000000, "boxsize={6 6} fitmethod=entire position=center")
PDF_create_textflow(p_0x7f2fe9974710, "<&icon2><&end> +(268) 2528 3924;", /*c*/32, "macro {\012\011\011\011\011\011\011icon2 {matchbox={name=icon2 boxwidth=6 boxheight={4 0} offsettop=2}}\012\011\011\011\011\011\011end {matchbox={end}}\012\011\011\011\011\011\011}\012\011\011\011\011\011\011 kerning=true charspacing=-0.4 wordspacing=-0.2 fontsize=7 fillcolor={cmyk 0 0 0 1} fontname=HelveticaCondensedBold encoding=unicode")
[2]
PDF_fit_textflow(p_0x7f2fe9974710, 2, 130.000000, 9.000000, 323.129252, 41.000000, "linespreadlimit=110%")
["_stop"]
PDF_load_image(p_0x7f2fe9974710, "auto", "/var/www/admin.aatravel.co.za/web/juno/stuff/ad_templates/img/icons_cmyk/fax.jpg", /*c*/0, "")
[2]
PDF_info_matchbox(p_0x7f2fe9974710, "icon2", /*c*/0, 1, "x1")
[130.000000]
PDF_info_matchbox(p_0x7f2fe9974710, "icon2", /*c*/0, 1, "y1")
[34.000000]
PDF_info_matchbox(p_0x7f2fe9974710, "icon2", /*c*/0, 1, "width")
[6.000000]
PDF_info_matchbox(p_0x7f2fe9974710, "icon2", /*c*/0, 1, "height")
[6.000000]
PDF_fit_image(p_0x7f2fe9974710, 2, 130.000000, 34.000000, "boxsize={6 6} fitmethod=entire position=center")
PDF_create_textflow(p_0x7f2fe9974710, "<&icon3><&end> Mlilwane Wildlife Sanctuary, Ezulwini.", /*c*/53, "macro {\012\011\011\011\011\011\011icon3 {matchbox={name=icon3 boxwidth=6 boxheight={4 0} offsettop=2}}\012\011\011\011\011\011\011end {matchbox={end}}\012\011\011\011\011\011\011}\012\011\011\011\011\011\011 kerning=true charspacing=-0.4 wordspacing=-0.2 fontsize=7 fillcolor={cmyk 0 0 0 1} fontname=HelveticaCondensedBold encoding=unicode")
[3]
PDF_fit_textflow(p_0x7f2fe9974710, 3, 130.000000, 9.000000, 323.129252, 33.000000, "linespreadlimit=110%")
["_stop"]
PDF_load_image(p_0x7f2fe9974710, "auto", "/var/www/admin.aatravel.co.za/web/juno/stuff/ad_templates/img/icons_cmyk/physical.jpg", /*c*/0, "")
[3]
PDF_info_matchbox(p_0x7f2fe9974710, "icon3", /*c*/0, 1, "x1")
[130.000000]
PDF_info_matchbox(p_0x7f2fe9974710, "icon3", /*c*/0, 1, "y1")
[26.000000]
PDF_info_matchbox(p_0x7f2fe9974710, "icon3", /*c*/0, 1, "width")
[6.000000]
PDF_info_matchbox(p_0x7f2fe9974710, "icon3", /*c*/0, 1, "height")
[6.000000]
PDF_fit_image(p_0x7f2fe9974710, 3, 130.000000, 26.000000, "boxsize={6 6} fitmethod=entire position=center")
PDF_create_textflow(p_0x7f2fe9974710, "<&icon4><&end> reservations@biggameparks.org", /*c*/44, "macro {\012\011\011\011\011\011\011icon4 {matchbox={name=icon4 boxwidth=6 boxheight={4 0} offsettop=2}}\012\011\011\011\011\011\011end {matchbox={end}}\012\011\011\011\011\011\011}\012\011\011\011\011\011\011 kerning=true charspacing=-0.4 wordspacing=-0.2 fontsize=7 fillcolor={cmyk 0 0 0 1} fontname=HelveticaCondensedBold encoding=unicode")
[4]
PDF_fit_textflow(p_0x7f2fe9974710, 4, 130.000000, 9.000000, 323.129252, 25.000000, "linespreadlimit=110%")
["_stop"]
PDF_load_image(p_0x7f2fe9974710, "auto", "/var/www/admin.aatravel.co.za/web/juno/stuff/ad_templates/img/icons_cmyk/email.jpg", /*c*/0, "")
[4]
PDF_info_matchbox(p_0x7f2fe9974710, "icon4", /*c*/0, 1, "x1")
[130.000000]
PDF_info_matchbox(p_0x7f2fe9974710, "icon4", /*c*/0, 1, "y1")
[18.000000]
PDF_info_matchbox(p_0x7f2fe9974710, "icon4", /*c*/0, 1, "width")
[6.000000]
PDF_info_matchbox(p_0x7f2fe9974710, "icon4", /*c*/0, 1, "height")
[6.000000]
PDF_fit_image(p_0x7f2fe9974710, 4, 130.000000, 18.000000, "boxsize={6 6} fitmethod=entire position=center")
PDF_create_textflow(p_0x7f2fe9974710, "<&icon5><&end> www.biggameparks.org", /*c*/35, "macro {\012\011\011\011\011\011\011icon5 {matchbox={name=icon5 boxwidth=6 boxheight={4 0} offsettop=2}}\012\011\011\011\011\011\011end {matchbox={end}}\012\011\011\011\011\011\011}\012\011\011\011\011\011\011 kerning=true charspacing=-0.4 wordspacing=-0.2 fontsize=7 fillcolor={cmyk 0 0 0 1} fontname=HelveticaCondensedBold encoding=unicode")
[5]
PDF_fit_textflow(p_0x7f2fe9974710, 5, 130.000000, 9.000000, 323.129252, 17.000000, "linespreadlimit=110%")
["_stop"]
PDF_load_image(p_0x7f2fe9974710, "auto", "/var/www/admin.aatravel.co.za/web/juno/stuff/ad_templates/img/icons_cmyk/web.jpg", /*c*/0, "")
[5]
PDF_info_matchbox(p_0x7f2fe9974710, "icon5", /*c*/0, 1, "x1")
[130.000000]
PDF_info_matchbox(p_0x7f2fe9974710, "icon5", /*c*/0, 1, "y1")
[10.000000]
PDF_info_matchbox(p_0x7f2fe9974710, "icon5", /*c*/0, 1, "width")
[6.000000]
PDF_info_matchbox(p_0x7f2fe9974710, "icon5", /*c*/0, 1, "height")
[6.000000]
PDF_fit_image(p_0x7f2fe9974710, 5, 130.000000, 10.000000, "boxsize={6 6} fitmethod=entire position=center")
PDF_load_image(p_0x7f2fe9974710, "auto", "/var/www/admin.aatravel.co.za/web/juno/stuff/ad_templates/img/AA_cmyk.jpg", /*c*/0, "")
[6]
PDF_fit_image(p_0x7f2fe9974710, 6, 130.000000, 104.875283, "boxsize={14.5 21.6} fitmethod=entire  matchbox={name=img margin=-2 boxheight={descender ascender} createwrapbox}")
PDF_close_image(p_0x7f2fe9974710, 6)
PDF_create_textflow(p_0x7f2fe9974710, "Highly Recommended - Game or Nature Experience: 7 Rooms. <adjustmethod=split alignment=justify kerning=true fontsize=8 charspacing=-0.1 wordspacing=-0.3 fillcolor={cmyk 0 0 0 1} fontname=HelveticaCondensed encoding=unicode>Steeped in intriguing history, surrounded by stunning botanical gardens and endangered species including Blue Duiker and Suni, quaintly colonial Reilly's Rock Hilltop Lodge offers 6 en-suite bedrooms and nearby Down Gran's self-catering cottage. Enjoy panoramic views of Mlilwane's game-studded plains below, absorb the tranquil atmosphere and enjoy dinner prepared by friendly Swazi service. Don't forget to say hello to the resident bushbabies as the sun sets!", /*c*/685, " adjustmethod=split alignment=justify kerning=true fontsize=8 fillcolor={cmyk 0 0 0 1} fontname=HelveticaCondensedBold encoding=unicode ")
[6]
PDF_fit_textflow(p_0x7f2fe9974710, 6, 130.000000, 128.888889, 323.129252, 53.000000, "  wrap={usematchboxes={{img}}} verticalalign=justify")
["_stop"]
PDF_end_page_ext(p_0x7f2fe9974710, "")
[End page #1]

PDF_end_document(p_0x7f2fe9974710, "")
[Full product name: "PDFlib"]
[Document ID: <2438B7663E9538E63E8FEB1E83F7AC62> <2438B7663E9538E63E8FEB1E83F7AC62>]
[------------------------------------------------------------------------------]
[ PDFlib 8.0.3  PHP5 binding on Linux-x86_64 (le) 2012-07-28 17:32:23          ]
[ Classes: api=1 warning=1                                                     ]
[ Enter in vi to compile it:                                                   ]
[ %s/)$/);/g   and   %s/"(NULL)"/NULL/g   and   %s/\[[^]]*\]//g                ]
[ Program should run on a little-endian platform                               ]
[------------------------------------------------------------------------------]
PDF_set_parameter(p_0x7f2fe9a6e158, "licensefile", "/etc/php5/apache2/pdflib_license.txt")
PDF_set_parameter(p_0x7f2fe9a6e158, "textformat", "bytes")
PDF_set_parameter(p_0x7f2fe9a6e158, "SearchPath", "/var/www/admin.aatravel.co.za/web/juno/utility/color_profiles")
[New category:resource "SearchPath:/usr/local/PDFlib"]
[New category:resource "SearchPath:/usr/local/PDFlib/PDFlib"]
[New category:resource "SearchPath:/usr/local/PDFlib/PDFlib/8.0"]
[New category:resource "SearchPath:/usr/local/PDFlib/PDFlib/8.0/resource/cmap"]
[New category:resource "SearchPath:/usr/local/PDFlib/PDFlib/8.0/resource/fonts"]
[New category:resource "SearchPath:/usr/local/PDFlib/PDFlib/8.0/resource/icc"]
[New category:resource "SearchPath:/var/www/admin.aatravel.co.za/web/juno/utility/color_profiles"]

PDF_begin_document(p_0x7f2fe9a6e158, "/var/www/admin.aatravel.co.za/web/juno/stuff/establishments/RE7804/ads/814/pdf/1343489543_low.pdf", /*c*/0, "")
[Begin document]
[1]
PDF_set_info2(p_0x7f2fe9a6e158, "Creator", "AA TRAVEL GUIDES", /*c*/16)
PDF_set_info2(p_0x7f2fe9a6e158, "Author", "Vanessa Weltman", /*c*/15)
PDF_set_info2(p_0x7f2fe9a6e158, "Title", "AA AD | Reilly's Rock Hilltop Lodge | 2012 SA Best - Quarter Page Ad (114x49mm) | 28/07/2012", /*c*/92)

PDF_begin_page_ext(p_0x7f2fe9a6e158, 323.129252, 138.888889, "")
[Begin page #1]
PDF_set_parameter(p_0x7f2fe9a6e158, "FontOutline", "HelveticaCondensedBold=/var/www/admin.aatravel.co.za/web/juno/stuff/ad_templates/fonts/helvetica-condensed-bold.ttf")
[New category:resource "FontOutline:HelveticaCondensedBold = /var/www/admin.aatravel.co.za/web/juno/stuff/ad_templates/fonts/helvetica-condensed-bold.ttf"]
PDF_load_font(p_0x7f2fe9a6e158, "HelveticaCondensedBold", /*c*/0, "unicode", "embedding")
[1]
PDF_setfont(p_0x7f2fe9a6e158, 1, 24.000000)
PDF_set_parameter(p_0x7f2fe9a6e158, "FontOutline", "HelveticaCondensed=/var/www/admin.aatravel.co.za/web/juno/stuff/ad_templates/fonts/helvetica-condensed.ttf")
[New category:resource "FontOutline:HelveticaCondensed = /var/www/admin.aatravel.co.za/web/juno/stuff/ad_templates/fonts/helvetica-condensed.ttf"]
PDF_load_font(p_0x7f2fe9a6e158, "HelveticaCondensed", /*c*/0, "unicode", "embedding")
[2]
PDF_setfont(p_0x7f2fe9a6e158, 2, 24.000000)
PDF_setcolor(p_0x7f2fe9a6e158, "fill", "cmyk", 0.100000, 0.200000, 0.300000, 0.000000)
PDF_setcolor(p_0x7f2fe9a6e158, "fill", "cmyk", 0.100000, 0.200000, 0.300000, 0.000000)
PDF_rect(p_0x7f2fe9a6e158, 0.000000, 128.888889, 323.129252, 10.000000)
PDF_fill(p_0x7f2fe9a6e158)
PDF_fit_textline(p_0x7f2fe9a6e158, "Reilly's Rock Hilltop Lodge", /*c*/27, 0.000000, 133.786848, "position={left center} kerning=true charspacing=-0.4 wordspacing=-0.2 fontsize=8 fillcolor={cmyk 0 0 0 1} fontname=HelveticaCondensedBold encoding=unicode")
PDF_fit_textline(p_0x7f2fe9a6e158, "Swaziland - Ezulwini", /*c*/20, 323.129252, 133.786848, "position={right center} kerning=true charspacing=-0.4 wordspacing=-0.2 fontsize=8 fillcolor={cmyk 0 0 0 1} fontname=HelveticaCondensedBold encoding=unicode")
PDF_setcolor(p_0x7f2fe9a6e158, "fill", "cmyk", 0.100000, 0.200000, 0.300000, 0.000000)
PDF_rect(p_0x7f2fe9a6e158, 0.000000, 114.388889, 125.000000, 12.000000)
PDF_fill(p_0x7f2fe9a6e158)
PDF_fit_textline(p_0x7f2fe9a6e158, "On Request", /*c*/10, 0.000000, 120.888889, "position={left center} kerning=true charspacing=-0.3 wordspacing=-0.2 fontsize=9 fillcolor={cmyk 1 1 1 0}  fontname=HelveticaCondensedBold encoding=unicode")
PDF_load_image(p_0x7f2fe9a6e158, "auto", "/var/www/admin.aatravel.co.za/web/juno/ico/0.gif", /*c*/0, "")
[1]
PDF_fit_image(p_0x7f2fe9a6e158, 1, 0.000000, -0.032880, "boxsize={123.58276644 82.4036281179} position={center} fitmethod=entire")
PDF_close_image(p_0x7f2fe9a6e158, 1)
PDF_load_image(p_0x7f2fe9a6e158, "auto", "/var/www/admin.aatravel.co.za/web/juno/stuff/ad_templates/img/icons_rgb/PFOLIO.jpg", /*c*/0, "")
[1]
PDF_fit_image(p_0x7f2fe9a6e158, 1, 130.000000, 0.000000, "boxsize={7.65306122449 7.65306122449} fitmethod=entire position=center matchbox={name=img2 margin=-2}")
PDF_close_image(p_0x7f2fe9a6e158, 1)
PDF_load_image(p_0x7f2fe9a6e158, "auto", "/var/www/admin.aatravel.co.za/web/juno/stuff/ad_templates/img/icons_rgb/AMEX.jpg", /*c*/0, "")
[1]
PDF_fit_image(p_0x7f2fe9a6e158, 1, 138.503401, 0.000000, "boxsize={7.65306122449 7.65306122449} fitmethod=entire position=center matchbox={name=img2 margin=-2}")
PDF_close_image(p_0x7f2fe9a6e158, 1)
PDF_load_image(p_0x7f2fe9a6e158, "auto", "/var/www/admin.aatravel.co.za/web/juno/stuff/ad_templates/img/icons_rgb/BIRDWATCH.jpg", /*c*/0, "")
[1]
PDF_fit_image(p_0x7f2fe9a6e158, 1, 147.006803, 0.000000, "boxsize={7.65306122449 7.65306122449} fitmethod=entire position=center matchbox={name=img2 margin=-2}")
PDF_close_image(p_0x7f2fe9a6e158, 1)
PDF_load_image(p_0x7f2fe9a6e158, "auto", "/var/www/admin.aatravel.co.za/web/juno/stuff/ad_templates/img/icons_rgb/GAMEVIEW.jpg", /*c*/0, "")
[1]
PDF_fit_image(p_0x7f2fe9a6e158, 1, 155.510204, 0.000000, "boxsize={7.65306122449 7.65306122449} fitmethod=entire position=center matchbox={name=img2 margin=-2}")
PDF_close_image(p_0x7f2fe9a6e158, 1)
PDF_load_image(p_0x7f2fe9a6e158, "auto", "/var/www/admin.aatravel.co.za/web/juno/stuff/ad_templates/img/icons_rgb/HIKING.jpg", /*c*/0, "")
[1]
PDF_fit_image(p_0x7f2fe9a6e158, 1, 164.013605, 0.000000, "boxsize={7.65306122449 7.65306122449} fitmethod=entire position=center matchbox={name=img2 margin=-2}")
PDF_close_image(p_0x7f2fe9a6e158, 1)
PDF_load_image(p_0x7f2fe9a6e158, "auto", "/var/www/admin.aatravel.co.za/web/juno/stuff/ad_templates/img/icons_rgb/MTBIKE.jpg", /*c*/0, "")
[1]
PDF_fit_image(p_0x7f2fe9a6e158, 1, 172.517007, 0.000000, "boxsize={7.65306122449 7.65306122449} fitmethod=entire position=center matchbox={name=img2 margin=-2}")
PDF_close_image(p_0x7f2fe9a6e158, 1)
PDF_load_image(p_0x7f2fe9a6e158, "auto", "/var/www/admin.aatravel.co.za/web/juno/stuff/ad_templates/img/icons_rgb/HORSERIDNG.jpg", /*c*/0, "")
[1]
PDF_fit_image(p_0x7f2fe9a6e158, 1, 181.020408, 0.000000, "boxsize={7.65306122449 7.65306122449} fitmethod=entire position=center matchbox={name=img2 margin=-2}")
PDF_close_image(p_0x7f2fe9a6e158, 1)
PDF_load_image(p_0x7f2fe9a6e158, "auto", "/var/www/admin.aatravel.co.za/web/juno/stuff/ad_templates/img/icons_rgb/CEILINGFAN.jpg", /*c*/0, "")
[1]
PDF_fit_image(p_0x7f2fe9a6e158, 1, 189.523810, 0.000000, "boxsize={7.65306122449 7.65306122449} fitmethod=entire position=center matchbox={name=img2 margin=-2}")
PDF_close_image(p_0x7f2fe9a6e158, 1)
PDF_load_image(p_0x7f2fe9a6e158, "auto", "/var/www/admin.aatravel.co.za/web/juno/stuff/ad_templates/img/icons_rgb/LAUNDSERV.jpg", /*c*/0, "")
[1]
PDF_fit_image(p_0x7f2fe9a6e158, 1, 198.027211, 0.000000, "boxsize={7.65306122449 7.65306122449} fitmethod=entire position=center matchbox={name=img2 margin=-2}")
PDF_close_image(p_0x7f2fe9a6e158, 1)
PDF_load_image(p_0x7f2fe9a6e158, "auto", "/var/www/admin.aatravel.co.za/web/juno/stuff/ad_templates/img/icons_rgb/IRONSERV.jpg", /*c*/0, "")
[1]
PDF_fit_image(p_0x7f2fe9a6e158, 1, 206.530612, 0.000000, "boxsize={7.65306122449 7.65306122449} fitmethod=entire position=center matchbox={name=img2 margin=-2}")
PDF_close_image(p_0x7f2fe9a6e158, 1)
PDF_load_image(p_0x7f2fe9a6e158, "auto", "/var/www/admin.aatravel.co.za/web/juno/stuff/ad_templates/img/icons_rgb/SPMEALS.jpg", /*c*/0, "")
[1]
PDF_fit_image(p_0x7f2fe9a6e158, 1, 215.034014, 0.000000, "boxsize={7.65306122449 7.65306122449} fitmethod=entire position=center matchbox={name=img2 margin=-2}")
PDF_close_image(p_0x7f2fe9a6e158, 1)
PDF_load_image(p_0x7f2fe9a6e158, "auto", "/var/www/admin.aatravel.co.za/web/juno/stuff/ad_templates/img/icons_rgb/CREDCARDS.jpg", /*c*/0, "")
[1]
PDF_fit_image(p_0x7f2fe9a6e158, 1, 223.537415, 0.000000, "boxsize={7.65306122449 7.65306122449} fitmethod=entire position=center matchbox={name=img2 margin=-2}")
PDF_close_image(p_0x7f2fe9a6e158, 1)
PDF_load_image(p_0x7f2fe9a6e158, "auto", "/var/www/admin.aatravel.co.za/web/juno/stuff/ad_templates/img/icons_rgb/DISABLED.jpg", /*c*/0, "")
[1]
PDF_fit_image(p_0x7f2fe9a6e158, 1, 232.040816, 0.000000, "boxsize={7.65306122449 7.65306122449} fitmethod=entire position=center matchbox={name=img2 margin=-2}")
PDF_close_image(p_0x7f2fe9a6e158, 1)
PDF_load_image(p_0x7f2fe9a6e158, "auto", "/var/www/admin.aatravel.co.za/web/juno/stuff/ad_templates/img/icons_rgb/NOPETS.jpg", /*c*/0, "")
[1]
PDF_fit_image(p_0x7f2fe9a6e158, 1, 240.544218, 0.000000, "boxsize={7.65306122449 7.65306122449} fitmethod=entire position=center matchbox={name=img2 margin=-2}")
PDF_close_image(p_0x7f2fe9a6e158, 1)
PDF_create_textflow(p_0x7f2fe9a6e158, "<&icon1><&end> +(268) 2528 3943;", /*c*/32, "macro {icon1 {matchbox={name=icon1 boxwidth=6 boxheight={4 0} offsettop=2}}\012end {matchbox={end}}\012}\012 kerning=true charspacing=-0.4 wordspacing=-0.2 fontsize=7 fillcolor={cmyk 0 0 0 1} fontname=HelveticaCondensedBold encoding=unicode")
[1]
PDF_fit_textflow(p_0x7f2fe9a6e158, 1, 130.000000, 9.000000, 323.129252, 49.000000, "linespreadlimit=110%")
["_stop"]
PDF_load_image(p_0x7f2fe9a6e158, "auto", "/var/www/admin.aatravel.co.za/web/juno/stuff/ad_templates/img/icons_cmyk/tel.jpg", /*c*/0, "")
[1]
PDF_info_matchbox(p_0x7f2fe9a6e158, "icon1", /*c*/0, 1, "x1")
[130.000000]
PDF_info_matchbox(p_0x7f2fe9a6e158, "icon1", /*c*/0, 1, "y1")
[42.000000]
PDF_info_matchbox(p_0x7f2fe9a6e158, "icon1", /*c*/0, 1, "width")
[6.000000]
PDF_info_matchbox(p_0x7f2fe9a6e158, "icon1", /*c*/0, 1, "height")
[6.000000]
PDF_fit_image(p_0x7f2fe9a6e158, 1, 130.000000, 42.000000, "boxsize={6 6} fitmethod=entire position=center")
PDF_create_textflow(p_0x7f2fe9a6e158, "<&icon2><&end> +(268) 2528 3924;", /*c*/32, "macro {icon2 {matchbox={name=icon2 boxwidth=6 boxheight={4 0} offsettop=2}}\012end {matchbox={end}}\012}\012 kerning=true charspacing=-0.4 wordspacing=-0.2 fontsize=7 fillcolor={cmyk 0 0 0 1} fontname=HelveticaCondensedBold encoding=unicode")
[2]
PDF_fit_textflow(p_0x7f2fe9a6e158, 2, 130.000000, 9.000000, 323.129252, 41.000000, "linespreadlimit=110%")
["_stop"]
PDF_load_image(p_0x7f2fe9a6e158, "auto", "/var/www/admin.aatravel.co.za/web/juno/stuff/ad_templates/img/icons_cmyk/fax.jpg", /*c*/0, "")
[2]
PDF_info_matchbox(p_0x7f2fe9a6e158, "icon2", /*c*/0, 1, "x1")
[130.000000]
PDF_info_matchbox(p_0x7f2fe9a6e158, "icon2", /*c*/0, 1, "y1")
[34.000000]
PDF_info_matchbox(p_0x7f2fe9a6e158, "icon2", /*c*/0, 1, "width")
[6.000000]
PDF_info_matchbox(p_0x7f2fe9a6e158, "icon2", /*c*/0, 1, "height")
[6.000000]
PDF_fit_image(p_0x7f2fe9a6e158, 2, 130.000000, 34.000000, "boxsize={6 6} fitmethod=entire position=center")
PDF_create_textflow(p_0x7f2fe9a6e158, "<&icon3><&end> Mlilwane Wildlife Sanctuary, Ezulwini.", /*c*/53, "macro {icon3 {matchbox={name=icon3 boxwidth=6 boxheight={4 0} offsettop=2}}\012end {matchbox={end}}\012}\012 kerning=true charspacing=-0.4 wordspacing=-0.2 fontsize=7 fillcolor={cmyk 0 0 0 1} fontname=HelveticaCondensedBold encoding=unicode")
[3]
PDF_fit_textflow(p_0x7f2fe9a6e158, 3, 130.000000, 9.000000, 323.129252, 33.000000, "linespreadlimit=110%")
["_stop"]
PDF_load_image(p_0x7f2fe9a6e158, "auto", "/var/www/admin.aatravel.co.za/web/juno/stuff/ad_templates/img/icons_cmyk/physical.jpg", /*c*/0, "")
[3]
PDF_info_matchbox(p_0x7f2fe9a6e158, "icon3", /*c*/0, 1, "x1")
[130.000000]
PDF_info_matchbox(p_0x7f2fe9a6e158, "icon3", /*c*/0, 1, "y1")
[26.000000]
PDF_info_matchbox(p_0x7f2fe9a6e158, "icon3", /*c*/0, 1, "width")
[6.000000]
PDF_info_matchbox(p_0x7f2fe9a6e158, "icon3", /*c*/0, 1, "height")
[6.000000]
PDF_fit_image(p_0x7f2fe9a6e158, 3, 130.000000, 26.000000, "boxsize={6 6} fitmethod=entire position=center")
PDF_create_textflow(p_0x7f2fe9a6e158, "<&icon4><&end> reservations@biggameparks.org", /*c*/44, "macro {icon4 {matchbox={name=icon4 boxwidth=6 boxheight={4 0} offsettop=2}}\012end {matchbox={end}}\012}\012 kerning=true charspacing=-0.4 wordspacing=-0.2 fontsize=7 fillcolor={cmyk 0 0 0 1} fontname=HelveticaCondensedBold encoding=unicode")
[4]
PDF_fit_textflow(p_0x7f2fe9a6e158, 4, 130.000000, 9.000000, 323.129252, 25.000000, "linespreadlimit=110%")
["_stop"]
PDF_load_image(p_0x7f2fe9a6e158, "auto", "/var/www/admin.aatravel.co.za/web/juno/stuff/ad_templates/img/icons_cmyk/email.jpg", /*c*/0, "")
[4]
PDF_info_matchbox(p_0x7f2fe9a6e158, "icon4", /*c*/0, 1, "x1")
[130.000000]
PDF_info_matchbox(p_0x7f2fe9a6e158, "icon4", /*c*/0, 1, "y1")
[18.000000]
PDF_info_matchbox(p_0x7f2fe9a6e158, "icon4", /*c*/0, 1, "width")
[6.000000]
PDF_info_matchbox(p_0x7f2fe9a6e158, "icon4", /*c*/0, 1, "height")
[6.000000]
PDF_fit_image(p_0x7f2fe9a6e158, 4, 130.000000, 18.000000, "boxsize={6 6} fitmethod=entire position=center")
PDF_create_textflow(p_0x7f2fe9a6e158, "<&icon5><&end> www.biggameparks.org", /*c*/35, "macro {icon5 {matchbox={name=icon5 boxwidth=6 boxheight={4 0} offsettop=2}}\012end {matchbox={end}}\012}\012 kerning=true charspacing=-0.4 wordspacing=-0.2 fontsize=7 fillcolor={cmyk 0 0 0 1} fontname=HelveticaCondensedBold encoding=unicode")
[5]
PDF_fit_textflow(p_0x7f2fe9a6e158, 5, 130.000000, 9.000000, 323.129252, 17.000000, "linespreadlimit=110%")
["_stop"]
PDF_load_image(p_0x7f2fe9a6e158, "auto", "/var/www/admin.aatravel.co.za/web/juno/stuff/ad_templates/img/icons_cmyk/web.jpg", /*c*/0, "")
[5]
PDF_info_matchbox(p_0x7f2fe9a6e158, "icon5", /*c*/0, 1, "x1")
[130.000000]
PDF_info_matchbox(p_0x7f2fe9a6e158, "icon5", /*c*/0, 1, "y1")
[10.000000]
PDF_info_matchbox(p_0x7f2fe9a6e158, "icon5", /*c*/0, 1, "width")
[6.000000]
PDF_info_matchbox(p_0x7f2fe9a6e158, "icon5", /*c*/0, 1, "height")
[6.000000]
PDF_fit_image(p_0x7f2fe9a6e158, 5, 130.000000, 10.000000, "boxsize={6 6} fitmethod=entire position=center")
PDF_load_image(p_0x7f2fe9a6e158, "auto", "/var/www/admin.aatravel.co.za/web/juno/stuff/ad_templates/img/AA_cmyk.jpg", /*c*/0, "")
[6]
PDF_fit_image(p_0x7f2fe9a6e158, 6, 130.000000, 104.875283, "boxsize={14.5 21.6} fitmethod=entire  matchbox={name=img margin=-2 boxheight={descender ascender} createwrapbox}")
PDF_close_image(p_0x7f2fe9a6e158, 6)
PDF_create_textflow(p_0x7f2fe9a6e158, "Highly Recommended - Game or Nature Experience: 7 Rooms. <adjustmethod=split alignment=justify kerning=true fontsize=8 charspacing=-0.1 wordspacing=-0.3 fillcolor={cmyk 0 0 0 1} fontname=HelveticaCondensed encoding=unicode><adjustmethod=split alignment=justify kerning=true fontsize=8 charspacing=-0.1 wordspacing=-0.3 fillcolor={cmyk 0 0 0 1} fontname=HelveticaCondensed encoding=unicode>Steeped in intriguing history, surrounded by stunning botanical gardens and endangered species including Blue Duiker and Suni, quaintly colonial Reilly's Rock Hilltop Lodge offers 6 en-suite bedrooms and nearby Down Gran's self-catering cottage. Enjoy panoramic views of Mlilwane's game-studded plains below, absorb the tranquil atmosphere and enjoy dinner prepared by friendly Swazi service. Don't forget to say hello to the resident bushbabies as the sun sets!", /*c*/851, " adjustmethod=split alignment=justify kerning=true fontsize=8 fillcolor={cmyk 0 0 0 1} fontname=HelveticaCondensedBold encoding=unicode ")
[6]
PDF_fit_textflow(p_0x7f2fe9a6e158, 6, 130.000000, 128.888889, 323.129252, 53.000000, "  wrap={usematchboxes={{img}}} verticalalign=justify")
["_stop"]
PDF_end_page_ext(p_0x7f2fe9a6e158, "")
[End page #1]

PDF_end_document(p_0x7f2fe9a6e158, "")
[Full product name: "PDFlib"]
[Document ID: <A9F9C495ED7EB4F2852D02D0D8BE6DBE> <A9F9C495ED7EB4F2852D02D0D8BE6DBE>]
[End document]

PDF_delete(p_0x7f2fe9a6e158)
[2012-07-28 17:32:23]
[End document]

PDF_delete(p_0x7f2fe9974710)
[2012-07-28 17:32:23]
[------------------------------------------------------------------------------]
[ PDFlib 8.0.3  PHP5 binding on Linux-x86_64 (le) 2012-07-28 17:51:46          ]
[ Classes: api=1 warning=1                                                     ]
[ Enter in vi to compile it:                                                   ]
[ %s/)$/);/g   and   %s/"(NULL)"/NULL/g   and   %s/\[[^]]*\]//g                ]
[ Program should run on a little-endian platform                               ]
[------------------------------------------------------------------------------]
PDF_set_parameter(p_0x7f2fe9a0f8b8, "licensefile", "/etc/php5/apache2/pdflib_license.txt")
PDF_set_parameter(p_0x7f2fe9a0f8b8, "textformat", "bytes")
PDF_set_parameter(p_0x7f2fe9a0f8b8, "SearchPath", "/var/www/admin.aatravel.co.za/web/juno/utility/color_profiles")
[New category:resource "SearchPath:/usr/local/PDFlib"]
[New category:resource "SearchPath:/usr/local/PDFlib/PDFlib"]
[New category:resource "SearchPath:/usr/local/PDFlib/PDFlib/8.0"]
[New category:resource "SearchPath:/usr/local/PDFlib/PDFlib/8.0/resource/cmap"]
[New category:resource "SearchPath:/usr/local/PDFlib/PDFlib/8.0/resource/fonts"]
[New category:resource "SearchPath:/usr/local/PDFlib/PDFlib/8.0/resource/icc"]
[New category:resource "SearchPath:/var/www/admin.aatravel.co.za/web/juno/utility/color_profiles"]

PDF_begin_document(p_0x7f2fe9a0f8b8, "/var/www/admin.aatravel.co.za/web/juno/stuff/establishments/RE7804/ads/814/pdf/1343490706.pdf", /*c*/0, "")
[Begin document]
[1]
PDF_set_info2(p_0x7f2fe9a0f8b8, "Creator", "AA TRAVEL GUIDES", /*c*/16)
PDF_set_info2(p_0x7f2fe9a0f8b8, "Author", "Vanessa Weltman", /*c*/15)
PDF_set_info2(p_0x7f2fe9a0f8b8, "Title", "AA AD | Reilly's Rock Hilltop Lodge | 2012 SA Best - Quarter Page Ad (114x49mm) | 28/07/2012", /*c*/92)

PDF_begin_page_ext(p_0x7f2fe9a0f8b8, 323.129252, 138.888889, "")
[Begin page #1]
PDF_set_parameter(p_0x7f2fe9a0f8b8, "FontOutline", "HelveticaCondensedBold=/var/www/admin.aatravel.co.za/web/juno/stuff/ad_templates/fonts/helvetica-condensed-bold.ttf")
[New category:resource "FontOutline:HelveticaCondensedBold = /var/www/admin.aatravel.co.za/web/juno/stuff/ad_templates/fonts/helvetica-condensed-bold.ttf"]
PDF_load_font(p_0x7f2fe9a0f8b8, "HelveticaCondensedBold", /*c*/0, "unicode", "embedding")
[1]
PDF_setfont(p_0x7f2fe9a0f8b8, 1, 24.000000)
PDF_set_parameter(p_0x7f2fe9a0f8b8, "FontOutline", "HelveticaCondensed=/var/www/admin.aatravel.co.za/web/juno/stuff/ad_templates/fonts/helvetica-condensed.ttf")
[New category:resource "FontOutline:HelveticaCondensed = /var/www/admin.aatravel.co.za/web/juno/stuff/ad_templates/fonts/helvetica-condensed.ttf"]
PDF_load_font(p_0x7f2fe9a0f8b8, "HelveticaCondensed", /*c*/0, "unicode", "embedding")
[2]
PDF_setfont(p_0x7f2fe9a0f8b8, 2, 24.000000)
PDF_setcolor(p_0x7f2fe9a0f8b8, "fill", "cmyk", 0.100000, 0.200000, 0.300000, 0.000000)
PDF_setcolor(p_0x7f2fe9a0f8b8, "fill", "cmyk", 0.100000, 0.200000, 0.300000, 0.000000)
PDF_rect(p_0x7f2fe9a0f8b8, 0.000000, 128.888889, 323.129252, 10.000000)
PDF_fill(p_0x7f2fe9a0f8b8)
PDF_fit_textline(p_0x7f2fe9a0f8b8, "Reilly's Rock Hilltop Lodge", /*c*/27, 0.000000, 133.786848, "position={left center} kerning=true charspacing=-0.4 wordspacing=-0.2 fontsize=8 fillcolor={cmyk 0 0 0 1} fontname=HelveticaCondensedBold encoding=unicode")
PDF_fit_textline(p_0x7f2fe9a0f8b8, "Swaziland - Ezulwini", /*c*/20, 323.129252, 133.786848, "position={right center} kerning=true charspacing=-0.4 wordspacing=-0.2 fontsize=8 fillcolor={cmyk 0 0 0 1} fontname=HelveticaCondensedBold encoding=unicode")
PDF_setcolor(p_0x7f2fe9a0f8b8, "fill", "cmyk", 0.100000, 0.200000, 0.300000, 0.000000)
PDF_rect(p_0x7f2fe9a0f8b8, 0.000000, 114.388889, 125.000000, 12.000000)
PDF_fill(p_0x7f2fe9a0f8b8)
PDF_fit_textline(p_0x7f2fe9a0f8b8, "On Request", /*c*/10, 0.000000, 120.888889, "position={left center} kerning=true charspacing=-0.3 wordspacing=-0.2 fontsize=9 fillcolor={cmyk 1 1 1 0}  fontname=HelveticaCondensedBold encoding=unicode")
PDF_load_image(p_0x7f2fe9a0f8b8, "auto", "/var/www/admin.aatravel.co.za/web/hires_temp/RE7804_1343490602_H600.jpg", /*c*/0, "")
[1]
PDF_fit_image(p_0x7f2fe9a0f8b8, 1, 0.000000, -0.032880, "boxsize={123.58276644 82.4036281179} position={center} fitmethod=entire")
PDF_close_image(p_0x7f2fe9a0f8b8, 1)
PDF_load_image(p_0x7f2fe9a0f8b8, "auto", "/var/www/admin.aatravel.co.za/web/juno/stuff/ad_templates/img/icons_cmyk/PFOLIO.jpg", /*c*/0, "")
[1]
PDF_fit_image(p_0x7f2fe9a0f8b8, 1, 130.000000, 0.000000, "boxsize={7.65306122449 7.65306122449} fitmethod=entire position=center matchbox={name=img2 margin=-2}")
PDF_close_image(p_0x7f2fe9a0f8b8, 1)
PDF_load_image(p_0x7f2fe9a0f8b8, "auto", "/var/www/admin.aatravel.co.za/web/juno/stuff/ad_templates/img/icons_cmyk/AMEX.jpg", /*c*/0, "")
[1]
PDF_fit_image(p_0x7f2fe9a0f8b8, 1, 138.503401, 0.000000, "boxsize={7.65306122449 7.65306122449} fitmethod=entire position=center matchbox={name=img2 margin=-2}")
PDF_close_image(p_0x7f2fe9a0f8b8, 1)
PDF_load_image(p_0x7f2fe9a0f8b8, "auto", "/var/www/admin.aatravel.co.za/web/juno/stuff/ad_templates/img/icons_cmyk/BIRDWATCH.jpg", /*c*/0, "")
[1]
PDF_fit_image(p_0x7f2fe9a0f8b8, 1, 147.006803, 0.000000, "boxsize={7.65306122449 7.65306122449} fitmethod=entire position=center matchbox={name=img2 margin=-2}")
PDF_close_image(p_0x7f2fe9a0f8b8, 1)
PDF_load_image(p_0x7f2fe9a0f8b8, "auto", "/var/www/admin.aatravel.co.za/web/juno/stuff/ad_templates/img/icons_cmyk/GAMEVIEW.jpg", /*c*/0, "")
[1]
PDF_fit_image(p_0x7f2fe9a0f8b8, 1, 155.510204, 0.000000, "boxsize={7.65306122449 7.65306122449} fitmethod=entire position=center matchbox={name=img2 margin=-2}")
PDF_close_image(p_0x7f2fe9a0f8b8, 1)
PDF_load_image(p_0x7f2fe9a0f8b8, "auto", "/var/www/admin.aatravel.co.za/web/juno/stuff/ad_templates/img/icons_cmyk/HIKING.jpg", /*c*/0, "")
[1]
PDF_fit_image(p_0x7f2fe9a0f8b8, 1, 164.013605, 0.000000, "boxsize={7.65306122449 7.65306122449} fitmethod=entire position=center matchbox={name=img2 margin=-2}")
PDF_close_image(p_0x7f2fe9a0f8b8, 1)
PDF_load_image(p_0x7f2fe9a0f8b8, "auto", "/var/www/admin.aatravel.co.za/web/juno/stuff/ad_templates/img/icons_cmyk/MTBIKE.jpg", /*c*/0, "")
[1]
PDF_fit_image(p_0x7f2fe9a0f8b8, 1, 172.517007, 0.000000, "boxsize={7.65306122449 7.65306122449} fitmethod=entire position=center matchbox={name=img2 margin=-2}")
PDF_close_image(p_0x7f2fe9a0f8b8, 1)
PDF_load_image(p_0x7f2fe9a0f8b8, "auto", "/var/www/admin.aatravel.co.za/web/juno/stuff/ad_templates/img/icons_cmyk/HORSERIDNG.jpg", /*c*/0, "")
[1]
PDF_fit_image(p_0x7f2fe9a0f8b8, 1, 181.020408, 0.000000, "boxsize={7.65306122449 7.65306122449} fitmethod=entire position=center matchbox={name=img2 margin=-2}")
PDF_close_image(p_0x7f2fe9a0f8b8, 1)
PDF_load_image(p_0x7f2fe9a0f8b8, "auto", "/var/www/admin.aatravel.co.za/web/juno/stuff/ad_templates/img/icons_cmyk/CEILINGFAN.jpg", /*c*/0, "")
[1]
PDF_fit_image(p_0x7f2fe9a0f8b8, 1, 189.523810, 0.000000, "boxsize={7.65306122449 7.65306122449} fitmethod=entire position=center matchbox={name=img2 margin=-2}")
PDF_close_image(p_0x7f2fe9a0f8b8, 1)
PDF_load_image(p_0x7f2fe9a0f8b8, "auto", "/var/www/admin.aatravel.co.za/web/juno/stuff/ad_templates/img/icons_cmyk/LAUNDSERV.jpg", /*c*/0, "")
[1]
PDF_fit_image(p_0x7f2fe9a0f8b8, 1, 198.027211, 0.000000, "boxsize={7.65306122449 7.65306122449} fitmethod=entire position=center matchbox={name=img2 margin=-2}")
PDF_close_image(p_0x7f2fe9a0f8b8, 1)
PDF_load_image(p_0x7f2fe9a0f8b8, "auto", "/var/www/admin.aatravel.co.za/web/juno/stuff/ad_templates/img/icons_cmyk/IRONSERV.jpg", /*c*/0, "")
[1]
PDF_fit_image(p_0x7f2fe9a0f8b8, 1, 206.530612, 0.000000, "boxsize={7.65306122449 7.65306122449} fitmethod=entire position=center matchbox={name=img2 margin=-2}")
PDF_close_image(p_0x7f2fe9a0f8b8, 1)
PDF_load_image(p_0x7f2fe9a0f8b8, "auto", "/var/www/admin.aatravel.co.za/web/juno/stuff/ad_templates/img/icons_cmyk/SPMEALS.jpg", /*c*/0, "")
[1]
PDF_fit_image(p_0x7f2fe9a0f8b8, 1, 215.034014, 0.000000, "boxsize={7.65306122449 7.65306122449} fitmethod=entire position=center matchbox={name=img2 margin=-2}")
PDF_close_image(p_0x7f2fe9a0f8b8, 1)
PDF_load_image(p_0x7f2fe9a0f8b8, "auto", "/var/www/admin.aatravel.co.za/web/juno/stuff/ad_templates/img/icons_cmyk/CREDCARDS.jpg", /*c*/0, "")
[1]
PDF_fit_image(p_0x7f2fe9a0f8b8, 1, 223.537415, 0.000000, "boxsize={7.65306122449 7.65306122449} fitmethod=entire position=center matchbox={name=img2 margin=-2}")
PDF_close_image(p_0x7f2fe9a0f8b8, 1)
PDF_load_image(p_0x7f2fe9a0f8b8, "auto", "/var/www/admin.aatravel.co.za/web/juno/stuff/ad_templates/img/icons_cmyk/DISABLED.jpg", /*c*/0, "")
[1]
PDF_fit_image(p_0x7f2fe9a0f8b8, 1, 232.040816, 0.000000, "boxsize={7.65306122449 7.65306122449} fitmethod=entire position=center matchbox={name=img2 margin=-2}")
PDF_close_image(p_0x7f2fe9a0f8b8, 1)
PDF_load_image(p_0x7f2fe9a0f8b8, "auto", "/var/www/admin.aatravel.co.za/web/juno/stuff/ad_templates/img/icons_cmyk/NOPETS.jpg", /*c*/0, "")
[1]
PDF_fit_image(p_0x7f2fe9a0f8b8, 1, 240.544218, 0.000000, "boxsize={7.65306122449 7.65306122449} fitmethod=entire position=center matchbox={name=img2 margin=-2}")
PDF_close_image(p_0x7f2fe9a0f8b8, 1)
PDF_create_textflow(p_0x7f2fe9a0f8b8, "<&icon1><&end> +(268) 2528 3943;", /*c*/32, "macro {\012\011\011\011\011\011\011icon1 {matchbox={name=icon1 boxwidth=6 boxheight={4 0} offsettop=2}}\012\011\011\011\011\011\011end {matchbox={end}}\012\011\011\011\011\011\011}\012\011\011\011\011\011\011 kerning=true charspacing=-0.4 wordspacing=-0.2 fontsize=7 fillcolor={cmyk 0 0 0 1} fontname=HelveticaCondensedBold encoding=unicode")
[1]
PDF_fit_textflow(p_0x7f2fe9a0f8b8, 1, 130.000000, 9.000000, 323.129252, 49.000000, "linespreadlimit=110%")
["_stop"]
PDF_load_image(p_0x7f2fe9a0f8b8, "auto", "/var/www/admin.aatravel.co.za/web/juno/stuff/ad_templates/img/icons_cmyk/tel.jpg", /*c*/0, "")
[1]
PDF_info_matchbox(p_0x7f2fe9a0f8b8, "icon1", /*c*/0, 1, "x1")
[130.000000]
PDF_info_matchbox(p_0x7f2fe9a0f8b8, "icon1", /*c*/0, 1, "y1")
[42.000000]
PDF_info_matchbox(p_0x7f2fe9a0f8b8, "icon1", /*c*/0, 1, "width")
[6.000000]
PDF_info_matchbox(p_0x7f2fe9a0f8b8, "icon1", /*c*/0, 1, "height")
[6.000000]
PDF_fit_image(p_0x7f2fe9a0f8b8, 1, 130.000000, 42.000000, "boxsize={6 6} fitmethod=entire position=center")
PDF_create_textflow(p_0x7f2fe9a0f8b8, "<&icon2><&end> +(268) 2528 3924;", /*c*/32, "macro {\012\011\011\011\011\011\011icon2 {matchbox={name=icon2 boxwidth=6 boxheight={4 0} offsettop=2}}\012\011\011\011\011\011\011end {matchbox={end}}\012\011\011\011\011\011\011}\012\011\011\011\011\011\011 kerning=true charspacing=-0.4 wordspacing=-0.2 fontsize=7 fillcolor={cmyk 0 0 0 1} fontname=HelveticaCondensedBold encoding=unicode")
[2]
PDF_fit_textflow(p_0x7f2fe9a0f8b8, 2, 130.000000, 9.000000, 323.129252, 41.000000, "linespreadlimit=110%")
["_stop"]
PDF_load_image(p_0x7f2fe9a0f8b8, "auto", "/var/www/admin.aatravel.co.za/web/juno/stuff/ad_templates/img/icons_cmyk/fax.jpg", /*c*/0, "")
[2]
PDF_info_matchbox(p_0x7f2fe9a0f8b8, "icon2", /*c*/0, 1, "x1")
[130.000000]
PDF_info_matchbox(p_0x7f2fe9a0f8b8, "icon2", /*c*/0, 1, "y1")
[34.000000]
PDF_info_matchbox(p_0x7f2fe9a0f8b8, "icon2", /*c*/0, 1, "width")
[6.000000]
PDF_info_matchbox(p_0x7f2fe9a0f8b8, "icon2", /*c*/0, 1, "height")
[6.000000]
PDF_fit_image(p_0x7f2fe9a0f8b8, 2, 130.000000, 34.000000, "boxsize={6 6} fitmethod=entire position=center")
PDF_create_textflow(p_0x7f2fe9a0f8b8, "<&icon3><&end> Mlilwane Wildlife Sanctuary, Ezulwini.", /*c*/53, "macro {\012\011\011\011\011\011\011icon3 {matchbox={name=icon3 boxwidth=6 boxheight={4 0} offsettop=2}}\012\011\011\011\011\011\011end {matchbox={end}}\012\011\011\011\011\011\011}\012\011\011\011\011\011\011 kerning=true charspacing=-0.4 wordspacing=-0.2 fontsize=7 fillcolor={cmyk 0 0 0 1} fontname=HelveticaCondensedBold encoding=unicode")
[3]
PDF_fit_textflow(p_0x7f2fe9a0f8b8, 3, 130.000000, 9.000000, 323.129252, 33.000000, "linespreadlimit=110%")
["_stop"]
PDF_load_image(p_0x7f2fe9a0f8b8, "auto", "/var/www/admin.aatravel.co.za/web/juno/stuff/ad_templates/img/icons_cmyk/physical.jpg", /*c*/0, "")
[3]
PDF_info_matchbox(p_0x7f2fe9a0f8b8, "icon3", /*c*/0, 1, "x1")
[130.000000]
PDF_info_matchbox(p_0x7f2fe9a0f8b8, "icon3", /*c*/0, 1, "y1")
[26.000000]
PDF_info_matchbox(p_0x7f2fe9a0f8b8, "icon3", /*c*/0, 1, "width")
[6.000000]
PDF_info_matchbox(p_0x7f2fe9a0f8b8, "icon3", /*c*/0, 1, "height")
[6.000000]
PDF_fit_image(p_0x7f2fe9a0f8b8, 3, 130.000000, 26.000000, "boxsize={6 6} fitmethod=entire position=center")
PDF_create_textflow(p_0x7f2fe9a0f8b8, "<&icon4><&end> reservations@biggameparks.org", /*c*/44, "macro {\012\011\011\011\011\011\011icon4 {matchbox={name=icon4 boxwidth=6 boxheight={4 0} offsettop=2}}\012\011\011\011\011\011\011end {matchbox={end}}\012\011\011\011\011\011\011}\012\011\011\011\011\011\011 kerning=true charspacing=-0.4 wordspacing=-0.2 fontsize=7 fillcolor={cmyk 0 0 0 1} fontname=HelveticaCondensedBold encoding=unicode")
[4]
PDF_fit_textflow(p_0x7f2fe9a0f8b8, 4, 130.000000, 9.000000, 323.129252, 25.000000, "linespreadlimit=110%")
["_stop"]
PDF_load_image(p_0x7f2fe9a0f8b8, "auto", "/var/www/admin.aatravel.co.za/web/juno/stuff/ad_templates/img/icons_cmyk/email.jpg", /*c*/0, "")
[4]
PDF_info_matchbox(p_0x7f2fe9a0f8b8, "icon4", /*c*/0, 1, "x1")
[130.000000]
PDF_info_matchbox(p_0x7f2fe9a0f8b8, "icon4", /*c*/0, 1, "y1")
[18.000000]
PDF_info_matchbox(p_0x7f2fe9a0f8b8, "icon4", /*c*/0, 1, "width")
[6.000000]
PDF_info_matchbox(p_0x7f2fe9a0f8b8, "icon4", /*c*/0, 1, "height")
[6.000000]
PDF_fit_image(p_0x7f2fe9a0f8b8, 4, 130.000000, 18.000000, "boxsize={6 6} fitmethod=entire position=center")
PDF_create_textflow(p_0x7f2fe9a0f8b8, "<&icon5><&end> www.biggameparks.org", /*c*/35, "macro {\012\011\011\011\011\011\011icon5 {matchbox={name=icon5 boxwidth=6 boxheight={4 0} offsettop=2}}\012\011\011\011\011\011\011end {matchbox={end}}\012\011\011\011\011\011\011}\012\011\011\011\011\011\011 kerning=true charspacing=-0.4 wordspacing=-0.2 fontsize=7 fillcolor={cmyk 0 0 0 1} fontname=HelveticaCondensedBold encoding=unicode")
[5]
PDF_fit_textflow(p_0x7f2fe9a0f8b8, 5, 130.000000, 9.000000, 323.129252, 17.000000, "linespreadlimit=110%")
["_stop"]
PDF_load_image(p_0x7f2fe9a0f8b8, "auto", "/var/www/admin.aatravel.co.za/web/juno/stuff/ad_templates/img/icons_cmyk/web.jpg", /*c*/0, "")
[5]
PDF_info_matchbox(p_0x7f2fe9a0f8b8, "icon5", /*c*/0, 1, "x1")
[130.000000]
PDF_info_matchbox(p_0x7f2fe9a0f8b8, "icon5", /*c*/0, 1, "y1")
[10.000000]
PDF_info_matchbox(p_0x7f2fe9a0f8b8, "icon5", /*c*/0, 1, "width")
[6.000000]
PDF_info_matchbox(p_0x7f2fe9a0f8b8, "icon5", /*c*/0, 1, "height")
[6.000000]
PDF_fit_image(p_0x7f2fe9a0f8b8, 5, 130.000000, 10.000000, "boxsize={6 6} fitmethod=entire position=center")
PDF_load_image(p_0x7f2fe9a0f8b8, "auto", "/var/www/admin.aatravel.co.za/web/juno/stuff/ad_templates/img/AA_cmyk.jpg", /*c*/0, "")
[6]
PDF_fit_image(p_0x7f2fe9a0f8b8, 6, 130.000000, 104.875283, "boxsize={14.5 21.6} fitmethod=entire  matchbox={name=img margin=-2 boxheight={descender ascender} createwrapbox}")
PDF_close_image(p_0x7f2fe9a0f8b8, 6)
PDF_create_textflow(p_0x7f2fe9a0f8b8, "Highly Recommended - Game or Nature Experience: 7 Rooms. <adjustmethod=split alignment=justify kerning=true fontsize=8 charspacing=-0.1 wordspacing=-0.3 fillcolor={cmyk 0 0 0 1} fontname=HelveticaCondensed encoding=unicode>Steeped in intriguing history, surrounded by stunning botanical gardens and endangered species including Blue Duiker and Suni, quaintly colonial Reilly's Rock Hilltop Lodge offers 6 en-suite bedrooms and nearby Down Gran's self-catering cottage. Enjoy panoramic views of Mlilwane's game-studded plains below, absorb the tranquil atmosphere and enjoy dinner prepared by friendly Swazi service. Don't forget to say hello to the resident bushbabies as the sun sets!", /*c*/685, " adjustmethod=split alignment=justify kerning=true fontsize=8 fillcolor={cmyk 0 0 0 1} fontname=HelveticaCondensedBold encoding=unicode ")
[6]
PDF_fit_textflow(p_0x7f2fe9a0f8b8, 6, 130.000000, 128.888889, 323.129252, 53.000000, "  wrap={usematchboxes={{img}}} verticalalign=justify")
["_stop"]
PDF_end_page_ext(p_0x7f2fe9a0f8b8, "")
[End page #1]

PDF_end_document(p_0x7f2fe9a0f8b8, "")
[Full product name: "PDFlib"]
[Document ID: <D422CA760A09ADD5891603CAB15CF921> <D422CA760A09ADD5891603CAB15CF921>]
[------------------------------------------------------------------------------]
[ PDFlib 8.0.3  PHP5 binding on Linux-x86_64 (le) 2012-07-28 17:51:48          ]
[ Classes: api=1 warning=1                                                     ]
[ Enter in vi to compile it:                                                   ]
[ %s/)$/);/g   and   %s/"(NULL)"/NULL/g   and   %s/\[[^]]*\]//g                ]
[ Program should run on a little-endian platform                               ]
[------------------------------------------------------------------------------]
PDF_set_parameter(p_0x7f2fe9a420f0, "licensefile", "/etc/php5/apache2/pdflib_license.txt")
PDF_set_parameter(p_0x7f2fe9a420f0, "textformat", "bytes")
PDF_set_parameter(p_0x7f2fe9a420f0, "SearchPath", "/var/www/admin.aatravel.co.za/web/juno/utility/color_profiles")
[New category:resource "SearchPath:/usr/local/PDFlib"]
[New category:resource "SearchPath:/usr/local/PDFlib/PDFlib"]
[New category:resource "SearchPath:/usr/local/PDFlib/PDFlib/8.0"]
[New category:resource "SearchPath:/usr/local/PDFlib/PDFlib/8.0/resource/cmap"]
[New category:resource "SearchPath:/usr/local/PDFlib/PDFlib/8.0/resource/fonts"]
[New category:resource "SearchPath:/usr/local/PDFlib/PDFlib/8.0/resource/icc"]
[New category:resource "SearchPath:/var/www/admin.aatravel.co.za/web/juno/utility/color_profiles"]

PDF_begin_document(p_0x7f2fe9a420f0, "/var/www/admin.aatravel.co.za/web/juno/stuff/establishments/RE7804/ads/814/pdf/1343490706_low.pdf", /*c*/0, "")
[Begin document]
[1]
PDF_set_info2(p_0x7f2fe9a420f0, "Creator", "AA TRAVEL GUIDES", /*c*/16)
PDF_set_info2(p_0x7f2fe9a420f0, "Author", "Vanessa Weltman", /*c*/15)
PDF_set_info2(p_0x7f2fe9a420f0, "Title", "AA AD | Reilly's Rock Hilltop Lodge | 2012 SA Best - Quarter Page Ad (114x49mm) | 28/07/2012", /*c*/92)

PDF_begin_page_ext(p_0x7f2fe9a420f0, 323.129252, 138.888889, "")
[Begin page #1]
PDF_set_parameter(p_0x7f2fe9a420f0, "FontOutline", "HelveticaCondensedBold=/var/www/admin.aatravel.co.za/web/juno/stuff/ad_templates/fonts/helvetica-condensed-bold.ttf")
[New category:resource "FontOutline:HelveticaCondensedBold = /var/www/admin.aatravel.co.za/web/juno/stuff/ad_templates/fonts/helvetica-condensed-bold.ttf"]
PDF_load_font(p_0x7f2fe9a420f0, "HelveticaCondensedBold", /*c*/0, "unicode", "embedding")
[1]
PDF_setfont(p_0x7f2fe9a420f0, 1, 24.000000)
PDF_set_parameter(p_0x7f2fe9a420f0, "FontOutline", "HelveticaCondensed=/var/www/admin.aatravel.co.za/web/juno/stuff/ad_templates/fonts/helvetica-condensed.ttf")
[New category:resource "FontOutline:HelveticaCondensed = /var/www/admin.aatravel.co.za/web/juno/stuff/ad_templates/fonts/helvetica-condensed.ttf"]
PDF_load_font(p_0x7f2fe9a420f0, "HelveticaCondensed", /*c*/0, "unicode", "embedding")
[2]
PDF_setfont(p_0x7f2fe9a420f0, 2, 24.000000)
PDF_setcolor(p_0x7f2fe9a420f0, "fill", "cmyk", 0.100000, 0.200000, 0.300000, 0.000000)
PDF_setcolor(p_0x7f2fe9a420f0, "fill", "cmyk", 0.100000, 0.200000, 0.300000, 0.000000)
PDF_rect(p_0x7f2fe9a420f0, 0.000000, 128.888889, 323.129252, 10.000000)
PDF_fill(p_0x7f2fe9a420f0)
PDF_fit_textline(p_0x7f2fe9a420f0, "Reilly's Rock Hilltop Lodge", /*c*/27, 0.000000, 133.786848, "position={left center} kerning=true charspacing=-0.4 wordspacing=-0.2 fontsize=8 fillcolor={cmyk 0 0 0 1} fontname=HelveticaCondensedBold encoding=unicode")
PDF_fit_textline(p_0x7f2fe9a420f0, "Swaziland - Ezulwini", /*c*/20, 323.129252, 133.786848, "position={right center} kerning=true charspacing=-0.4 wordspacing=-0.2 fontsize=8 fillcolor={cmyk 0 0 0 1} fontname=HelveticaCondensedBold encoding=unicode")
PDF_setcolor(p_0x7f2fe9a420f0, "fill", "cmyk", 0.100000, 0.200000, 0.300000, 0.000000)
PDF_rect(p_0x7f2fe9a420f0, 0.000000, 114.388889, 125.000000, 12.000000)
PDF_fill(p_0x7f2fe9a420f0)
PDF_fit_textline(p_0x7f2fe9a420f0, "On Request", /*c*/10, 0.000000, 120.888889, "position={left center} kerning=true charspacing=-0.3 wordspacing=-0.2 fontsize=9 fillcolor={cmyk 1 1 1 0}  fontname=HelveticaCondensedBold encoding=unicode")
PDF_load_image(p_0x7f2fe9a420f0, "auto", "/var/www/admin.aatravel.co.za/web/hires_temp/RE7804_1343490602_H600_low.jpg", /*c*/0, "")
[1]
PDF_fit_image(p_0x7f2fe9a420f0, 1, 0.000000, -0.032880, "boxsize={123.58276644 82.4036281179} position={center} fitmethod=entire")
PDF_close_image(p_0x7f2fe9a420f0, 1)
PDF_load_image(p_0x7f2fe9a420f0, "auto", "/var/www/admin.aatravel.co.za/web/juno/stuff/ad_templates/img/icons_rgb/PFOLIO.jpg", /*c*/0, "")
[1]
PDF_fit_image(p_0x7f2fe9a420f0, 1, 130.000000, 0.000000, "boxsize={7.65306122449 7.65306122449} fitmethod=entire position=center matchbox={name=img2 margin=-2}")
PDF_close_image(p_0x7f2fe9a420f0, 1)
PDF_load_image(p_0x7f2fe9a420f0, "auto", "/var/www/admin.aatravel.co.za/web/juno/stuff/ad_templates/img/icons_rgb/AMEX.jpg", /*c*/0, "")
[1]
PDF_fit_image(p_0x7f2fe9a420f0, 1, 138.503401, 0.000000, "boxsize={7.65306122449 7.65306122449} fitmethod=entire position=center matchbox={name=img2 margin=-2}")
PDF_close_image(p_0x7f2fe9a420f0, 1)
PDF_load_image(p_0x7f2fe9a420f0, "auto", "/var/www/admin.aatravel.co.za/web/juno/stuff/ad_templates/img/icons_rgb/BIRDWATCH.jpg", /*c*/0, "")
[1]
PDF_fit_image(p_0x7f2fe9a420f0, 1, 147.006803, 0.000000, "boxsize={7.65306122449 7.65306122449} fitmethod=entire position=center matchbox={name=img2 margin=-2}")
PDF_close_image(p_0x7f2fe9a420f0, 1)
PDF_load_image(p_0x7f2fe9a420f0, "auto", "/var/www/admin.aatravel.co.za/web/juno/stuff/ad_templates/img/icons_rgb/GAMEVIEW.jpg", /*c*/0, "")
[1]
PDF_fit_image(p_0x7f2fe9a420f0, 1, 155.510204, 0.000000, "boxsize={7.65306122449 7.65306122449} fitmethod=entire position=center matchbox={name=img2 margin=-2}")
PDF_close_image(p_0x7f2fe9a420f0, 1)
PDF_load_image(p_0x7f2fe9a420f0, "auto", "/var/www/admin.aatravel.co.za/web/juno/stuff/ad_templates/img/icons_rgb/HIKING.jpg", /*c*/0, "")
[1]
PDF_fit_image(p_0x7f2fe9a420f0, 1, 164.013605, 0.000000, "boxsize={7.65306122449 7.65306122449} fitmethod=entire position=center matchbox={name=img2 margin=-2}")
PDF_close_image(p_0x7f2fe9a420f0, 1)
PDF_load_image(p_0x7f2fe9a420f0, "auto", "/var/www/admin.aatravel.co.za/web/juno/stuff/ad_templates/img/icons_rgb/MTBIKE.jpg", /*c*/0, "")
[1]
PDF_fit_image(p_0x7f2fe9a420f0, 1, 172.517007, 0.000000, "boxsize={7.65306122449 7.65306122449} fitmethod=entire position=center matchbox={name=img2 margin=-2}")
PDF_close_image(p_0x7f2fe9a420f0, 1)
PDF_load_image(p_0x7f2fe9a420f0, "auto", "/var/www/admin.aatravel.co.za/web/juno/stuff/ad_templates/img/icons_rgb/HORSERIDNG.jpg", /*c*/0, "")
[1]
PDF_fit_image(p_0x7f2fe9a420f0, 1, 181.020408, 0.000000, "boxsize={7.65306122449 7.65306122449} fitmethod=entire position=center matchbox={name=img2 margin=-2}")
PDF_close_image(p_0x7f2fe9a420f0, 1)
PDF_load_image(p_0x7f2fe9a420f0, "auto", "/var/www/admin.aatravel.co.za/web/juno/stuff/ad_templates/img/icons_rgb/CEILINGFAN.jpg", /*c*/0, "")
[1]
PDF_fit_image(p_0x7f2fe9a420f0, 1, 189.523810, 0.000000, "boxsize={7.65306122449 7.65306122449} fitmethod=entire position=center matchbox={name=img2 margin=-2}")
PDF_close_image(p_0x7f2fe9a420f0, 1)
PDF_load_image(p_0x7f2fe9a420f0, "auto", "/var/www/admin.aatravel.co.za/web/juno/stuff/ad_templates/img/icons_rgb/LAUNDSERV.jpg", /*c*/0, "")
[1]
PDF_fit_image(p_0x7f2fe9a420f0, 1, 198.027211, 0.000000, "boxsize={7.65306122449 7.65306122449} fitmethod=entire position=center matchbox={name=img2 margin=-2}")
PDF_close_image(p_0x7f2fe9a420f0, 1)
PDF_load_image(p_0x7f2fe9a420f0, "auto", "/var/www/admin.aatravel.co.za/web/juno/stuff/ad_templates/img/icons_rgb/IRONSERV.jpg", /*c*/0, "")
[1]
PDF_fit_image(p_0x7f2fe9a420f0, 1, 206.530612, 0.000000, "boxsize={7.65306122449 7.65306122449} fitmethod=entire position=center matchbox={name=img2 margin=-2}")
PDF_close_image(p_0x7f2fe9a420f0, 1)
PDF_load_image(p_0x7f2fe9a420f0, "auto", "/var/www/admin.aatravel.co.za/web/juno/stuff/ad_templates/img/icons_rgb/SPMEALS.jpg", /*c*/0, "")
[1]
PDF_fit_image(p_0x7f2fe9a420f0, 1, 215.034014, 0.000000, "boxsize={7.65306122449 7.65306122449} fitmethod=entire position=center matchbox={name=img2 margin=-2}")
PDF_close_image(p_0x7f2fe9a420f0, 1)
PDF_load_image(p_0x7f2fe9a420f0, "auto", "/var/www/admin.aatravel.co.za/web/juno/stuff/ad_templates/img/icons_rgb/CREDCARDS.jpg", /*c*/0, "")
[1]
PDF_fit_image(p_0x7f2fe9a420f0, 1, 223.537415, 0.000000, "boxsize={7.65306122449 7.65306122449} fitmethod=entire position=center matchbox={name=img2 margin=-2}")
PDF_close_image(p_0x7f2fe9a420f0, 1)
PDF_load_image(p_0x7f2fe9a420f0, "auto", "/var/www/admin.aatravel.co.za/web/juno/stuff/ad_templates/img/icons_rgb/DISABLED.jpg", /*c*/0, "")
[1]
PDF_fit_image(p_0x7f2fe9a420f0, 1, 232.040816, 0.000000, "boxsize={7.65306122449 7.65306122449} fitmethod=entire position=center matchbox={name=img2 margin=-2}")
PDF_close_image(p_0x7f2fe9a420f0, 1)
PDF_load_image(p_0x7f2fe9a420f0, "auto", "/var/www/admin.aatravel.co.za/web/juno/stuff/ad_templates/img/icons_rgb/NOPETS.jpg", /*c*/0, "")
[1]
PDF_fit_image(p_0x7f2fe9a420f0, 1, 240.544218, 0.000000, "boxsize={7.65306122449 7.65306122449} fitmethod=entire position=center matchbox={name=img2 margin=-2}")
PDF_close_image(p_0x7f2fe9a420f0, 1)
PDF_create_textflow(p_0x7f2fe9a420f0, "<&icon1><&end> +(268) 2528 3943;", /*c*/32, "macro {icon1 {matchbox={name=icon1 boxwidth=6 boxheight={4 0} offsettop=2}}\012end {matchbox={end}}\012}\012 kerning=true charspacing=-0.4 wordspacing=-0.2 fontsize=7 fillcolor={cmyk 0 0 0 1} fontname=HelveticaCondensedBold encoding=unicode")
[1]
PDF_fit_textflow(p_0x7f2fe9a420f0, 1, 130.000000, 9.000000, 323.129252, 49.000000, "linespreadlimit=110%")
["_stop"]
PDF_load_image(p_0x7f2fe9a420f0, "auto", "/var/www/admin.aatravel.co.za/web/juno/stuff/ad_templates/img/icons_cmyk/tel.jpg", /*c*/0, "")
[1]
PDF_info_matchbox(p_0x7f2fe9a420f0, "icon1", /*c*/0, 1, "x1")
[130.000000]
PDF_info_matchbox(p_0x7f2fe9a420f0, "icon1", /*c*/0, 1, "y1")
[42.000000]
PDF_info_matchbox(p_0x7f2fe9a420f0, "icon1", /*c*/0, 1, "width")
[6.000000]
PDF_info_matchbox(p_0x7f2fe9a420f0, "icon1", /*c*/0, 1, "height")
[6.000000]
PDF_fit_image(p_0x7f2fe9a420f0, 1, 130.000000, 42.000000, "boxsize={6 6} fitmethod=entire position=center")
PDF_create_textflow(p_0x7f2fe9a420f0, "<&icon2><&end> +(268) 2528 3924;", /*c*/32, "macro {icon2 {matchbox={name=icon2 boxwidth=6 boxheight={4 0} offsettop=2}}\012end {matchbox={end}}\012}\012 kerning=true charspacing=-0.4 wordspacing=-0.2 fontsize=7 fillcolor={cmyk 0 0 0 1} fontname=HelveticaCondensedBold encoding=unicode")
[2]
PDF_fit_textflow(p_0x7f2fe9a420f0, 2, 130.000000, 9.000000, 323.129252, 41.000000, "linespreadlimit=110%")
["_stop"]
PDF_load_image(p_0x7f2fe9a420f0, "auto", "/var/www/admin.aatravel.co.za/web/juno/stuff/ad_templates/img/icons_cmyk/fax.jpg", /*c*/0, "")
[2]
PDF_info_matchbox(p_0x7f2fe9a420f0, "icon2", /*c*/0, 1, "x1")
[130.000000]
PDF_info_matchbox(p_0x7f2fe9a420f0, "icon2", /*c*/0, 1, "y1")
[34.000000]
PDF_info_matchbox(p_0x7f2fe9a420f0, "icon2", /*c*/0, 1, "width")
[6.000000]
PDF_info_matchbox(p_0x7f2fe9a420f0, "icon2", /*c*/0, 1, "height")
[6.000000]
PDF_fit_image(p_0x7f2fe9a420f0, 2, 130.000000, 34.000000, "boxsize={6 6} fitmethod=entire position=center")
PDF_create_textflow(p_0x7f2fe9a420f0, "<&icon3><&end> Mlilwane Wildlife Sanctuary, Ezulwini.", /*c*/53, "macro {icon3 {matchbox={name=icon3 boxwidth=6 boxheight={4 0} offsettop=2}}\012end {matchbox={end}}\012}\012 kerning=true charspacing=-0.4 wordspacing=-0.2 fontsize=7 fillcolor={cmyk 0 0 0 1} fontname=HelveticaCondensedBold encoding=unicode")
[3]
PDF_fit_textflow(p_0x7f2fe9a420f0, 3, 130.000000, 9.000000, 323.129252, 33.000000, "linespreadlimit=110%")
["_stop"]
PDF_load_image(p_0x7f2fe9a420f0, "auto", "/var/www/admin.aatravel.co.za/web/juno/stuff/ad_templates/img/icons_cmyk/physical.jpg", /*c*/0, "")
[3]
PDF_info_matchbox(p_0x7f2fe9a420f0, "icon3", /*c*/0, 1, "x1")
[130.000000]
PDF_info_matchbox(p_0x7f2fe9a420f0, "icon3", /*c*/0, 1, "y1")
[26.000000]
PDF_info_matchbox(p_0x7f2fe9a420f0, "icon3", /*c*/0, 1, "width")
[6.000000]
PDF_info_matchbox(p_0x7f2fe9a420f0, "icon3", /*c*/0, 1, "height")
[6.000000]
PDF_fit_image(p_0x7f2fe9a420f0, 3, 130.000000, 26.000000, "boxsize={6 6} fitmethod=entire position=center")
PDF_create_textflow(p_0x7f2fe9a420f0, "<&icon4><&end> reservations@biggameparks.org", /*c*/44, "macro {icon4 {matchbox={name=icon4 boxwidth=6 boxheight={4 0} offsettop=2}}\012end {matchbox={end}}\012}\012 kerning=true charspacing=-0.4 wordspacing=-0.2 fontsize=7 fillcolor={cmyk 0 0 0 1} fontname=HelveticaCondensedBold encoding=unicode")
[4]
PDF_fit_textflow(p_0x7f2fe9a420f0, 4, 130.000000, 9.000000, 323.129252, 25.000000, "linespreadlimit=110%")
["_stop"]
PDF_load_image(p_0x7f2fe9a420f0, "auto", "/var/www/admin.aatravel.co.za/web/juno/stuff/ad_templates/img/icons_cmyk/email.jpg", /*c*/0, "")
[4]
PDF_info_matchbox(p_0x7f2fe9a420f0, "icon4", /*c*/0, 1, "x1")
[130.000000]
PDF_info_matchbox(p_0x7f2fe9a420f0, "icon4", /*c*/0, 1, "y1")
[18.000000]
PDF_info_matchbox(p_0x7f2fe9a420f0, "icon4", /*c*/0, 1, "width")
[6.000000]
PDF_info_matchbox(p_0x7f2fe9a420f0, "icon4", /*c*/0, 1, "height")
[6.000000]
PDF_fit_image(p_0x7f2fe9a420f0, 4, 130.000000, 18.000000, "boxsize={6 6} fitmethod=entire position=center")
PDF_create_textflow(p_0x7f2fe9a420f0, "<&icon5><&end> www.biggameparks.org", /*c*/35, "macro {icon5 {matchbox={name=icon5 boxwidth=6 boxheight={4 0} offsettop=2}}\012end {matchbox={end}}\012}\012 kerning=true charspacing=-0.4 wordspacing=-0.2 fontsize=7 fillcolor={cmyk 0 0 0 1} fontname=HelveticaCondensedBold encoding=unicode")
[5]
PDF_fit_textflow(p_0x7f2fe9a420f0, 5, 130.000000, 9.000000, 323.129252, 17.000000, "linespreadlimit=110%")
["_stop"]
PDF_load_image(p_0x7f2fe9a420f0, "auto", "/var/www/admin.aatravel.co.za/web/juno/stuff/ad_templates/img/icons_cmyk/web.jpg", /*c*/0, "")
[5]
PDF_info_matchbox(p_0x7f2fe9a420f0, "icon5", /*c*/0, 1, "x1")
[130.000000]
PDF_info_matchbox(p_0x7f2fe9a420f0, "icon5", /*c*/0, 1, "y1")
[10.000000]
PDF_info_matchbox(p_0x7f2fe9a420f0, "icon5", /*c*/0, 1, "width")
[6.000000]
PDF_info_matchbox(p_0x7f2fe9a420f0, "icon5", /*c*/0, 1, "height")
[6.000000]
PDF_fit_image(p_0x7f2fe9a420f0, 5, 130.000000, 10.000000, "boxsize={6 6} fitmethod=entire position=center")
PDF_load_image(p_0x7f2fe9a420f0, "auto", "/var/www/admin.aatravel.co.za/web/juno/stuff/ad_templates/img/AA_cmyk.jpg", /*c*/0, "")
[6]
PDF_fit_image(p_0x7f2fe9a420f0, 6, 130.000000, 104.875283, "boxsize={14.5 21.6} fitmethod=entire  matchbox={name=img margin=-2 boxheight={descender ascender} createwrapbox}")
PDF_close_image(p_0x7f2fe9a420f0, 6)
PDF_create_textflow(p_0x7f2fe9a420f0, "Highly Recommended - Game or Nature Experience: 7 Rooms. <adjustmethod=split alignment=justify kerning=true fontsize=8 charspacing=-0.1 wordspacing=-0.3 fillcolor={cmyk 0 0 0 1} fontname=HelveticaCondensed encoding=unicode><adjustmethod=split alignment=justify kerning=true fontsize=8 charspacing=-0.1 wordspacing=-0.3 fillcolor={cmyk 0 0 0 1} fontname=HelveticaCondensed encoding=unicode>Steeped in intriguing history, surrounded by stunning botanical gardens and endangered species including Blue Duiker and Suni, quaintly colonial Reilly's Rock Hilltop Lodge offers 6 en-suite bedrooms and nearby Down Gran's self-catering cottage. Enjoy panoramic views of Mlilwane's game-studded plains below, absorb the tranquil atmosphere and enjoy dinner prepared by friendly Swazi service. Don't forget to say hello to the resident bushbabies as the sun sets!", /*c*/851, " adjustmethod=split alignment=justify kerning=true fontsize=8 fillcolor={cmyk 0 0 0 1} fontname=HelveticaCondensedBold encoding=unicode ")
[6]
PDF_fit_textflow(p_0x7f2fe9a420f0, 6, 130.000000, 128.888889, 323.129252, 53.000000, "  wrap={usematchboxes={{img}}} verticalalign=justify")
["_stop"]
PDF_end_page_ext(p_0x7f2fe9a420f0, "")
[End page #1]

PDF_end_document(p_0x7f2fe9a420f0, "")
[Full product name: "PDFlib"]
[Document ID: <ECB7A344BABBF5D6A7D9241175A03CC0> <ECB7A344BABBF5D6A7D9241175A03CC0>]
[End document]

PDF_delete(p_0x7f2fe9a420f0)
[2012-07-28 17:51:48]
[End document]

PDF_delete(p_0x7f2fe9a0f8b8)
[2012-07-28 17:51:48]
