[------------------------------------------------------------------------------]
[ PDFlib 8.0.3  PHP5 binding on Linux-x86_64 (le) 2012-03-08 08:19:37          ]
[ Classes: api=1 warning=1                                                     ]
[ Enter in vi to compile it:                                                   ]
[ %s/)$/);/g   and   %s/"(NULL)"/NULL/g   and   %s/\[[^]]*\]//g                ]
[ Program should run on a little-endian platform                               ]
[------------------------------------------------------------------------------]
PDF_set_parameter(p_0x7f2072bb6fe8, "licensefile", "/etc/php5/apache2/pdflib_license.txt")
PDF_set_parameter(p_0x7f2072bb6fe8, "textformat", "bytes")
PDF_set_parameter(p_0x7f2072bb6fe8, "SearchPath", "/var/www/admin.aatravel.co.za/web/juno/utility/color_profiles")
[New category:resource "SearchPath:/usr/local/PDFlib"]
[New category:resource "SearchPath:/usr/local/PDFlib/PDFlib"]
[New category:resource "SearchPath:/usr/local/PDFlib/PDFlib/8.0"]
[New category:resource "SearchPath:/usr/local/PDFlib/PDFlib/8.0/resource/cmap"]
[New category:resource "SearchPath:/usr/local/PDFlib/PDFlib/8.0/resource/fonts"]
[New category:resource "SearchPath:/usr/local/PDFlib/PDFlib/8.0/resource/icc"]
[New category:resource "SearchPath:/var/www/admin.aatravel.co.za/web/juno/utility/color_profiles"]

PDF_begin_document(p_0x7f2072bb6fe8, "/var/www/admin.aatravel.co.za/web/juno/stuff/establishments/131643/ads/715/pdf/1331191177.pdf", /*c*/0, "")
[Begin document]
[1]
PDF_set_info2(p_0x7f2072bb6fe8, "Creator", "AA TRAVEL GUIDES", /*c*/16)
PDF_set_info2(p_0x7f2072bb6fe8, "Author", "Livy Detert", /*c*/11)
PDF_set_info2(p_0x7f2072bb6fe8, "Title", "AA AD | Masibambane Guest House  | 2012 Accommodation Directory - Photo Listing Advert (60x90mm) | 08/03/2012", /*c*/109)

PDF_begin_page_ext(p_0x7f2072bb6fe8, 170.068027, 263.605442, "")
[Begin page #1]
PDF_set_parameter(p_0x7f2072bb6fe8, "FontOutline", "HelveticaCondensedBold=/var/www/admin.aatravel.co.za/web/juno/stuff/ad_templates/fonts/helvetica-condensed-bold.ttf")
[New category:resource "FontOutline:HelveticaCondensedBold = /var/www/admin.aatravel.co.za/web/juno/stuff/ad_templates/fonts/helvetica-condensed-bold.ttf"]
PDF_load_font(p_0x7f2072bb6fe8, "HelveticaCondensedBold", /*c*/0, "unicode", "embedding")
[1]
PDF_setfont(p_0x7f2072bb6fe8, 1, 24.000000)
PDF_set_parameter(p_0x7f2072bb6fe8, "FontOutline", "HelveticaCondensed=/var/www/admin.aatravel.co.za/web/juno/stuff/ad_templates/fonts/helvetica-condensed.ttf")
[New category:resource "FontOutline:HelveticaCondensed = /var/www/admin.aatravel.co.za/web/juno/stuff/ad_templates/fonts/helvetica-condensed.ttf"]
PDF_load_font(p_0x7f2072bb6fe8, "HelveticaCondensed", /*c*/0, "unicode", "embedding")
[2]
PDF_setfont(p_0x7f2072bb6fe8, 2, 24.000000)
PDF_setcolor(p_0x7f2072bb6fe8, "fill", "cmyk", 0.500000, 0.000000, 0.200000, 0.000000)
PDF_setcolor(p_0x7f2072bb6fe8, "fill", "cmyk", 0.000000, 0.000000, 0.000000, 0.600000)
PDF_rect(p_0x7f2072bb6fe8, 126.068027, 254.805442, 44.000000, 7.000000)
PDF_fill(p_0x7f2072bb6fe8)
PDF_fit_textline(p_0x7f2072bb6fe8, "Dbl: B pp B&B", /*c*/13, 170.068027, 258.503401, "position={right center} kerning=true charspacing=-0.3 wordspacing=-0.2 fontsize=6 fillcolor={cmyk 0 0 0 0}")
PDF_setcolor(p_0x7f2072bb6fe8, "fill", "cmyk", 0.000000, 0.000000, 0.000000, 0.200000)
PDF_rect(p_0x7f2072bb6fe8, 126.068027, 246.605442, 44.000000, 7.000000)
PDF_fill(p_0x7f2072bb6fe8)
PDF_fit_textline(p_0x7f2072bb6fe8, "Sgl: C B&B", /*c*/10, 170.068027, 250.503401, "position={right center} kerning=true charspacing=-0.3 wordspacing=-0.2 fontsize=6 fillcolor={cmyk 0 0 0 1}")
PDF_fit_textline(p_0x7f2072bb6fe8, "MASIBAMBANE GUEST HOUSE ", /*c*/24, 0.000000, 258.503401, "position={left center} kerning=true charspacing=-0.4 wordspacing=-0.2 fontsize=8 fillcolor={cmyk 0 0 0 1} fontname=HelveticaCondensedBold encoding=unicode")
PDF_load_iccprofile(p_0x7f2072bb6fe8, "USWebCoatedSWOP", /*c*/0, "usage=iccbased")
[2]
PDF_load_image(p_0x7f2072bb6fe8, "auto", "/var/www/admin.aatravel.co.za/web/hires_temp/131643_1299257109_H1400.jpg", /*c*/0, "iccprofile=2 honoriccprofile=false")
[1]
PDF_fit_image(p_0x7f2072bb6fe8, 1, 0.000000, 137.393424, "boxsize={174.603174603 107.9138322} position={center} fitmethod=entire")
PDF_close_image(p_0x7f2072bb6fe8, 1)
PDF_load_image(p_0x7f2072bb6fe8, "auto", "/var/www/admin.aatravel.co.za/web/juno/stuff/ad_templates/img/icons_cmyk/BIRDWATCH.jpg", /*c*/0, "")
[1]
PDF_fit_image(p_0x7f2072bb6fe8, 1, 0.000000, 8.503401, "boxsize={7.65306122449 7.65306122449} fitmethod=entire position=center matchbox={name=img2 margin=-2}")
PDF_close_image(p_0x7f2072bb6fe8, 1)
PDF_load_image(p_0x7f2072bb6fe8, "auto", "/var/www/admin.aatravel.co.za/web/juno/stuff/ad_templates/img/icons_cmyk/BRAAI.jpg", /*c*/0, "")
[1]
PDF_fit_image(p_0x7f2072bb6fe8, 1, 8.503401, 8.503401, "boxsize={7.65306122449 7.65306122449} fitmethod=entire position=center matchbox={name=img2 margin=-2}")
PDF_close_image(p_0x7f2072bb6fe8, 1)
PDF_load_image(p_0x7f2072bb6fe8, "auto", "/var/www/admin.aatravel.co.za/web/juno/stuff/ad_templates/img/icons_cmyk/CONFERENCE.jpg", /*c*/0, "")
[1]
PDF_fit_image(p_0x7f2072bb6fe8, 1, 17.006803, 8.503401, "boxsize={7.65306122449 7.65306122449} fitmethod=entire position=center matchbox={name=img2 margin=-2}")
PDF_close_image(p_0x7f2072bb6fe8, 1)
PDF_load_image(p_0x7f2072bb6fe8, "auto", "/var/www/admin.aatravel.co.za/web/juno/stuff/ad_templates/img/icons_cmyk/COVERPARK.jpg", /*c*/0, "")
[1]
PDF_fit_image(p_0x7f2072bb6fe8, 1, 25.510204, 8.503401, "boxsize={7.65306122449 7.65306122449} fitmethod=entire position=center matchbox={name=img2 margin=-2}")
PDF_close_image(p_0x7f2072bb6fe8, 1)
PDF_load_image(p_0x7f2072bb6fe8, "auto", "/var/www/admin.aatravel.co.za/web/juno/stuff/ad_templates/img/icons_cmyk/EMAILINTER.jpg", /*c*/0, "")
[1]
PDF_fit_image(p_0x7f2072bb6fe8, 1, 34.013605, 8.503401, "boxsize={7.65306122449 7.65306122449} fitmethod=entire position=center matchbox={name=img2 margin=-2}")
PDF_close_image(p_0x7f2072bb6fe8, 1)
PDF_load_image(p_0x7f2072bb6fe8, "auto", "/var/www/admin.aatravel.co.za/web/juno/stuff/ad_templates/img/icons_cmyk/OPENPARK.jpg", /*c*/0, "")
[1]
PDF_fit_image(p_0x7f2072bb6fe8, 1, 42.517007, 8.503401, "boxsize={7.65306122449 7.65306122449} fitmethod=entire position=center matchbox={name=img2 margin=-2}")
PDF_close_image(p_0x7f2072bb6fe8, 1)
PDF_load_image(p_0x7f2072bb6fe8, "auto", "/var/www/admin.aatravel.co.za/web/juno/stuff/ad_templates/img/icons_cmyk/SWIMPOOL.jpg", /*c*/0, "")
[1]
PDF_fit_image(p_0x7f2072bb6fe8, 1, 51.020408, 8.503401, "boxsize={7.65306122449 7.65306122449} fitmethod=entire position=center matchbox={name=img2 margin=-2}")
PDF_close_image(p_0x7f2072bb6fe8, 1)
PDF_load_image(p_0x7f2072bb6fe8, "auto", "/var/www/admin.aatravel.co.za/web/juno/stuff/ad_templates/img/icons_cmyk/WIFI.jpg", /*c*/0, "")
[1]
PDF_fit_image(p_0x7f2072bb6fe8, 1, 59.523810, 8.503401, "boxsize={7.65306122449 7.65306122449} fitmethod=entire position=center matchbox={name=img2 margin=-2}")
PDF_close_image(p_0x7f2072bb6fe8, 1)
PDF_load_image(p_0x7f2072bb6fe8, "auto", "/var/www/admin.aatravel.co.za/web/juno/stuff/ad_templates/img/icons_cmyk/BABYSIT.jpg", /*c*/0, "")
[1]
PDF_fit_image(p_0x7f2072bb6fe8, 1, 68.027211, 8.503401, "boxsize={7.65306122449 7.65306122449} fitmethod=entire position=center matchbox={name=img2 margin=-2}")
PDF_close_image(p_0x7f2072bb6fe8, 1)
PDF_load_image(p_0x7f2072bb6fe8, "auto", "/var/www/admin.aatravel.co.za/web/juno/stuff/ad_templates/img/icons_cmyk/CREDCARDS.jpg", /*c*/0, "")
[1]
PDF_fit_image(p_0x7f2072bb6fe8, 1, 76.530612, 8.503401, "boxsize={7.65306122449 7.65306122449} fitmethod=entire position=center matchbox={name=img2 margin=-2}")
PDF_close_image(p_0x7f2072bb6fe8, 1)
PDF_load_image(p_0x7f2072bb6fe8, "auto", "/var/www/admin.aatravel.co.za/web/juno/stuff/ad_templates/img/icons_cmyk/AMEX.jpg", /*c*/0, "")
[1]
PDF_fit_image(p_0x7f2072bb6fe8, 1, 85.034014, 8.503401, "boxsize={7.65306122449 7.65306122449} fitmethod=entire position=center matchbox={name=img2 margin=-2}")
PDF_close_image(p_0x7f2072bb6fe8, 1)
PDF_load_image(p_0x7f2072bb6fe8, "auto", "/var/www/admin.aatravel.co.za/web/juno/stuff/ad_templates/img/icons_cmyk/HALAL.jpg", /*c*/0, "")
[1]
PDF_fit_image(p_0x7f2072bb6fe8, 1, 93.537415, 8.503401, "boxsize={7.65306122449 7.65306122449} fitmethod=entire position=center matchbox={name=img2 margin=-2}")
PDF_close_image(p_0x7f2072bb6fe8, 1)
PDF_load_image(p_0x7f2072bb6fe8, "auto", "/var/www/admin.aatravel.co.za/web/juno/stuff/ad_templates/img/icons_cmyk/IRONSERV.jpg", /*c*/0, "")
[1]
PDF_fit_image(p_0x7f2072bb6fe8, 1, 102.040816, 8.503401, "boxsize={7.65306122449 7.65306122449} fitmethod=entire position=center matchbox={name=img2 margin=-2}")
PDF_close_image(p_0x7f2072bb6fe8, 1)
PDF_load_image(p_0x7f2072bb6fe8, "auto", "/var/www/admin.aatravel.co.za/web/juno/stuff/ad_templates/img/icons_cmyk/LAUNDSERV.jpg", /*c*/0, "")
[1]
PDF_fit_image(p_0x7f2072bb6fe8, 1, 110.544218, 8.503401, "boxsize={7.65306122449 7.65306122449} fitmethod=entire position=center matchbox={name=img2 margin=-2}")
PDF_close_image(p_0x7f2072bb6fe8, 1)
PDF_load_image(p_0x7f2072bb6fe8, "auto", "/var/www/admin.aatravel.co.za/web/juno/stuff/ad_templates/img/icons_cmyk/CEILINGFAN.jpg", /*c*/0, "")
[1]
PDF_fit_image(p_0x7f2072bb6fe8, 1, 119.047619, 8.503401, "boxsize={7.65306122449 7.65306122449} fitmethod=entire position=center matchbox={name=img2 margin=-2}")
PDF_close_image(p_0x7f2072bb6fe8, 1)
PDF_load_image(p_0x7f2072bb6fe8, "auto", "/var/www/admin.aatravel.co.za/web/juno/stuff/ad_templates/img/icons_cmyk/COT.jpg", /*c*/0, "")
[1]
PDF_fit_image(p_0x7f2072bb6fe8, 1, 127.551020, 8.503401, "boxsize={7.65306122449 7.65306122449} fitmethod=entire position=center matchbox={name=img2 margin=-2}")
PDF_close_image(p_0x7f2072bb6fe8, 1)
PDF_load_image(p_0x7f2072bb6fe8, "auto", "/var/www/admin.aatravel.co.za/web/juno/stuff/ad_templates/img/icons_cmyk/HEATING.jpg", /*c*/0, "")
[1]
PDF_fit_image(p_0x7f2072bb6fe8, 1, 136.054422, 8.503401, "boxsize={7.65306122449 7.65306122449} fitmethod=entire position=center matchbox={name=img2 margin=-2}")
PDF_close_image(p_0x7f2072bb6fe8, 1)
PDF_load_image(p_0x7f2072bb6fe8, "auto", "/var/www/admin.aatravel.co.za/web/juno/stuff/ad_templates/img/icons_cmyk/TVMNET.jpg", /*c*/0, "")
[1]
PDF_fit_image(p_0x7f2072bb6fe8, 1, 144.557823, 8.503401, "boxsize={7.65306122449 7.65306122449} fitmethod=entire position=center matchbox={name=img2 margin=-2}")
PDF_close_image(p_0x7f2072bb6fe8, 1)
PDF_load_image(p_0x7f2072bb6fe8, "auto", "/var/www/admin.aatravel.co.za/web/juno/stuff/ad_templates/img/icons_cmyk/NONSMOKE.jpg", /*c*/0, "")
[1]
PDF_fit_image(p_0x7f2072bb6fe8, 1, 153.061224, 8.503401, "boxsize={7.65306122449 7.65306122449} fitmethod=entire position=center matchbox={name=img2 margin=-2}")
PDF_close_image(p_0x7f2072bb6fe8, 1)
PDF_load_image(p_0x7f2072bb6fe8, "auto", "/var/www/admin.aatravel.co.za/web/juno/stuff/ad_templates/img/icons_cmyk/TEACOFFEE.jpg", /*c*/0, "")
[1]
PDF_fit_image(p_0x7f2072bb6fe8, 1, 161.564626, 8.503401, "boxsize={7.65306122449 7.65306122449} fitmethod=entire position=center matchbox={name=img2 margin=-2}")
PDF_close_image(p_0x7f2072bb6fe8, 1)
PDF_load_image(p_0x7f2072bb6fe8, "auto", "/var/www/admin.aatravel.co.za/web/juno/stuff/ad_templates/img/icons_cmyk/TVINROOM.jpg", /*c*/0, "")
[1]
PDF_fit_image(p_0x7f2072bb6fe8, 1, 0.000000, 0.000000, "boxsize={7.65306122449 7.65306122449} fitmethod=entire position=center matchbox={name=img2 margin=-2}")
PDF_close_image(p_0x7f2072bb6fe8, 1)
PDF_load_image(p_0x7f2072bb6fe8, "auto", "/var/www/admin.aatravel.co.za/web/juno/stuff/ad_templates/img/icons_cmyk/TOILETRIES.jpg", /*c*/0, "")
[1]
PDF_fit_image(p_0x7f2072bb6fe8, 1, 8.503401, 0.000000, "boxsize={7.65306122449 7.65306122449} fitmethod=entire position=center matchbox={name=img2 margin=-2}")
PDF_close_image(p_0x7f2072bb6fe8, 1)
PDF_load_image(p_0x7f2072bb6fe8, "auto", "/var/www/admin.aatravel.co.za/web/juno/stuff/ad_templates/img/icons_cmyk/FEDHASA.jpg", /*c*/0, "")
[1]
PDF_fit_image(p_0x7f2072bb6fe8, 1, 17.006803, 0.000000, "boxsize={7.65306122449 7.65306122449} fitmethod=entire position=center matchbox={name=img2 margin=-2}")
PDF_close_image(p_0x7f2072bb6fe8, 1)
PDF_create_textflow(p_0x7f2072bb6fe8, "<&icon1><&end> +27 (0)14 537-2046  <&icon2><&end> +27 (0)83 310 0583  <&icon3><&end> +27 (0)86 693 0362", /*c*/103, "macro {\012\011\011\011\011\011\011icon1 {matchbox={name=icon1 boxwidth=6 boxheight={4 0} offsettop=2}}\012\011\011\011\011\011\011icon2 {matchbox={name=icon2 boxwidth=6 boxheight={4 0} offsettop=2}}\012\011\011\011\011\011\011icon3 {matchbox={name=icon3 boxwidth=6 boxheight={4 0} offsettop=2}}\012\011\011\011\011\011\011end {matchbox={end}}\012\011\011\011\011\011\011}\012\011\011\011\011\011\011 kerning=true charspacing=-0.4 wordspacing=-0.2 fontsize=7 fillcolor={cmyk 0 0 0 1} fontname=HelveticaCondensedBold encoding=unicode")
[1]
PDF_fit_textflow(p_0x7f2072bb6fe8, 1, 0.000000, 5.668934, 170.068027, 42.517007, "linespreadlimit=110%")
["_stop"]
PDF_load_image(p_0x7f2072bb6fe8, "auto", "/var/www/admin.aatravel.co.za/web/juno/stuff/ad_templates/img/icons_cmyk/tel.jpg", /*c*/0, "")
[1]
PDF_info_matchbox(p_0x7f2072bb6fe8, "icon1", /*c*/0, 1, "x1")
[0.000000]
PDF_info_matchbox(p_0x7f2072bb6fe8, "icon1", /*c*/0, 1, "y1")
[35.517007]
PDF_info_matchbox(p_0x7f2072bb6fe8, "icon1", /*c*/0, 1, "width")
[6.000000]
PDF_info_matchbox(p_0x7f2072bb6fe8, "icon1", /*c*/0, 1, "height")
[6.000000]
PDF_fit_image(p_0x7f2072bb6fe8, 1, 0.000000, 35.517007, "boxsize={6 6} fitmethod=entire position=center")
PDF_load_image(p_0x7f2072bb6fe8, "auto", "/var/www/admin.aatravel.co.za/web/juno/stuff/ad_templates/img/icons_cmyk/cell.jpg", /*c*/0, "")
[2]
PDF_info_matchbox(p_0x7f2072bb6fe8, "icon2", /*c*/0, 1, "x1")
[57.843000]
PDF_info_matchbox(p_0x7f2072bb6fe8, "icon2", /*c*/0, 1, "y1")
[35.517007]
PDF_info_matchbox(p_0x7f2072bb6fe8, "icon2", /*c*/0, 1, "width")
[6.000000]
PDF_info_matchbox(p_0x7f2072bb6fe8, "icon2", /*c*/0, 1, "height")
[6.000000]
PDF_fit_image(p_0x7f2072bb6fe8, 2, 57.843000, 35.517007, "boxsize={6 6} fitmethod=entire position=center")
PDF_load_image(p_0x7f2072bb6fe8, "auto", "/var/www/admin.aatravel.co.za/web/juno/stuff/ad_templates/img/icons_cmyk/fax.jpg", /*c*/0, "")
[3]
PDF_info_matchbox(p_0x7f2072bb6fe8, "icon3", /*c*/0, 1, "x1")
[114.905000]
PDF_info_matchbox(p_0x7f2072bb6fe8, "icon3", /*c*/0, 1, "y1")
[35.517007]
PDF_info_matchbox(p_0x7f2072bb6fe8, "icon3", /*c*/0, 1, "width")
[6.000000]
PDF_info_matchbox(p_0x7f2072bb6fe8, "icon3", /*c*/0, 1, "height")
[6.000000]
PDF_fit_image(p_0x7f2072bb6fe8, 3, 114.905000, 35.517007, "boxsize={6 6} fitmethod=entire position=center")
PDF_create_textflow(p_0x7f2072bb6fe8, "<&icon4><&end> masibam@mweb.co.za  <&icon5><&end> www.masibambaneguesthouse.co.za", /*c*/81, "macro {\012\011\011\011\011\011\011icon4 {matchbox={name=icon4 boxwidth=6 boxheight={4 0} offsettop=2}}\012\011\011\011\011\011\011icon5 {matchbox={name=icon5 boxwidth=6 boxheight={4 0} offsettop=2}}\012\011\011\011\011\011\011end {matchbox={end}}\012\011\011\011\011\011\011}\012\011\011\011\011\011\011 kerning=true charspacing=-0.4 wordspacing=-0.2 fontsize=7 fillcolor={cmyk 0 0 0 1} fontname=HelveticaCondensedBold encoding=unicode")
[2]
PDF_fit_textflow(p_0x7f2072bb6fe8, 2, 0.000000, 5.668934, 170.068027, 34.013605, "linespreadlimit=110%")
["_stop"]
PDF_load_image(p_0x7f2072bb6fe8, "auto", "/var/www/admin.aatravel.co.za/web/juno/stuff/ad_templates/img/icons_cmyk/email.jpg", /*c*/0, "")
[4]
PDF_info_matchbox(p_0x7f2072bb6fe8, "icon4", /*c*/0, 1, "x1")
[0.000000]
PDF_info_matchbox(p_0x7f2072bb6fe8, "icon4", /*c*/0, 1, "y1")
[27.013605]
PDF_info_matchbox(p_0x7f2072bb6fe8, "icon4", /*c*/0, 1, "width")
[6.000000]
PDF_info_matchbox(p_0x7f2072bb6fe8, "icon4", /*c*/0, 1, "height")
[6.000000]
PDF_fit_image(p_0x7f2072bb6fe8, 4, 0.000000, 27.013605, "boxsize={6 6} fitmethod=entire position=center")
PDF_load_image(p_0x7f2072bb6fe8, "auto", "/var/www/admin.aatravel.co.za/web/juno/stuff/ad_templates/img/icons_cmyk/web.jpg", /*c*/0, "")
[5]
PDF_info_matchbox(p_0x7f2072bb6fe8, "icon5", /*c*/0, 1, "x1")
[69.135000]
PDF_info_matchbox(p_0x7f2072bb6fe8, "icon5", /*c*/0, 1, "y1")
[27.013605]
PDF_info_matchbox(p_0x7f2072bb6fe8, "icon5", /*c*/0, 1, "width")
[6.000000]
PDF_info_matchbox(p_0x7f2072bb6fe8, "icon5", /*c*/0, 1, "height")
[6.000000]
PDF_fit_image(p_0x7f2072bb6fe8, 5, 69.135000, 27.013605, "boxsize={6 6} fitmethod=entire position=center")
PDF_create_textflow(p_0x7f2072bb6fe8, "<&icon6><&end> Plot 45, Waterglen.", /*c*/34, "macro {\012\011\011\011\011\011\011icon6 {matchbox={name=icon6 boxwidth=6 boxheight={4 0} offsettop=2}}\012\011\011\011\011\011\011end {matchbox={end}}\012\011\011\011\011\011\011}\012\011\011\011\011\011\011 kerning=true charspacing=-0.4 wordspacing=-0.2 fontsize=7 fillcolor={cmyk 0 0 0 1} fontname=HelveticaCondensedBold encoding=unicode")
[3]
PDF_fit_textflow(p_0x7f2072bb6fe8, 3, 0.000000, 5.668934, 170.068027, 25.510204, "linespreadlimit=110%")
["_stop"]
PDF_load_image(p_0x7f2072bb6fe8, "auto", "/var/www/admin.aatravel.co.za/web/juno/stuff/ad_templates/img/icons_cmyk/physical.jpg", /*c*/0, "")
[6]
PDF_info_matchbox(p_0x7f2072bb6fe8, "icon6", /*c*/0, 1, "x1")
[0.000000]
PDF_info_matchbox(p_0x7f2072bb6fe8, "icon6", /*c*/0, 1, "y1")
[18.510204]
PDF_info_matchbox(p_0x7f2072bb6fe8, "icon6", /*c*/0, 1, "width")
[6.000000]
PDF_info_matchbox(p_0x7f2072bb6fe8, "icon6", /*c*/0, 1, "height")
[6.000000]
PDF_fit_image(p_0x7f2072bb6fe8, 6, 0.000000, 18.510204, "boxsize={6 6} fitmethod=entire position=center")
PDF_load_image(p_0x7f2072bb6fe8, "auto", "/var/www/admin.aatravel.co.za/web/juno/stuff/ad_templates/img/AA_cmyk.jpg", /*c*/0, "")
[7]
PDF_fit_image(p_0x7f2072bb6fe8, 7, 0.000000, 114.575964, "boxsize={14.5 21.6} fitmethod=entire  matchbox={name=img margin=-2 boxheight={descender ascender} createwrapbox}")
PDF_close_image(p_0x7f2072bb6fe8, 7)
PDF_create_textflow(p_0x7f2072bb6fe8, "Highly Recommended - Guest House: 10 Rooms. <adjustmethod=split alignment=justify kerning=true fontsize=8 charspacing=-0.1 wordspacing=-0.3 fillcolor={cmyk 0 0 0 1} fontname=HelveticaCondensed encoding=unicode>Situated in beautiful tranquil gardens on the outskirts of Rustenburg (R24). 10 en suite rooms, hearty English breakfast and warm hospitality. Dinner by prior arrangement. Sunny lapa and pool. Wi-Fi hotspot and conference facilities. Private parties catered for. Your hosts: Gwen and Tony Gibb.", /*c*/504, " adjustmethod=split alignment=justify kerning=true fontsize=8 fillcolor={cmyk 0 0 0 1} fontname=HelveticaCondensedBold encoding=unicode ")
[4]
PDF_fit_textflow(p_0x7f2072bb6fe8, 4, 0.000000, 138.385488, 170.068027, 46.768707, "  wrap={usematchboxes={{img}}} verticalalign=justify")
["_stop"]
PDF_end_page_ext(p_0x7f2072bb6fe8, "")
[End page #1]

PDF_end_document(p_0x7f2072bb6fe8, "")
[Full product name: "PDFlib"]
[Document ID: <63296657F2098A5034429CF871ADAF58> <63296657F2098A5034429CF871ADAF58>]
[------------------------------------------------------------------------------]
[ PDFlib 8.0.3  PHP5 binding on Linux-x86_64 (le) 2012-03-08 08:19:38          ]
[ Classes: api=1 warning=1                                                     ]
[ Enter in vi to compile it:                                                   ]
[ %s/)$/);/g   and   %s/"(NULL)"/NULL/g   and   %s/\[[^]]*\]//g                ]
[ Program should run on a little-endian platform                               ]
[------------------------------------------------------------------------------]
PDF_set_parameter(p_0x7f2072be5248, "licensefile", "/etc/php5/apache2/pdflib_license.txt")
PDF_set_parameter(p_0x7f2072be5248, "textformat", "bytes")
PDF_set_parameter(p_0x7f2072be5248, "SearchPath", "/var/www/admin.aatravel.co.za/web/juno/utility/color_profiles")
[New category:resource "SearchPath:/usr/local/PDFlib"]
[New category:resource "SearchPath:/usr/local/PDFlib/PDFlib"]
[New category:resource "SearchPath:/usr/local/PDFlib/PDFlib/8.0"]
[New category:resource "SearchPath:/usr/local/PDFlib/PDFlib/8.0/resource/cmap"]
[New category:resource "SearchPath:/usr/local/PDFlib/PDFlib/8.0/resource/fonts"]
[New category:resource "SearchPath:/usr/local/PDFlib/PDFlib/8.0/resource/icc"]
[New category:resource "SearchPath:/var/www/admin.aatravel.co.za/web/juno/utility/color_profiles"]

PDF_begin_document(p_0x7f2072be5248, "/var/www/admin.aatravel.co.za/web/juno/stuff/establishments/131643/ads/715/pdf/1331191177_low.pdf", /*c*/0, "")
[Begin document]
[1]
PDF_set_info2(p_0x7f2072be5248, "Creator", "AA TRAVEL GUIDES", /*c*/16)
PDF_set_info2(p_0x7f2072be5248, "Author", "Livy Detert", /*c*/11)
PDF_set_info2(p_0x7f2072be5248, "Title", "AA AD | Masibambane Guest House  | 2012 Accommodation Directory - Photo Listing Advert (60x90mm) | 08/03/2012", /*c*/109)

PDF_begin_page_ext(p_0x7f2072be5248, 170.068027, 263.605442, "")
[Begin page #1]
PDF_set_parameter(p_0x7f2072be5248, "FontOutline", "HelveticaCondensedBold=/var/www/admin.aatravel.co.za/web/juno/stuff/ad_templates/fonts/helvetica-condensed-bold.ttf")
[New category:resource "FontOutline:HelveticaCondensedBold = /var/www/admin.aatravel.co.za/web/juno/stuff/ad_templates/fonts/helvetica-condensed-bold.ttf"]
PDF_load_font(p_0x7f2072be5248, "HelveticaCondensedBold", /*c*/0, "unicode", "embedding")
[1]
PDF_setfont(p_0x7f2072be5248, 1, 24.000000)
PDF_set_parameter(p_0x7f2072be5248, "FontOutline", "HelveticaCondensed=/var/www/admin.aatravel.co.za/web/juno/stuff/ad_templates/fonts/helvetica-condensed.ttf")
[New category:resource "FontOutline:HelveticaCondensed = /var/www/admin.aatravel.co.za/web/juno/stuff/ad_templates/fonts/helvetica-condensed.ttf"]
PDF_load_font(p_0x7f2072be5248, "HelveticaCondensed", /*c*/0, "unicode", "embedding")
[2]
PDF_setfont(p_0x7f2072be5248, 2, 24.000000)
PDF_setcolor(p_0x7f2072be5248, "fill", "cmyk", 0.500000, 0.000000, 0.200000, 0.000000)
PDF_setcolor(p_0x7f2072be5248, "fill", "cmyk", 0.000000, 0.000000, 0.000000, 0.600000)
PDF_rect(p_0x7f2072be5248, 126.068027, 254.805442, 44.000000, 7.000000)
PDF_fill(p_0x7f2072be5248)
PDF_fit_textline(p_0x7f2072be5248, "Dbl: B pp B&B", /*c*/13, 170.068027, 258.503401, "position={right center} kerning=true charspacing=-0.3 wordspacing=-0.2 fontsize=6 fillcolor={cmyk 0 0 0 0}")
PDF_setcolor(p_0x7f2072be5248, "fill", "cmyk", 0.000000, 0.000000, 0.000000, 0.200000)
PDF_rect(p_0x7f2072be5248, 126.068027, 246.605442, 44.000000, 7.000000)
PDF_fill(p_0x7f2072be5248)
PDF_fit_textline(p_0x7f2072be5248, "Sgl: C B&B", /*c*/10, 170.068027, 250.503401, "position={right center} kerning=true charspacing=-0.3 wordspacing=-0.2 fontsize=6 fillcolor={cmyk 0 0 0 1}")
PDF_fit_textline(p_0x7f2072be5248, "MASIBAMBANE GUEST HOUSE ", /*c*/24, 0.000000, 258.503401, "position={left center} kerning=true charspacing=-0.4 wordspacing=-0.2 fontsize=8 fillcolor={cmyk 0 0 0 1} fontname=HelveticaCondensedBold encoding=unicode")
PDF_load_image(p_0x7f2072be5248, "auto", "/var/www/admin.aatravel.co.za/web/hires_temp/131643_1299257109_H1400_low.jpg", /*c*/0, "")
[1]
PDF_fit_image(p_0x7f2072be5248, 1, 0.000000, 137.393424, "boxsize={174.603174603 107.9138322} position={center} fitmethod=entire")
PDF_close_image(p_0x7f2072be5248, 1)
PDF_load_image(p_0x7f2072be5248, "auto", "/var/www/admin.aatravel.co.za/web/juno/stuff/ad_templates/img/icons_rgb/BIRDWATCH.jpg", /*c*/0, "")
[1]
PDF_fit_image(p_0x7f2072be5248, 1, 0.000000, 8.503401, "boxsize={7.65306122449 7.65306122449} fitmethod=entire position=center matchbox={name=img2 margin=-2}")
PDF_close_image(p_0x7f2072be5248, 1)
PDF_load_image(p_0x7f2072be5248, "auto", "/var/www/admin.aatravel.co.za/web/juno/stuff/ad_templates/img/icons_rgb/BRAAI.jpg", /*c*/0, "")
[1]
PDF_fit_image(p_0x7f2072be5248, 1, 8.503401, 8.503401, "boxsize={7.65306122449 7.65306122449} fitmethod=entire position=center matchbox={name=img2 margin=-2}")
PDF_close_image(p_0x7f2072be5248, 1)
PDF_load_image(p_0x7f2072be5248, "auto", "/var/www/admin.aatravel.co.za/web/juno/stuff/ad_templates/img/icons_rgb/CONFERENCE.jpg", /*c*/0, "")
[1]
PDF_fit_image(p_0x7f2072be5248, 1, 17.006803, 8.503401, "boxsize={7.65306122449 7.65306122449} fitmethod=entire position=center matchbox={name=img2 margin=-2}")
PDF_close_image(p_0x7f2072be5248, 1)
PDF_load_image(p_0x7f2072be5248, "auto", "/var/www/admin.aatravel.co.za/web/juno/stuff/ad_templates/img/icons_rgb/COVERPARK.jpg", /*c*/0, "")
[1]
PDF_fit_image(p_0x7f2072be5248, 1, 25.510204, 8.503401, "boxsize={7.65306122449 7.65306122449} fitmethod=entire position=center matchbox={name=img2 margin=-2}")
PDF_close_image(p_0x7f2072be5248, 1)
PDF_load_image(p_0x7f2072be5248, "auto", "/var/www/admin.aatravel.co.za/web/juno/stuff/ad_templates/img/icons_rgb/EMAILINTER.jpg", /*c*/0, "")
[1]
PDF_fit_image(p_0x7f2072be5248, 1, 34.013605, 8.503401, "boxsize={7.65306122449 7.65306122449} fitmethod=entire position=center matchbox={name=img2 margin=-2}")
PDF_close_image(p_0x7f2072be5248, 1)
PDF_load_image(p_0x7f2072be5248, "auto", "/var/www/admin.aatravel.co.za/web/juno/stuff/ad_templates/img/icons_rgb/OPENPARK.jpg", /*c*/0, "")
[1]
PDF_fit_image(p_0x7f2072be5248, 1, 42.517007, 8.503401, "boxsize={7.65306122449 7.65306122449} fitmethod=entire position=center matchbox={name=img2 margin=-2}")
PDF_close_image(p_0x7f2072be5248, 1)
PDF_load_image(p_0x7f2072be5248, "auto", "/var/www/admin.aatravel.co.za/web/juno/stuff/ad_templates/img/icons_rgb/SWIMPOOL.jpg", /*c*/0, "")
[1]
PDF_fit_image(p_0x7f2072be5248, 1, 51.020408, 8.503401, "boxsize={7.65306122449 7.65306122449} fitmethod=entire position=center matchbox={name=img2 margin=-2}")
PDF_close_image(p_0x7f2072be5248, 1)
PDF_load_image(p_0x7f2072be5248, "auto", "/var/www/admin.aatravel.co.za/web/juno/stuff/ad_templates/img/icons_rgb/WIFI.jpg", /*c*/0, "")
[1]
PDF_fit_image(p_0x7f2072be5248, 1, 59.523810, 8.503401, "boxsize={7.65306122449 7.65306122449} fitmethod=entire position=center matchbox={name=img2 margin=-2}")
PDF_close_image(p_0x7f2072be5248, 1)
PDF_load_image(p_0x7f2072be5248, "auto", "/var/www/admin.aatravel.co.za/web/juno/stuff/ad_templates/img/icons_rgb/BABYSIT.jpg", /*c*/0, "")
[1]
PDF_fit_image(p_0x7f2072be5248, 1, 68.027211, 8.503401, "boxsize={7.65306122449 7.65306122449} fitmethod=entire position=center matchbox={name=img2 margin=-2}")
PDF_close_image(p_0x7f2072be5248, 1)
PDF_load_image(p_0x7f2072be5248, "auto", "/var/www/admin.aatravel.co.za/web/juno/stuff/ad_templates/img/icons_rgb/CREDCARDS.jpg", /*c*/0, "")
[1]
PDF_fit_image(p_0x7f2072be5248, 1, 76.530612, 8.503401, "boxsize={7.65306122449 7.65306122449} fitmethod=entire position=center matchbox={name=img2 margin=-2}")
PDF_close_image(p_0x7f2072be5248, 1)
PDF_load_image(p_0x7f2072be5248, "auto", "/var/www/admin.aatravel.co.za/web/juno/stuff/ad_templates/img/icons_rgb/AMEX.jpg", /*c*/0, "")
[1]
PDF_fit_image(p_0x7f2072be5248, 1, 85.034014, 8.503401, "boxsize={7.65306122449 7.65306122449} fitmethod=entire position=center matchbox={name=img2 margin=-2}")
PDF_close_image(p_0x7f2072be5248, 1)
PDF_load_image(p_0x7f2072be5248, "auto", "/var/www/admin.aatravel.co.za/web/juno/stuff/ad_templates/img/icons_rgb/HALAL.jpg", /*c*/0, "")
[1]
PDF_fit_image(p_0x7f2072be5248, 1, 93.537415, 8.503401, "boxsize={7.65306122449 7.65306122449} fitmethod=entire position=center matchbox={name=img2 margin=-2}")
PDF_close_image(p_0x7f2072be5248, 1)
PDF_load_image(p_0x7f2072be5248, "auto", "/var/www/admin.aatravel.co.za/web/juno/stuff/ad_templates/img/icons_rgb/IRONSERV.jpg", /*c*/0, "")
[1]
PDF_fit_image(p_0x7f2072be5248, 1, 102.040816, 8.503401, "boxsize={7.65306122449 7.65306122449} fitmethod=entire position=center matchbox={name=img2 margin=-2}")
PDF_close_image(p_0x7f2072be5248, 1)
PDF_load_image(p_0x7f2072be5248, "auto", "/var/www/admin.aatravel.co.za/web/juno/stuff/ad_templates/img/icons_rgb/LAUNDSERV.jpg", /*c*/0, "")
[1]
PDF_fit_image(p_0x7f2072be5248, 1, 110.544218, 8.503401, "boxsize={7.65306122449 7.65306122449} fitmethod=entire position=center matchbox={name=img2 margin=-2}")
PDF_close_image(p_0x7f2072be5248, 1)
PDF_load_image(p_0x7f2072be5248, "auto", "/var/www/admin.aatravel.co.za/web/juno/stuff/ad_templates/img/icons_rgb/CEILINGFAN.jpg", /*c*/0, "")
[1]
PDF_fit_image(p_0x7f2072be5248, 1, 119.047619, 8.503401, "boxsize={7.65306122449 7.65306122449} fitmethod=entire position=center matchbox={name=img2 margin=-2}")
PDF_close_image(p_0x7f2072be5248, 1)
PDF_load_image(p_0x7f2072be5248, "auto", "/var/www/admin.aatravel.co.za/web/juno/stuff/ad_templates/img/icons_rgb/COT.jpg", /*c*/0, "")
[1]
PDF_fit_image(p_0x7f2072be5248, 1, 127.551020, 8.503401, "boxsize={7.65306122449 7.65306122449} fitmethod=entire position=center matchbox={name=img2 margin=-2}")
PDF_close_image(p_0x7f2072be5248, 1)
PDF_load_image(p_0x7f2072be5248, "auto", "/var/www/admin.aatravel.co.za/web/juno/stuff/ad_templates/img/icons_rgb/HEATING.jpg", /*c*/0, "")
[1]
PDF_fit_image(p_0x7f2072be5248, 1, 136.054422, 8.503401, "boxsize={7.65306122449 7.65306122449} fitmethod=entire position=center matchbox={name=img2 margin=-2}")
PDF_close_image(p_0x7f2072be5248, 1)
PDF_load_image(p_0x7f2072be5248, "auto", "/var/www/admin.aatravel.co.za/web/juno/stuff/ad_templates/img/icons_rgb/TVMNET.jpg", /*c*/0, "")
[1]
PDF_fit_image(p_0x7f2072be5248, 1, 144.557823, 8.503401, "boxsize={7.65306122449 7.65306122449} fitmethod=entire position=center matchbox={name=img2 margin=-2}")
PDF_close_image(p_0x7f2072be5248, 1)
PDF_load_image(p_0x7f2072be5248, "auto", "/var/www/admin.aatravel.co.za/web/juno/stuff/ad_templates/img/icons_rgb/NONSMOKE.jpg", /*c*/0, "")
[1]
PDF_fit_image(p_0x7f2072be5248, 1, 153.061224, 8.503401, "boxsize={7.65306122449 7.65306122449} fitmethod=entire position=center matchbox={name=img2 margin=-2}")
PDF_close_image(p_0x7f2072be5248, 1)
PDF_load_image(p_0x7f2072be5248, "auto", "/var/www/admin.aatravel.co.za/web/juno/stuff/ad_templates/img/icons_rgb/TEACOFFEE.jpg", /*c*/0, "")
[1]
PDF_fit_image(p_0x7f2072be5248, 1, 161.564626, 8.503401, "boxsize={7.65306122449 7.65306122449} fitmethod=entire position=center matchbox={name=img2 margin=-2}")
PDF_close_image(p_0x7f2072be5248, 1)
PDF_load_image(p_0x7f2072be5248, "auto", "/var/www/admin.aatravel.co.za/web/juno/stuff/ad_templates/img/icons_rgb/TVINROOM.jpg", /*c*/0, "")
[1]
PDF_fit_image(p_0x7f2072be5248, 1, 0.000000, 0.000000, "boxsize={7.65306122449 7.65306122449} fitmethod=entire position=center matchbox={name=img2 margin=-2}")
PDF_close_image(p_0x7f2072be5248, 1)
PDF_load_image(p_0x7f2072be5248, "auto", "/var/www/admin.aatravel.co.za/web/juno/stuff/ad_templates/img/icons_rgb/TOILETRIES.jpg", /*c*/0, "")
[1]
PDF_fit_image(p_0x7f2072be5248, 1, 8.503401, 0.000000, "boxsize={7.65306122449 7.65306122449} fitmethod=entire position=center matchbox={name=img2 margin=-2}")
PDF_close_image(p_0x7f2072be5248, 1)
PDF_load_image(p_0x7f2072be5248, "auto", "/var/www/admin.aatravel.co.za/web/juno/stuff/ad_templates/img/icons_rgb/FEDHASA.jpg", /*c*/0, "")
[1]
PDF_fit_image(p_0x7f2072be5248, 1, 17.006803, 0.000000, "boxsize={7.65306122449 7.65306122449} fitmethod=entire position=center matchbox={name=img2 margin=-2}")
PDF_close_image(p_0x7f2072be5248, 1)
PDF_create_textflow(p_0x7f2072be5248, "<&icon1><&end> +27 (0)14 537-2046  <&icon2><&end> +27 (0)83 310 0583  <&icon3><&end> +27 (0)86 693 0362", /*c*/103, "macro {\012\011\011\011\011\011\011icon1 {matchbox={name=icon1 boxwidth=6 boxheight={4 0} offsettop=2}}\012\011\011\011\011\011\011icon2 {matchbox={name=icon2 boxwidth=6 boxheight={4 0} offsettop=2}}\012\011\011\011\011\011\011icon3 {matchbox={name=icon3 boxwidth=6 boxheight={4 0} offsettop=2}}\012\011\011\011\011\011\011end {matchbox={end}}\012\011\011\011\011\011\011}\012\011\011\011\011\011\011 kerning=true charspacing=-0.4 wordspacing=-0.2 fontsize=7 fillcolor={cmyk 0 0 0 1} fontname=HelveticaCondensedBold encoding=unicode")
[1]
PDF_fit_textflow(p_0x7f2072be5248, 1, 0.000000, 5.668934, 170.068027, 42.517007, "linespreadlimit=110%")
["_stop"]
PDF_load_image(p_0x7f2072be5248, "auto", "/var/www/admin.aatravel.co.za/web/juno/stuff/ad_templates/img/icons_cmyk/tel.jpg", /*c*/0, "")
[1]
PDF_info_matchbox(p_0x7f2072be5248, "icon1", /*c*/0, 1, "x1")
[0.000000]
PDF_info_matchbox(p_0x7f2072be5248, "icon1", /*c*/0, 1, "y1")
[35.517007]
PDF_info_matchbox(p_0x7f2072be5248, "icon1", /*c*/0, 1, "width")
[6.000000]
PDF_info_matchbox(p_0x7f2072be5248, "icon1", /*c*/0, 1, "height")
[6.000000]
PDF_fit_image(p_0x7f2072be5248, 1, 0.000000, 35.517007, "boxsize={6 6} fitmethod=entire position=center")
PDF_load_image(p_0x7f2072be5248, "auto", "/var/www/admin.aatravel.co.za/web/juno/stuff/ad_templates/img/icons_cmyk/cell.jpg", /*c*/0, "")
[2]
PDF_info_matchbox(p_0x7f2072be5248, "icon2", /*c*/0, 1, "x1")
[57.843000]
PDF_info_matchbox(p_0x7f2072be5248, "icon2", /*c*/0, 1, "y1")
[35.517007]
PDF_info_matchbox(p_0x7f2072be5248, "icon2", /*c*/0, 1, "width")
[6.000000]
PDF_info_matchbox(p_0x7f2072be5248, "icon2", /*c*/0, 1, "height")
[6.000000]
PDF_fit_image(p_0x7f2072be5248, 2, 57.843000, 35.517007, "boxsize={6 6} fitmethod=entire position=center")
PDF_load_image(p_0x7f2072be5248, "auto", "/var/www/admin.aatravel.co.za/web/juno/stuff/ad_templates/img/icons_cmyk/fax.jpg", /*c*/0, "")
[3]
PDF_info_matchbox(p_0x7f2072be5248, "icon3", /*c*/0, 1, "x1")
[114.905000]
PDF_info_matchbox(p_0x7f2072be5248, "icon3", /*c*/0, 1, "y1")
[35.517007]
PDF_info_matchbox(p_0x7f2072be5248, "icon3", /*c*/0, 1, "width")
[6.000000]
PDF_info_matchbox(p_0x7f2072be5248, "icon3", /*c*/0, 1, "height")
[6.000000]
PDF_fit_image(p_0x7f2072be5248, 3, 114.905000, 35.517007, "boxsize={6 6} fitmethod=entire position=center")
PDF_create_textflow(p_0x7f2072be5248, "<&icon4><&end> masibam@mweb.co.za  <&icon5><&end> www.masibambaneguesthouse.co.za", /*c*/81, "macro {\012\011\011\011\011\011\011icon4 {matchbox={name=icon4 boxwidth=6 boxheight={4 0} offsettop=2}}\012\011\011\011\011\011\011icon5 {matchbox={name=icon5 boxwidth=6 boxheight={4 0} offsettop=2}}\012\011\011\011\011\011\011end {matchbox={end}}\012\011\011\011\011\011\011}\012\011\011\011\011\011\011 kerning=true charspacing=-0.4 wordspacing=-0.2 fontsize=7 fillcolor={cmyk 0 0 0 1} fontname=HelveticaCondensedBold encoding=unicode")
[2]
PDF_fit_textflow(p_0x7f2072be5248, 2, 0.000000, 5.668934, 170.068027, 34.013605, "linespreadlimit=110%")
["_stop"]
PDF_load_image(p_0x7f2072be5248, "auto", "/var/www/admin.aatravel.co.za/web/juno/stuff/ad_templates/img/icons_cmyk/email.jpg", /*c*/0, "")
[4]
PDF_info_matchbox(p_0x7f2072be5248, "icon4", /*c*/0, 1, "x1")
[0.000000]
PDF_info_matchbox(p_0x7f2072be5248, "icon4", /*c*/0, 1, "y1")
[27.013605]
PDF_info_matchbox(p_0x7f2072be5248, "icon4", /*c*/0, 1, "width")
[6.000000]
PDF_info_matchbox(p_0x7f2072be5248, "icon4", /*c*/0, 1, "height")
[6.000000]
PDF_fit_image(p_0x7f2072be5248, 4, 0.000000, 27.013605, "boxsize={6 6} fitmethod=entire position=center")
PDF_load_image(p_0x7f2072be5248, "auto", "/var/www/admin.aatravel.co.za/web/juno/stuff/ad_templates/img/icons_cmyk/web.jpg", /*c*/0, "")
[5]
PDF_info_matchbox(p_0x7f2072be5248, "icon5", /*c*/0, 1, "x1")
[69.135000]
PDF_info_matchbox(p_0x7f2072be5248, "icon5", /*c*/0, 1, "y1")
[27.013605]
PDF_info_matchbox(p_0x7f2072be5248, "icon5", /*c*/0, 1, "width")
[6.000000]
PDF_info_matchbox(p_0x7f2072be5248, "icon5", /*c*/0, 1, "height")
[6.000000]
PDF_fit_image(p_0x7f2072be5248, 5, 69.135000, 27.013605, "boxsize={6 6} fitmethod=entire position=center")
PDF_create_textflow(p_0x7f2072be5248, "<&icon6><&end> Plot 45, Waterglen.", /*c*/34, "macro {\012\011\011\011\011\011\011icon6 {matchbox={name=icon6 boxwidth=6 boxheight={4 0} offsettop=2}}\012\011\011\011\011\011\011end {matchbox={end}}\012\011\011\011\011\011\011}\012\011\011\011\011\011\011 kerning=true charspacing=-0.4 wordspacing=-0.2 fontsize=7 fillcolor={cmyk 0 0 0 1} fontname=HelveticaCondensedBold encoding=unicode")
[3]
PDF_fit_textflow(p_0x7f2072be5248, 3, 0.000000, 5.668934, 170.068027, 25.510204, "linespreadlimit=110%")
["_stop"]
PDF_load_image(p_0x7f2072be5248, "auto", "/var/www/admin.aatravel.co.za/web/juno/stuff/ad_templates/img/icons_cmyk/physical.jpg", /*c*/0, "")
[6]
PDF_info_matchbox(p_0x7f2072be5248, "icon6", /*c*/0, 1, "x1")
[0.000000]
PDF_info_matchbox(p_0x7f2072be5248, "icon6", /*c*/0, 1, "y1")
[18.510204]
PDF_info_matchbox(p_0x7f2072be5248, "icon6", /*c*/0, 1, "width")
[6.000000]
PDF_info_matchbox(p_0x7f2072be5248, "icon6", /*c*/0, 1, "height")
[6.000000]
PDF_fit_image(p_0x7f2072be5248, 6, 0.000000, 18.510204, "boxsize={6 6} fitmethod=entire position=center")
PDF_load_image(p_0x7f2072be5248, "auto", "/var/www/admin.aatravel.co.za/web/juno/stuff/ad_templates/img/AA_rgb.png", /*c*/0, "")
[7]
PDF_fit_image(p_0x7f2072be5248, 7, 0.000000, 114.575964, "boxsize={14.5 21.6} fitmethod=entire  matchbox={name=img margin=-2 boxheight={descender ascender} createwrapbox}")
PDF_close_image(p_0x7f2072be5248, 7)
PDF_create_textflow(p_0x7f2072be5248, "Highly Recommended - Guest House: 10 Rooms. <adjustmethod=split alignment=justify kerning=true fontsize=8 charspacing=-0.1 wordspacing=-0.3 fillcolor={cmyk 0 0 0 1} fontname=HelveticaCondensed encoding=unicode><adjustmethod=split alignment=justify kerning=true fontsize=8 charspacing=-0.1 wordspacing=-0.3 fillcolor={cmyk 0 0 0 1} fontname=HelveticaCondensed encoding=unicode>Situated in beautiful tranquil gardens on the outskirts of Rustenburg (R24). 10 en suite rooms, hearty English breakfast and warm hospitality. Dinner by prior arrangement. Sunny lapa and pool. Wi-Fi hotspot and conference facilities. Private parties catered for. Your hosts: Gwen and Tony Gibb.", /*c*/670, " adjustmethod=split alignment=justify kerning=true fontsize=8 fillcolor={cmyk 0 0 0 1} fontname=HelveticaCondensedBold encoding=unicode ")
[4]
PDF_fit_textflow(p_0x7f2072be5248, 4, 0.000000, 138.385488, 170.068027, 46.768707, "  wrap={usematchboxes={{img}}} verticalalign=justify")
["_stop"]
PDF_end_page_ext(p_0x7f2072be5248, "")
[End page #1]

PDF_end_document(p_0x7f2072be5248, "")
[Full product name: "PDFlib"]
[Document ID: <655C0AFEBD160C52D5AF70057D961EED> <655C0AFEBD160C52D5AF70057D961EED>]
[End document]

PDF_delete(p_0x7f2072bb6fe8)
[2012-03-08 08:19:39]
[End document]

PDF_delete(p_0x7f2072be5248)
[2012-03-08 08:19:39]
[------------------------------------------------------------------------------]
[ PDFlib 8.0.3  PHP5 binding on Linux-x86_64 (le) 2012-03-08 08:32:11          ]
[ Classes: api=1 warning=1                                                     ]
[ Enter in vi to compile it:                                                   ]
[ %s/)$/);/g   and   %s/"(NULL)"/NULL/g   and   %s/\[[^]]*\]//g                ]
[ Program should run on a little-endian platform                               ]
[------------------------------------------------------------------------------]
PDF_set_parameter(p_0x7f8c68a62850, "licensefile", "/etc/php5/apache2/pdflib_license.txt")
PDF_set_parameter(p_0x7f8c68a62850, "textformat", "bytes")
PDF_set_parameter(p_0x7f8c68a62850, "SearchPath", "/var/www/admin.aatravel.co.za/web/juno/utility/color_profiles")
[New category:resource "SearchPath:/usr/local/PDFlib"]
[New category:resource "SearchPath:/usr/local/PDFlib/PDFlib"]
[New category:resource "SearchPath:/usr/local/PDFlib/PDFlib/8.0"]
[New category:resource "SearchPath:/usr/local/PDFlib/PDFlib/8.0/resource/cmap"]
[New category:resource "SearchPath:/usr/local/PDFlib/PDFlib/8.0/resource/fonts"]
[New category:resource "SearchPath:/usr/local/PDFlib/PDFlib/8.0/resource/icc"]
[New category:resource "SearchPath:/var/www/admin.aatravel.co.za/web/juno/utility/color_profiles"]

PDF_begin_document(p_0x7f8c68a62850, "/var/www/admin.aatravel.co.za/web/juno/stuff/establishments/131643/ads/715/pdf/1331191931.pdf", /*c*/0, "")
[Begin document]
[1]
PDF_set_info2(p_0x7f8c68a62850, "Creator", "AA TRAVEL GUIDES", /*c*/16)
PDF_set_info2(p_0x7f8c68a62850, "Author", "Livy Detert", /*c*/11)
PDF_set_info2(p_0x7f8c68a62850, "Title", "AA AD | Masibambane Guest House  | 2012 Accommodation Directory - Photo Listing Advert (60x90mm) | 08/03/2012", /*c*/109)

PDF_begin_page_ext(p_0x7f8c68a62850, 170.068027, 263.605442, "")
[Begin page #1]
PDF_set_parameter(p_0x7f8c68a62850, "FontOutline", "HelveticaCondensedBold=/var/www/admin.aatravel.co.za/web/juno/stuff/ad_templates/fonts/helvetica-condensed-bold.ttf")
[New category:resource "FontOutline:HelveticaCondensedBold = /var/www/admin.aatravel.co.za/web/juno/stuff/ad_templates/fonts/helvetica-condensed-bold.ttf"]
PDF_load_font(p_0x7f8c68a62850, "HelveticaCondensedBold", /*c*/0, "unicode", "embedding")
[1]
PDF_setfont(p_0x7f8c68a62850, 1, 24.000000)
PDF_set_parameter(p_0x7f8c68a62850, "FontOutline", "HelveticaCondensed=/var/www/admin.aatravel.co.za/web/juno/stuff/ad_templates/fonts/helvetica-condensed.ttf")
[New category:resource "FontOutline:HelveticaCondensed = /var/www/admin.aatravel.co.za/web/juno/stuff/ad_templates/fonts/helvetica-condensed.ttf"]
PDF_load_font(p_0x7f8c68a62850, "HelveticaCondensed", /*c*/0, "unicode", "embedding")
[2]
PDF_setfont(p_0x7f8c68a62850, 2, 24.000000)
PDF_setcolor(p_0x7f8c68a62850, "fill", "cmyk", 0.500000, 0.000000, 0.200000, 0.000000)
PDF_setcolor(p_0x7f8c68a62850, "fill", "cmyk", 0.000000, 0.000000, 0.000000, 0.600000)
PDF_rect(p_0x7f8c68a62850, 126.068027, 254.805442, 44.000000, 7.000000)
PDF_fill(p_0x7f8c68a62850)
PDF_fit_textline(p_0x7f8c68a62850, "Dbl: B pp B&B", /*c*/13, 170.068027, 258.503401, "position={right center} kerning=true charspacing=-0.3 wordspacing=-0.2 fontsize=6 fillcolor={cmyk 0 0 0 0}")
PDF_setcolor(p_0x7f8c68a62850, "fill", "cmyk", 0.000000, 0.000000, 0.000000, 0.200000)
PDF_rect(p_0x7f8c68a62850, 126.068027, 246.605442, 44.000000, 7.000000)
PDF_fill(p_0x7f8c68a62850)
PDF_fit_textline(p_0x7f8c68a62850, "Sgl: C B&B", /*c*/10, 170.068027, 250.503401, "position={right center} kerning=true charspacing=-0.3 wordspacing=-0.2 fontsize=6 fillcolor={cmyk 0 0 0 1}")
PDF_fit_textline(p_0x7f8c68a62850, "MASIBAMBANE GUEST HOUSE ", /*c*/24, 0.000000, 258.503401, "position={left center} kerning=true charspacing=-0.4 wordspacing=-0.2 fontsize=8 fillcolor={cmyk 0 0 0 1} fontname=HelveticaCondensedBold encoding=unicode")
PDF_load_iccprofile(p_0x7f8c68a62850, "USWebCoatedSWOP", /*c*/0, "usage=iccbased")
[2]
PDF_load_image(p_0x7f8c68a62850, "auto", "/var/www/admin.aatravel.co.za/web/hires_temp/131643_1299257109_H1400.jpg", /*c*/0, "iccprofile=2 honoriccprofile=false")
[1]
PDF_fit_image(p_0x7f8c68a62850, 1, 0.000000, 137.393424, "boxsize={174.603174603 107.9138322} position={center} fitmethod=entire")
PDF_close_image(p_0x7f8c68a62850, 1)
PDF_load_image(p_0x7f8c68a62850, "auto", "/var/www/admin.aatravel.co.za/web/juno/stuff/ad_templates/img/icons_cmyk/BIRDWATCH.jpg", /*c*/0, "")
[1]
PDF_fit_image(p_0x7f8c68a62850, 1, 0.000000, 8.503401, "boxsize={7.65306122449 7.65306122449} fitmethod=entire position=center matchbox={name=img2 margin=-2}")
PDF_close_image(p_0x7f8c68a62850, 1)
PDF_load_image(p_0x7f8c68a62850, "auto", "/var/www/admin.aatravel.co.za/web/juno/stuff/ad_templates/img/icons_cmyk/BRAAI.jpg", /*c*/0, "")
[1]
PDF_fit_image(p_0x7f8c68a62850, 1, 8.503401, 8.503401, "boxsize={7.65306122449 7.65306122449} fitmethod=entire position=center matchbox={name=img2 margin=-2}")
PDF_close_image(p_0x7f8c68a62850, 1)
PDF_load_image(p_0x7f8c68a62850, "auto", "/var/www/admin.aatravel.co.za/web/juno/stuff/ad_templates/img/icons_cmyk/CONFERENCE.jpg", /*c*/0, "")
[1]
PDF_fit_image(p_0x7f8c68a62850, 1, 17.006803, 8.503401, "boxsize={7.65306122449 7.65306122449} fitmethod=entire position=center matchbox={name=img2 margin=-2}")
PDF_close_image(p_0x7f8c68a62850, 1)
PDF_load_image(p_0x7f8c68a62850, "auto", "/var/www/admin.aatravel.co.za/web/juno/stuff/ad_templates/img/icons_cmyk/COVERPARK.jpg", /*c*/0, "")
[1]
PDF_fit_image(p_0x7f8c68a62850, 1, 25.510204, 8.503401, "boxsize={7.65306122449 7.65306122449} fitmethod=entire position=center matchbox={name=img2 margin=-2}")
PDF_close_image(p_0x7f8c68a62850, 1)
PDF_load_image(p_0x7f8c68a62850, "auto", "/var/www/admin.aatravel.co.za/web/juno/stuff/ad_templates/img/icons_cmyk/EMAILINTER.jpg", /*c*/0, "")
[1]
PDF_fit_image(p_0x7f8c68a62850, 1, 34.013605, 8.503401, "boxsize={7.65306122449 7.65306122449} fitmethod=entire position=center matchbox={name=img2 margin=-2}")
PDF_close_image(p_0x7f8c68a62850, 1)
PDF_load_image(p_0x7f8c68a62850, "auto", "/var/www/admin.aatravel.co.za/web/juno/stuff/ad_templates/img/icons_cmyk/OPENPARK.jpg", /*c*/0, "")
[1]
PDF_fit_image(p_0x7f8c68a62850, 1, 42.517007, 8.503401, "boxsize={7.65306122449 7.65306122449} fitmethod=entire position=center matchbox={name=img2 margin=-2}")
PDF_close_image(p_0x7f8c68a62850, 1)
PDF_load_image(p_0x7f8c68a62850, "auto", "/var/www/admin.aatravel.co.za/web/juno/stuff/ad_templates/img/icons_cmyk/SWIMPOOL.jpg", /*c*/0, "")
[1]
PDF_fit_image(p_0x7f8c68a62850, 1, 51.020408, 8.503401, "boxsize={7.65306122449 7.65306122449} fitmethod=entire position=center matchbox={name=img2 margin=-2}")
PDF_close_image(p_0x7f8c68a62850, 1)
PDF_load_image(p_0x7f8c68a62850, "auto", "/var/www/admin.aatravel.co.za/web/juno/stuff/ad_templates/img/icons_cmyk/WIFI.jpg", /*c*/0, "")
[1]
PDF_fit_image(p_0x7f8c68a62850, 1, 59.523810, 8.503401, "boxsize={7.65306122449 7.65306122449} fitmethod=entire position=center matchbox={name=img2 margin=-2}")
PDF_close_image(p_0x7f8c68a62850, 1)
PDF_load_image(p_0x7f8c68a62850, "auto", "/var/www/admin.aatravel.co.za/web/juno/stuff/ad_templates/img/icons_cmyk/BABYSIT.jpg", /*c*/0, "")
[1]
PDF_fit_image(p_0x7f8c68a62850, 1, 68.027211, 8.503401, "boxsize={7.65306122449 7.65306122449} fitmethod=entire position=center matchbox={name=img2 margin=-2}")
PDF_close_image(p_0x7f8c68a62850, 1)
PDF_load_image(p_0x7f8c68a62850, "auto", "/var/www/admin.aatravel.co.za/web/juno/stuff/ad_templates/img/icons_cmyk/CREDCARDS.jpg", /*c*/0, "")
[1]
PDF_fit_image(p_0x7f8c68a62850, 1, 76.530612, 8.503401, "boxsize={7.65306122449 7.65306122449} fitmethod=entire position=center matchbox={name=img2 margin=-2}")
PDF_close_image(p_0x7f8c68a62850, 1)
PDF_load_image(p_0x7f8c68a62850, "auto", "/var/www/admin.aatravel.co.za/web/juno/stuff/ad_templates/img/icons_cmyk/AMEX.jpg", /*c*/0, "")
[1]
PDF_fit_image(p_0x7f8c68a62850, 1, 85.034014, 8.503401, "boxsize={7.65306122449 7.65306122449} fitmethod=entire position=center matchbox={name=img2 margin=-2}")
PDF_close_image(p_0x7f8c68a62850, 1)
PDF_load_image(p_0x7f8c68a62850, "auto", "/var/www/admin.aatravel.co.za/web/juno/stuff/ad_templates/img/icons_cmyk/HALAL.jpg", /*c*/0, "")
[1]
PDF_fit_image(p_0x7f8c68a62850, 1, 93.537415, 8.503401, "boxsize={7.65306122449 7.65306122449} fitmethod=entire position=center matchbox={name=img2 margin=-2}")
PDF_close_image(p_0x7f8c68a62850, 1)
PDF_load_image(p_0x7f8c68a62850, "auto", "/var/www/admin.aatravel.co.za/web/juno/stuff/ad_templates/img/icons_cmyk/IRONSERV.jpg", /*c*/0, "")
[1]
PDF_fit_image(p_0x7f8c68a62850, 1, 102.040816, 8.503401, "boxsize={7.65306122449 7.65306122449} fitmethod=entire position=center matchbox={name=img2 margin=-2}")
PDF_close_image(p_0x7f8c68a62850, 1)
PDF_load_image(p_0x7f8c68a62850, "auto", "/var/www/admin.aatravel.co.za/web/juno/stuff/ad_templates/img/icons_cmyk/LAUNDSERV.jpg", /*c*/0, "")
[1]
PDF_fit_image(p_0x7f8c68a62850, 1, 110.544218, 8.503401, "boxsize={7.65306122449 7.65306122449} fitmethod=entire position=center matchbox={name=img2 margin=-2}")
PDF_close_image(p_0x7f8c68a62850, 1)
PDF_load_image(p_0x7f8c68a62850, "auto", "/var/www/admin.aatravel.co.za/web/juno/stuff/ad_templates/img/icons_cmyk/CEILINGFAN.jpg", /*c*/0, "")
[1]
PDF_fit_image(p_0x7f8c68a62850, 1, 119.047619, 8.503401, "boxsize={7.65306122449 7.65306122449} fitmethod=entire position=center matchbox={name=img2 margin=-2}")
PDF_close_image(p_0x7f8c68a62850, 1)
PDF_load_image(p_0x7f8c68a62850, "auto", "/var/www/admin.aatravel.co.za/web/juno/stuff/ad_templates/img/icons_cmyk/COT.jpg", /*c*/0, "")
[1]
PDF_fit_image(p_0x7f8c68a62850, 1, 127.551020, 8.503401, "boxsize={7.65306122449 7.65306122449} fitmethod=entire position=center matchbox={name=img2 margin=-2}")
PDF_close_image(p_0x7f8c68a62850, 1)
PDF_load_image(p_0x7f8c68a62850, "auto", "/var/www/admin.aatravel.co.za/web/juno/stuff/ad_templates/img/icons_cmyk/HEATING.jpg", /*c*/0, "")
[1]
PDF_fit_image(p_0x7f8c68a62850, 1, 136.054422, 8.503401, "boxsize={7.65306122449 7.65306122449} fitmethod=entire position=center matchbox={name=img2 margin=-2}")
PDF_close_image(p_0x7f8c68a62850, 1)
PDF_load_image(p_0x7f8c68a62850, "auto", "/var/www/admin.aatravel.co.za/web/juno/stuff/ad_templates/img/icons_cmyk/TVMNET.jpg", /*c*/0, "")
[1]
PDF_fit_image(p_0x7f8c68a62850, 1, 144.557823, 8.503401, "boxsize={7.65306122449 7.65306122449} fitmethod=entire position=center matchbox={name=img2 margin=-2}")
PDF_close_image(p_0x7f8c68a62850, 1)
PDF_load_image(p_0x7f8c68a62850, "auto", "/var/www/admin.aatravel.co.za/web/juno/stuff/ad_templates/img/icons_cmyk/NONSMOKE.jpg", /*c*/0, "")
[1]
PDF_fit_image(p_0x7f8c68a62850, 1, 153.061224, 8.503401, "boxsize={7.65306122449 7.65306122449} fitmethod=entire position=center matchbox={name=img2 margin=-2}")
PDF_close_image(p_0x7f8c68a62850, 1)
PDF_load_image(p_0x7f8c68a62850, "auto", "/var/www/admin.aatravel.co.za/web/juno/stuff/ad_templates/img/icons_cmyk/TEACOFFEE.jpg", /*c*/0, "")
[1]
PDF_fit_image(p_0x7f8c68a62850, 1, 161.564626, 8.503401, "boxsize={7.65306122449 7.65306122449} fitmethod=entire position=center matchbox={name=img2 margin=-2}")
PDF_close_image(p_0x7f8c68a62850, 1)
PDF_load_image(p_0x7f8c68a62850, "auto", "/var/www/admin.aatravel.co.za/web/juno/stuff/ad_templates/img/icons_cmyk/TVINROOM.jpg", /*c*/0, "")
[1]
PDF_fit_image(p_0x7f8c68a62850, 1, 0.000000, 0.000000, "boxsize={7.65306122449 7.65306122449} fitmethod=entire position=center matchbox={name=img2 margin=-2}")
PDF_close_image(p_0x7f8c68a62850, 1)
PDF_load_image(p_0x7f8c68a62850, "auto", "/var/www/admin.aatravel.co.za/web/juno/stuff/ad_templates/img/icons_cmyk/TOILETRIES.jpg", /*c*/0, "")
[1]
PDF_fit_image(p_0x7f8c68a62850, 1, 8.503401, 0.000000, "boxsize={7.65306122449 7.65306122449} fitmethod=entire position=center matchbox={name=img2 margin=-2}")
PDF_close_image(p_0x7f8c68a62850, 1)
PDF_load_image(p_0x7f8c68a62850, "auto", "/var/www/admin.aatravel.co.za/web/juno/stuff/ad_templates/img/icons_cmyk/FEDHASA.jpg", /*c*/0, "")
[1]
PDF_fit_image(p_0x7f8c68a62850, 1, 17.006803, 0.000000, "boxsize={7.65306122449 7.65306122449} fitmethod=entire position=center matchbox={name=img2 margin=-2}")
PDF_close_image(p_0x7f8c68a62850, 1)
PDF_create_textflow(p_0x7f8c68a62850, "<&icon1><&end> +27 (0)14 537-2046  <&icon2><&end> +27 (0)83 310 0583  <&icon3><&end> +27 (0)86 693 0362", /*c*/103, "macro {\012\011\011\011\011\011\011icon1 {matchbox={name=icon1 boxwidth=6 boxheight={4 0} offsettop=2}}\012\011\011\011\011\011\011icon2 {matchbox={name=icon2 boxwidth=6 boxheight={4 0} offsettop=2}}\012\011\011\011\011\011\011icon3 {matchbox={name=icon3 boxwidth=6 boxheight={4 0} offsettop=2}}\012\011\011\011\011\011\011end {matchbox={end}}\012\011\011\011\011\011\011}\012\011\011\011\011\011\011 kerning=true charspacing=-0.4 wordspacing=-0.2 fontsize=7 fillcolor={cmyk 0 0 0 1} fontname=HelveticaCondensedBold encoding=unicode")
[1]
PDF_fit_textflow(p_0x7f8c68a62850, 1, 0.000000, 5.668934, 170.068027, 42.517007, "linespreadlimit=110%")
["_stop"]
PDF_load_image(p_0x7f8c68a62850, "auto", "/var/www/admin.aatravel.co.za/web/juno/stuff/ad_templates/img/icons_cmyk/tel.jpg", /*c*/0, "")
[1]
PDF_info_matchbox(p_0x7f8c68a62850, "icon1", /*c*/0, 1, "x1")
[0.000000]
PDF_info_matchbox(p_0x7f8c68a62850, "icon1", /*c*/0, 1, "y1")
[35.517007]
PDF_info_matchbox(p_0x7f8c68a62850, "icon1", /*c*/0, 1, "width")
[6.000000]
PDF_info_matchbox(p_0x7f8c68a62850, "icon1", /*c*/0, 1, "height")
[6.000000]
PDF_fit_image(p_0x7f8c68a62850, 1, 0.000000, 35.517007, "boxsize={6 6} fitmethod=entire position=center")
PDF_load_image(p_0x7f8c68a62850, "auto", "/var/www/admin.aatravel.co.za/web/juno/stuff/ad_templates/img/icons_cmyk/cell.jpg", /*c*/0, "")
[2]
PDF_info_matchbox(p_0x7f8c68a62850, "icon2", /*c*/0, 1, "x1")
[57.843000]
PDF_info_matchbox(p_0x7f8c68a62850, "icon2", /*c*/0, 1, "y1")
[35.517007]
PDF_info_matchbox(p_0x7f8c68a62850, "icon2", /*c*/0, 1, "width")
[6.000000]
PDF_info_matchbox(p_0x7f8c68a62850, "icon2", /*c*/0, 1, "height")
[6.000000]
PDF_fit_image(p_0x7f8c68a62850, 2, 57.843000, 35.517007, "boxsize={6 6} fitmethod=entire position=center")
PDF_load_image(p_0x7f8c68a62850, "auto", "/var/www/admin.aatravel.co.za/web/juno/stuff/ad_templates/img/icons_cmyk/fax.jpg", /*c*/0, "")
[3]
PDF_info_matchbox(p_0x7f8c68a62850, "icon3", /*c*/0, 1, "x1")
[114.905000]
PDF_info_matchbox(p_0x7f8c68a62850, "icon3", /*c*/0, 1, "y1")
[35.517007]
PDF_info_matchbox(p_0x7f8c68a62850, "icon3", /*c*/0, 1, "width")
[6.000000]
PDF_info_matchbox(p_0x7f8c68a62850, "icon3", /*c*/0, 1, "height")
[6.000000]
PDF_fit_image(p_0x7f8c68a62850, 3, 114.905000, 35.517007, "boxsize={6 6} fitmethod=entire position=center")
PDF_create_textflow(p_0x7f8c68a62850, "<&icon4><&end> masibam@mweb.co.za  <&icon5><&end> www.masibambaneguesthouse.co.za", /*c*/81, "macro {\012\011\011\011\011\011\011icon4 {matchbox={name=icon4 boxwidth=6 boxheight={4 0} offsettop=2}}\012\011\011\011\011\011\011icon5 {matchbox={name=icon5 boxwidth=6 boxheight={4 0} offsettop=2}}\012\011\011\011\011\011\011end {matchbox={end}}\012\011\011\011\011\011\011}\012\011\011\011\011\011\011 kerning=true charspacing=-0.4 wordspacing=-0.2 fontsize=7 fillcolor={cmyk 0 0 0 1} fontname=HelveticaCondensedBold encoding=unicode")
[2]
PDF_fit_textflow(p_0x7f8c68a62850, 2, 0.000000, 5.668934, 170.068027, 34.013605, "linespreadlimit=110%")
["_stop"]
PDF_load_image(p_0x7f8c68a62850, "auto", "/var/www/admin.aatravel.co.za/web/juno/stuff/ad_templates/img/icons_cmyk/email.jpg", /*c*/0, "")
[4]
PDF_info_matchbox(p_0x7f8c68a62850, "icon4", /*c*/0, 1, "x1")
[0.000000]
PDF_info_matchbox(p_0x7f8c68a62850, "icon4", /*c*/0, 1, "y1")
[27.013605]
PDF_info_matchbox(p_0x7f8c68a62850, "icon4", /*c*/0, 1, "width")
[6.000000]
PDF_info_matchbox(p_0x7f8c68a62850, "icon4", /*c*/0, 1, "height")
[6.000000]
PDF_fit_image(p_0x7f8c68a62850, 4, 0.000000, 27.013605, "boxsize={6 6} fitmethod=entire position=center")
PDF_load_image(p_0x7f8c68a62850, "auto", "/var/www/admin.aatravel.co.za/web/juno/stuff/ad_templates/img/icons_cmyk/web.jpg", /*c*/0, "")
[5]
PDF_info_matchbox(p_0x7f8c68a62850, "icon5", /*c*/0, 1, "x1")
[69.135000]
PDF_info_matchbox(p_0x7f8c68a62850, "icon5", /*c*/0, 1, "y1")
[27.013605]
PDF_info_matchbox(p_0x7f8c68a62850, "icon5", /*c*/0, 1, "width")
[6.000000]
PDF_info_matchbox(p_0x7f8c68a62850, "icon5", /*c*/0, 1, "height")
[6.000000]
PDF_fit_image(p_0x7f8c68a62850, 5, 69.135000, 27.013605, "boxsize={6 6} fitmethod=entire position=center")
PDF_create_textflow(p_0x7f8c68a62850, "<&icon6><&end> Plot 45, Waterglen.", /*c*/34, "macro {\012\011\011\011\011\011\011icon6 {matchbox={name=icon6 boxwidth=6 boxheight={4 0} offsettop=2}}\012\011\011\011\011\011\011end {matchbox={end}}\012\011\011\011\011\011\011}\012\011\011\011\011\011\011 kerning=true charspacing=-0.4 wordspacing=-0.2 fontsize=7 fillcolor={cmyk 0 0 0 1} fontname=HelveticaCondensedBold encoding=unicode")
[3]
PDF_fit_textflow(p_0x7f8c68a62850, 3, 0.000000, 5.668934, 170.068027, 25.510204, "linespreadlimit=110%")
["_stop"]
PDF_load_image(p_0x7f8c68a62850, "auto", "/var/www/admin.aatravel.co.za/web/juno/stuff/ad_templates/img/icons_cmyk/physical.jpg", /*c*/0, "")
[6]
PDF_info_matchbox(p_0x7f8c68a62850, "icon6", /*c*/0, 1, "x1")
[0.000000]
PDF_info_matchbox(p_0x7f8c68a62850, "icon6", /*c*/0, 1, "y1")
[18.510204]
PDF_info_matchbox(p_0x7f8c68a62850, "icon6", /*c*/0, 1, "width")
[6.000000]
PDF_info_matchbox(p_0x7f8c68a62850, "icon6", /*c*/0, 1, "height")
[6.000000]
PDF_fit_image(p_0x7f8c68a62850, 6, 0.000000, 18.510204, "boxsize={6 6} fitmethod=entire position=center")
PDF_load_image(p_0x7f8c68a62850, "auto", "/var/www/admin.aatravel.co.za/web/juno/stuff/ad_templates/img/AA_cmyk.jpg", /*c*/0, "")
[7]
PDF_fit_image(p_0x7f8c68a62850, 7, 0.000000, 114.575964, "boxsize={14.5 21.6} fitmethod=entire  matchbox={name=img margin=-2 boxheight={descender ascender} createwrapbox}")
PDF_close_image(p_0x7f8c68a62850, 7)
PDF_create_textflow(p_0x7f8c68a62850, "Highly Recommended - Guest House: 10 Rooms. <adjustmethod=split alignment=justify kerning=true fontsize=8 charspacing=-0.1 wordspacing=-0.3 fillcolor={cmyk 0 0 0 1} fontname=HelveticaCondensed encoding=unicode>Situated in beautiful tranquil gardens on the outskirts of Rustenburg (R24). 10 en suite rooms, hearty English breakfast and warm hospitality. Dinner by prior arrangement. Sunny lapa and pool. Wi-Fi hotspot and conference facilities. Private parties catered for. Your hosts: Gwen and Tony Gibb.", /*c*/504, " adjustmethod=split alignment=justify kerning=true fontsize=8 fillcolor={cmyk 0 0 0 1} fontname=HelveticaCondensedBold encoding=unicode ")
[4]
PDF_fit_textflow(p_0x7f8c68a62850, 4, 0.000000, 138.385488, 170.068027, 46.768707, "  wrap={usematchboxes={{img}}} verticalalign=justify")
["_stop"]
PDF_end_page_ext(p_0x7f8c68a62850, "")
[End page #1]

PDF_end_document(p_0x7f8c68a62850, "")
[Full product name: "PDFlib"]
[Document ID: <981FAA1FA71B10CB243E176652FE0806> <981FAA1FA71B10CB243E176652FE0806>]
[------------------------------------------------------------------------------]
[ PDFlib 8.0.3  PHP5 binding on Linux-x86_64 (le) 2012-03-08 08:32:11          ]
[ Classes: api=1 warning=1                                                     ]
[ Enter in vi to compile it:                                                   ]
[ %s/)$/);/g   and   %s/"(NULL)"/NULL/g   and   %s/\[[^]]*\]//g                ]
[ Program should run on a little-endian platform                               ]
[------------------------------------------------------------------------------]
PDF_set_parameter(p_0x7f8c68b5b998, "licensefile", "/etc/php5/apache2/pdflib_license.txt")
PDF_set_parameter(p_0x7f8c68b5b998, "textformat", "bytes")
PDF_set_parameter(p_0x7f8c68b5b998, "SearchPath", "/var/www/admin.aatravel.co.za/web/juno/utility/color_profiles")
[New category:resource "SearchPath:/usr/local/PDFlib"]
[New category:resource "SearchPath:/usr/local/PDFlib/PDFlib"]
[New category:resource "SearchPath:/usr/local/PDFlib/PDFlib/8.0"]
[New category:resource "SearchPath:/usr/local/PDFlib/PDFlib/8.0/resource/cmap"]
[New category:resource "SearchPath:/usr/local/PDFlib/PDFlib/8.0/resource/fonts"]
[New category:resource "SearchPath:/usr/local/PDFlib/PDFlib/8.0/resource/icc"]
[New category:resource "SearchPath:/var/www/admin.aatravel.co.za/web/juno/utility/color_profiles"]

PDF_begin_document(p_0x7f8c68b5b998, "/var/www/admin.aatravel.co.za/web/juno/stuff/establishments/131643/ads/715/pdf/1331191931_low.pdf", /*c*/0, "")
[Begin document]
[1]
PDF_set_info2(p_0x7f8c68b5b998, "Creator", "AA TRAVEL GUIDES", /*c*/16)
PDF_set_info2(p_0x7f8c68b5b998, "Author", "Livy Detert", /*c*/11)
PDF_set_info2(p_0x7f8c68b5b998, "Title", "AA AD | Masibambane Guest House  | 2012 Accommodation Directory - Photo Listing Advert (60x90mm) | 08/03/2012", /*c*/109)

PDF_begin_page_ext(p_0x7f8c68b5b998, 170.068027, 263.605442, "")
[Begin page #1]
PDF_set_parameter(p_0x7f8c68b5b998, "FontOutline", "HelveticaCondensedBold=/var/www/admin.aatravel.co.za/web/juno/stuff/ad_templates/fonts/helvetica-condensed-bold.ttf")
[New category:resource "FontOutline:HelveticaCondensedBold = /var/www/admin.aatravel.co.za/web/juno/stuff/ad_templates/fonts/helvetica-condensed-bold.ttf"]
PDF_load_font(p_0x7f8c68b5b998, "HelveticaCondensedBold", /*c*/0, "unicode", "embedding")
[1]
PDF_setfont(p_0x7f8c68b5b998, 1, 24.000000)
PDF_set_parameter(p_0x7f8c68b5b998, "FontOutline", "HelveticaCondensed=/var/www/admin.aatravel.co.za/web/juno/stuff/ad_templates/fonts/helvetica-condensed.ttf")
[New category:resource "FontOutline:HelveticaCondensed = /var/www/admin.aatravel.co.za/web/juno/stuff/ad_templates/fonts/helvetica-condensed.ttf"]
PDF_load_font(p_0x7f8c68b5b998, "HelveticaCondensed", /*c*/0, "unicode", "embedding")
[2]
PDF_setfont(p_0x7f8c68b5b998, 2, 24.000000)
PDF_setcolor(p_0x7f8c68b5b998, "fill", "cmyk", 0.500000, 0.000000, 0.200000, 0.000000)
PDF_setcolor(p_0x7f8c68b5b998, "fill", "cmyk", 0.000000, 0.000000, 0.000000, 0.600000)
PDF_rect(p_0x7f8c68b5b998, 126.068027, 254.805442, 44.000000, 7.000000)
PDF_fill(p_0x7f8c68b5b998)
PDF_fit_textline(p_0x7f8c68b5b998, "Dbl: B pp B&B", /*c*/13, 170.068027, 258.503401, "position={right center} kerning=true charspacing=-0.3 wordspacing=-0.2 fontsize=6 fillcolor={cmyk 0 0 0 0}")
PDF_setcolor(p_0x7f8c68b5b998, "fill", "cmyk", 0.000000, 0.000000, 0.000000, 0.200000)
PDF_rect(p_0x7f8c68b5b998, 126.068027, 246.605442, 44.000000, 7.000000)
PDF_fill(p_0x7f8c68b5b998)
PDF_fit_textline(p_0x7f8c68b5b998, "Sgl: C B&B", /*c*/10, 170.068027, 250.503401, "position={right center} kerning=true charspacing=-0.3 wordspacing=-0.2 fontsize=6 fillcolor={cmyk 0 0 0 1}")
PDF_fit_textline(p_0x7f8c68b5b998, "MASIBAMBANE GUEST HOUSE ", /*c*/24, 0.000000, 258.503401, "position={left center} kerning=true charspacing=-0.4 wordspacing=-0.2 fontsize=8 fillcolor={cmyk 0 0 0 1} fontname=HelveticaCondensedBold encoding=unicode")
PDF_load_image(p_0x7f8c68b5b998, "auto", "/var/www/admin.aatravel.co.za/web/hires_temp/131643_1299257109_H1400_low.jpg", /*c*/0, "")
[1]
PDF_fit_image(p_0x7f8c68b5b998, 1, 0.000000, 137.393424, "boxsize={174.603174603 107.9138322} position={center} fitmethod=entire")
PDF_close_image(p_0x7f8c68b5b998, 1)
PDF_load_image(p_0x7f8c68b5b998, "auto", "/var/www/admin.aatravel.co.za/web/juno/stuff/ad_templates/img/icons_rgb/BIRDWATCH.jpg", /*c*/0, "")
[1]
PDF_fit_image(p_0x7f8c68b5b998, 1, 0.000000, 8.503401, "boxsize={7.65306122449 7.65306122449} fitmethod=entire position=center matchbox={name=img2 margin=-2}")
PDF_close_image(p_0x7f8c68b5b998, 1)
PDF_load_image(p_0x7f8c68b5b998, "auto", "/var/www/admin.aatravel.co.za/web/juno/stuff/ad_templates/img/icons_rgb/BRAAI.jpg", /*c*/0, "")
[1]
PDF_fit_image(p_0x7f8c68b5b998, 1, 8.503401, 8.503401, "boxsize={7.65306122449 7.65306122449} fitmethod=entire position=center matchbox={name=img2 margin=-2}")
PDF_close_image(p_0x7f8c68b5b998, 1)
PDF_load_image(p_0x7f8c68b5b998, "auto", "/var/www/admin.aatravel.co.za/web/juno/stuff/ad_templates/img/icons_rgb/CONFERENCE.jpg", /*c*/0, "")
[1]
PDF_fit_image(p_0x7f8c68b5b998, 1, 17.006803, 8.503401, "boxsize={7.65306122449 7.65306122449} fitmethod=entire position=center matchbox={name=img2 margin=-2}")
PDF_close_image(p_0x7f8c68b5b998, 1)
PDF_load_image(p_0x7f8c68b5b998, "auto", "/var/www/admin.aatravel.co.za/web/juno/stuff/ad_templates/img/icons_rgb/COVERPARK.jpg", /*c*/0, "")
[1]
PDF_fit_image(p_0x7f8c68b5b998, 1, 25.510204, 8.503401, "boxsize={7.65306122449 7.65306122449} fitmethod=entire position=center matchbox={name=img2 margin=-2}")
PDF_close_image(p_0x7f8c68b5b998, 1)
PDF_load_image(p_0x7f8c68b5b998, "auto", "/var/www/admin.aatravel.co.za/web/juno/stuff/ad_templates/img/icons_rgb/EMAILINTER.jpg", /*c*/0, "")
[1]
PDF_fit_image(p_0x7f8c68b5b998, 1, 34.013605, 8.503401, "boxsize={7.65306122449 7.65306122449} fitmethod=entire position=center matchbox={name=img2 margin=-2}")
PDF_close_image(p_0x7f8c68b5b998, 1)
PDF_load_image(p_0x7f8c68b5b998, "auto", "/var/www/admin.aatravel.co.za/web/juno/stuff/ad_templates/img/icons_rgb/OPENPARK.jpg", /*c*/0, "")
[1]
PDF_fit_image(p_0x7f8c68b5b998, 1, 42.517007, 8.503401, "boxsize={7.65306122449 7.65306122449} fitmethod=entire position=center matchbox={name=img2 margin=-2}")
PDF_close_image(p_0x7f8c68b5b998, 1)
PDF_load_image(p_0x7f8c68b5b998, "auto", "/var/www/admin.aatravel.co.za/web/juno/stuff/ad_templates/img/icons_rgb/SWIMPOOL.jpg", /*c*/0, "")
[1]
PDF_fit_image(p_0x7f8c68b5b998, 1, 51.020408, 8.503401, "boxsize={7.65306122449 7.65306122449} fitmethod=entire position=center matchbox={name=img2 margin=-2}")
PDF_close_image(p_0x7f8c68b5b998, 1)
PDF_load_image(p_0x7f8c68b5b998, "auto", "/var/www/admin.aatravel.co.za/web/juno/stuff/ad_templates/img/icons_rgb/WIFI.jpg", /*c*/0, "")
[1]
PDF_fit_image(p_0x7f8c68b5b998, 1, 59.523810, 8.503401, "boxsize={7.65306122449 7.65306122449} fitmethod=entire position=center matchbox={name=img2 margin=-2}")
PDF_close_image(p_0x7f8c68b5b998, 1)
PDF_load_image(p_0x7f8c68b5b998, "auto", "/var/www/admin.aatravel.co.za/web/juno/stuff/ad_templates/img/icons_rgb/BABYSIT.jpg", /*c*/0, "")
[1]
PDF_fit_image(p_0x7f8c68b5b998, 1, 68.027211, 8.503401, "boxsize={7.65306122449 7.65306122449} fitmethod=entire position=center matchbox={name=img2 margin=-2}")
PDF_close_image(p_0x7f8c68b5b998, 1)
PDF_load_image(p_0x7f8c68b5b998, "auto", "/var/www/admin.aatravel.co.za/web/juno/stuff/ad_templates/img/icons_rgb/CREDCARDS.jpg", /*c*/0, "")
[1]
PDF_fit_image(p_0x7f8c68b5b998, 1, 76.530612, 8.503401, "boxsize={7.65306122449 7.65306122449} fitmethod=entire position=center matchbox={name=img2 margin=-2}")
PDF_close_image(p_0x7f8c68b5b998, 1)
PDF_load_image(p_0x7f8c68b5b998, "auto", "/var/www/admin.aatravel.co.za/web/juno/stuff/ad_templates/img/icons_rgb/AMEX.jpg", /*c*/0, "")
[1]
PDF_fit_image(p_0x7f8c68b5b998, 1, 85.034014, 8.503401, "boxsize={7.65306122449 7.65306122449} fitmethod=entire position=center matchbox={name=img2 margin=-2}")
PDF_close_image(p_0x7f8c68b5b998, 1)
PDF_load_image(p_0x7f8c68b5b998, "auto", "/var/www/admin.aatravel.co.za/web/juno/stuff/ad_templates/img/icons_rgb/HALAL.jpg", /*c*/0, "")
[1]
PDF_fit_image(p_0x7f8c68b5b998, 1, 93.537415, 8.503401, "boxsize={7.65306122449 7.65306122449} fitmethod=entire position=center matchbox={name=img2 margin=-2}")
PDF_close_image(p_0x7f8c68b5b998, 1)
PDF_load_image(p_0x7f8c68b5b998, "auto", "/var/www/admin.aatravel.co.za/web/juno/stuff/ad_templates/img/icons_rgb/IRONSERV.jpg", /*c*/0, "")
[1]
PDF_fit_image(p_0x7f8c68b5b998, 1, 102.040816, 8.503401, "boxsize={7.65306122449 7.65306122449} fitmethod=entire position=center matchbox={name=img2 margin=-2}")
PDF_close_image(p_0x7f8c68b5b998, 1)
PDF_load_image(p_0x7f8c68b5b998, "auto", "/var/www/admin.aatravel.co.za/web/juno/stuff/ad_templates/img/icons_rgb/LAUNDSERV.jpg", /*c*/0, "")
[1]
PDF_fit_image(p_0x7f8c68b5b998, 1, 110.544218, 8.503401, "boxsize={7.65306122449 7.65306122449} fitmethod=entire position=center matchbox={name=img2 margin=-2}")
PDF_close_image(p_0x7f8c68b5b998, 1)
PDF_load_image(p_0x7f8c68b5b998, "auto", "/var/www/admin.aatravel.co.za/web/juno/stuff/ad_templates/img/icons_rgb/CEILINGFAN.jpg", /*c*/0, "")
[1]
PDF_fit_image(p_0x7f8c68b5b998, 1, 119.047619, 8.503401, "boxsize={7.65306122449 7.65306122449} fitmethod=entire position=center matchbox={name=img2 margin=-2}")
PDF_close_image(p_0x7f8c68b5b998, 1)
PDF_load_image(p_0x7f8c68b5b998, "auto", "/var/www/admin.aatravel.co.za/web/juno/stuff/ad_templates/img/icons_rgb/COT.jpg", /*c*/0, "")
[1]
PDF_fit_image(p_0x7f8c68b5b998, 1, 127.551020, 8.503401, "boxsize={7.65306122449 7.65306122449} fitmethod=entire position=center matchbox={name=img2 margin=-2}")
PDF_close_image(p_0x7f8c68b5b998, 1)
PDF_load_image(p_0x7f8c68b5b998, "auto", "/var/www/admin.aatravel.co.za/web/juno/stuff/ad_templates/img/icons_rgb/HEATING.jpg", /*c*/0, "")
[1]
PDF_fit_image(p_0x7f8c68b5b998, 1, 136.054422, 8.503401, "boxsize={7.65306122449 7.65306122449} fitmethod=entire position=center matchbox={name=img2 margin=-2}")
PDF_close_image(p_0x7f8c68b5b998, 1)
PDF_load_image(p_0x7f8c68b5b998, "auto", "/var/www/admin.aatravel.co.za/web/juno/stuff/ad_templates/img/icons_rgb/TVMNET.jpg", /*c*/0, "")
[1]
PDF_fit_image(p_0x7f8c68b5b998, 1, 144.557823, 8.503401, "boxsize={7.65306122449 7.65306122449} fitmethod=entire position=center matchbox={name=img2 margin=-2}")
PDF_close_image(p_0x7f8c68b5b998, 1)
PDF_load_image(p_0x7f8c68b5b998, "auto", "/var/www/admin.aatravel.co.za/web/juno/stuff/ad_templates/img/icons_rgb/NONSMOKE.jpg", /*c*/0, "")
[1]
PDF_fit_image(p_0x7f8c68b5b998, 1, 153.061224, 8.503401, "boxsize={7.65306122449 7.65306122449} fitmethod=entire position=center matchbox={name=img2 margin=-2}")
PDF_close_image(p_0x7f8c68b5b998, 1)
PDF_load_image(p_0x7f8c68b5b998, "auto", "/var/www/admin.aatravel.co.za/web/juno/stuff/ad_templates/img/icons_rgb/TEACOFFEE.jpg", /*c*/0, "")
[1]
PDF_fit_image(p_0x7f8c68b5b998, 1, 161.564626, 8.503401, "boxsize={7.65306122449 7.65306122449} fitmethod=entire position=center matchbox={name=img2 margin=-2}")
PDF_close_image(p_0x7f8c68b5b998, 1)
PDF_load_image(p_0x7f8c68b5b998, "auto", "/var/www/admin.aatravel.co.za/web/juno/stuff/ad_templates/img/icons_rgb/TVINROOM.jpg", /*c*/0, "")
[1]
PDF_fit_image(p_0x7f8c68b5b998, 1, 0.000000, 0.000000, "boxsize={7.65306122449 7.65306122449} fitmethod=entire position=center matchbox={name=img2 margin=-2}")
PDF_close_image(p_0x7f8c68b5b998, 1)
PDF_load_image(p_0x7f8c68b5b998, "auto", "/var/www/admin.aatravel.co.za/web/juno/stuff/ad_templates/img/icons_rgb/TOILETRIES.jpg", /*c*/0, "")
[1]
PDF_fit_image(p_0x7f8c68b5b998, 1, 8.503401, 0.000000, "boxsize={7.65306122449 7.65306122449} fitmethod=entire position=center matchbox={name=img2 margin=-2}")
PDF_close_image(p_0x7f8c68b5b998, 1)
PDF_load_image(p_0x7f8c68b5b998, "auto", "/var/www/admin.aatravel.co.za/web/juno/stuff/ad_templates/img/icons_rgb/FEDHASA.jpg", /*c*/0, "")
[1]
PDF_fit_image(p_0x7f8c68b5b998, 1, 17.006803, 0.000000, "boxsize={7.65306122449 7.65306122449} fitmethod=entire position=center matchbox={name=img2 margin=-2}")
PDF_close_image(p_0x7f8c68b5b998, 1)
PDF_create_textflow(p_0x7f8c68b5b998, "<&icon1><&end> +27 (0)14 537-2046  <&icon2><&end> +27 (0)83 310 0583  <&icon3><&end> +27 (0)86 693 0362", /*c*/103, "macro {\012\011\011\011\011\011\011icon1 {matchbox={name=icon1 boxwidth=6 boxheight={4 0} offsettop=2}}\012\011\011\011\011\011\011icon2 {matchbox={name=icon2 boxwidth=6 boxheight={4 0} offsettop=2}}\012\011\011\011\011\011\011icon3 {matchbox={name=icon3 boxwidth=6 boxheight={4 0} offsettop=2}}\012\011\011\011\011\011\011end {matchbox={end}}\012\011\011\011\011\011\011}\012\011\011\011\011\011\011 kerning=true charspacing=-0.4 wordspacing=-0.2 fontsize=7 fillcolor={cmyk 0 0 0 1} fontname=HelveticaCondensedBold encoding=unicode")
[1]
PDF_fit_textflow(p_0x7f8c68b5b998, 1, 0.000000, 5.668934, 170.068027, 42.517007, "linespreadlimit=110%")
["_stop"]
PDF_load_image(p_0x7f8c68b5b998, "auto", "/var/www/admin.aatravel.co.za/web/juno/stuff/ad_templates/img/icons_cmyk/tel.jpg", /*c*/0, "")
[1]
PDF_info_matchbox(p_0x7f8c68b5b998, "icon1", /*c*/0, 1, "x1")
[0.000000]
PDF_info_matchbox(p_0x7f8c68b5b998, "icon1", /*c*/0, 1, "y1")
[35.517007]
PDF_info_matchbox(p_0x7f8c68b5b998, "icon1", /*c*/0, 1, "width")
[6.000000]
PDF_info_matchbox(p_0x7f8c68b5b998, "icon1", /*c*/0, 1, "height")
[6.000000]
PDF_fit_image(p_0x7f8c68b5b998, 1, 0.000000, 35.517007, "boxsize={6 6} fitmethod=entire position=center")
PDF_load_image(p_0x7f8c68b5b998, "auto", "/var/www/admin.aatravel.co.za/web/juno/stuff/ad_templates/img/icons_cmyk/cell.jpg", /*c*/0, "")
[2]
PDF_info_matchbox(p_0x7f8c68b5b998, "icon2", /*c*/0, 1, "x1")
[57.843000]
PDF_info_matchbox(p_0x7f8c68b5b998, "icon2", /*c*/0, 1, "y1")
[35.517007]
PDF_info_matchbox(p_0x7f8c68b5b998, "icon2", /*c*/0, 1, "width")
[6.000000]
PDF_info_matchbox(p_0x7f8c68b5b998, "icon2", /*c*/0, 1, "height")
[6.000000]
PDF_fit_image(p_0x7f8c68b5b998, 2, 57.843000, 35.517007, "boxsize={6 6} fitmethod=entire position=center")
PDF_load_image(p_0x7f8c68b5b998, "auto", "/var/www/admin.aatravel.co.za/web/juno/stuff/ad_templates/img/icons_cmyk/fax.jpg", /*c*/0, "")
[3]
PDF_info_matchbox(p_0x7f8c68b5b998, "icon3", /*c*/0, 1, "x1")
[114.905000]
PDF_info_matchbox(p_0x7f8c68b5b998, "icon3", /*c*/0, 1, "y1")
[35.517007]
PDF_info_matchbox(p_0x7f8c68b5b998, "icon3", /*c*/0, 1, "width")
[6.000000]
PDF_info_matchbox(p_0x7f8c68b5b998, "icon3", /*c*/0, 1, "height")
[6.000000]
PDF_fit_image(p_0x7f8c68b5b998, 3, 114.905000, 35.517007, "boxsize={6 6} fitmethod=entire position=center")
PDF_create_textflow(p_0x7f8c68b5b998, "<&icon4><&end> masibam@mweb.co.za  <&icon5><&end> www.masibambaneguesthouse.co.za", /*c*/81, "macro {\012\011\011\011\011\011\011icon4 {matchbox={name=icon4 boxwidth=6 boxheight={4 0} offsettop=2}}\012\011\011\011\011\011\011icon5 {matchbox={name=icon5 boxwidth=6 boxheight={4 0} offsettop=2}}\012\011\011\011\011\011\011end {matchbox={end}}\012\011\011\011\011\011\011}\012\011\011\011\011\011\011 kerning=true charspacing=-0.4 wordspacing=-0.2 fontsize=7 fillcolor={cmyk 0 0 0 1} fontname=HelveticaCondensedBold encoding=unicode")
[2]
PDF_fit_textflow(p_0x7f8c68b5b998, 2, 0.000000, 5.668934, 170.068027, 34.013605, "linespreadlimit=110%")
["_stop"]
PDF_load_image(p_0x7f8c68b5b998, "auto", "/var/www/admin.aatravel.co.za/web/juno/stuff/ad_templates/img/icons_cmyk/email.jpg", /*c*/0, "")
[4]
PDF_info_matchbox(p_0x7f8c68b5b998, "icon4", /*c*/0, 1, "x1")
[0.000000]
PDF_info_matchbox(p_0x7f8c68b5b998, "icon4", /*c*/0, 1, "y1")
[27.013605]
PDF_info_matchbox(p_0x7f8c68b5b998, "icon4", /*c*/0, 1, "width")
[6.000000]
PDF_info_matchbox(p_0x7f8c68b5b998, "icon4", /*c*/0, 1, "height")
[6.000000]
PDF_fit_image(p_0x7f8c68b5b998, 4, 0.000000, 27.013605, "boxsize={6 6} fitmethod=entire position=center")
PDF_load_image(p_0x7f8c68b5b998, "auto", "/var/www/admin.aatravel.co.za/web/juno/stuff/ad_templates/img/icons_cmyk/web.jpg", /*c*/0, "")
[5]
PDF_info_matchbox(p_0x7f8c68b5b998, "icon5", /*c*/0, 1, "x1")
[69.135000]
PDF_info_matchbox(p_0x7f8c68b5b998, "icon5", /*c*/0, 1, "y1")
[27.013605]
PDF_info_matchbox(p_0x7f8c68b5b998, "icon5", /*c*/0, 1, "width")
[6.000000]
PDF_info_matchbox(p_0x7f8c68b5b998, "icon5", /*c*/0, 1, "height")
[6.000000]
PDF_fit_image(p_0x7f8c68b5b998, 5, 69.135000, 27.013605, "boxsize={6 6} fitmethod=entire position=center")
PDF_create_textflow(p_0x7f8c68b5b998, "<&icon6><&end> Plot 45, Waterglen.", /*c*/34, "macro {\012\011\011\011\011\011\011icon6 {matchbox={name=icon6 boxwidth=6 boxheight={4 0} offsettop=2}}\012\011\011\011\011\011\011end {matchbox={end}}\012\011\011\011\011\011\011}\012\011\011\011\011\011\011 kerning=true charspacing=-0.4 wordspacing=-0.2 fontsize=7 fillcolor={cmyk 0 0 0 1} fontname=HelveticaCondensedBold encoding=unicode")
[3]
PDF_fit_textflow(p_0x7f8c68b5b998, 3, 0.000000, 5.668934, 170.068027, 25.510204, "linespreadlimit=110%")
["_stop"]
PDF_load_image(p_0x7f8c68b5b998, "auto", "/var/www/admin.aatravel.co.za/web/juno/stuff/ad_templates/img/icons_cmyk/physical.jpg", /*c*/0, "")
[6]
PDF_info_matchbox(p_0x7f8c68b5b998, "icon6", /*c*/0, 1, "x1")
[0.000000]
PDF_info_matchbox(p_0x7f8c68b5b998, "icon6", /*c*/0, 1, "y1")
[18.510204]
PDF_info_matchbox(p_0x7f8c68b5b998, "icon6", /*c*/0, 1, "width")
[6.000000]
PDF_info_matchbox(p_0x7f8c68b5b998, "icon6", /*c*/0, 1, "height")
[6.000000]
PDF_fit_image(p_0x7f8c68b5b998, 6, 0.000000, 18.510204, "boxsize={6 6} fitmethod=entire position=center")
PDF_load_image(p_0x7f8c68b5b998, "auto", "/var/www/admin.aatravel.co.za/web/juno/stuff/ad_templates/img/AA_rgb.png", /*c*/0, "")
[7]
PDF_fit_image(p_0x7f8c68b5b998, 7, 0.000000, 114.575964, "boxsize={14.5 21.6} fitmethod=entire  matchbox={name=img margin=-2 boxheight={descender ascender} createwrapbox}")
PDF_close_image(p_0x7f8c68b5b998, 7)
PDF_create_textflow(p_0x7f8c68b5b998, "Highly Recommended - Guest House: 10 Rooms. <adjustmethod=split alignment=justify kerning=true fontsize=8 charspacing=-0.1 wordspacing=-0.3 fillcolor={cmyk 0 0 0 1} fontname=HelveticaCondensed encoding=unicode><adjustmethod=split alignment=justify kerning=true fontsize=8 charspacing=-0.1 wordspacing=-0.3 fillcolor={cmyk 0 0 0 1} fontname=HelveticaCondensed encoding=unicode>Situated in beautiful tranquil gardens on the outskirts of Rustenburg (R24). 10 en suite rooms, hearty English breakfast and warm hospitality. Dinner by prior arrangement. Sunny lapa and pool. Wi-Fi hotspot and conference facilities. Private parties catered for. Your hosts: Gwen and Tony Gibb.", /*c*/670, " adjustmethod=split alignment=justify kerning=true fontsize=8 fillcolor={cmyk 0 0 0 1} fontname=HelveticaCondensedBold encoding=unicode ")
[4]
PDF_fit_textflow(p_0x7f8c68b5b998, 4, 0.000000, 138.385488, 170.068027, 46.768707, "  wrap={usematchboxes={{img}}} verticalalign=justify")
["_stop"]
PDF_end_page_ext(p_0x7f8c68b5b998, "")
[End page #1]

PDF_end_document(p_0x7f8c68b5b998, "")
[Full product name: "PDFlib"]
[Document ID: <8BB2E743158A2B6AFF9EB0001B7F1916> <8BB2E743158A2B6AFF9EB0001B7F1916>]
[End document]

PDF_delete(p_0x7f8c68a62850)
[2012-03-08 08:32:12]
[End document]

PDF_delete(p_0x7f8c68b5b998)
[2012-03-08 08:32:12]
