DATE,NUMBER,COMPANY,ASSESSOR,REP,VAT,TOTAL,PAID,TYPE,REF,
2013/04/19,00006650,AA Travel Guides (Pty) Ltd - Nedbank Norwood,,,399.000000000000,3249,3249,EFT,HONEYWOOD
2013/04/19,00006649,AA Travel Guides (Pty) Ltd - Nedbank Norwood,,,122.806600000000,999.996600000000,1000,EFT,EMOYENI TOURS
2013/04/15,00006648,AA Travel Guides (Pty) Ltd - Nedbank Norwood,,,399.123200000000,3250.0032,3250,EFT,GLENVIEW GUEST HOUSE
2013/04/12,00006647,AA Travel Guides (Pty) Ltd - Nedbank Norwood,,,288.596000000000,2349.996,2350,EFT,AMANZI GUEST HOUSE
2013/04/08,00006645,AA Travel Guides (Pty) Ltd - Nedbank Norwood,,,110.525800000000,899.9958,900,EFT,AMANZI
2013/04/08,00006644,AA Travel Guides (Pty) Ltd - Nedbank Norwood,,,359.210600000000,2925.0006,2925,EFT,STRATFORDS GUESTHOUSE
2013/04/08,00006643,AA Travel Guides (Pty) Ltd - Nedbank Norwood,,,399.123200000000,3250.0032,3250,EFT,AVALONE GUEST HOUSE
2013/04/08,00006642,AA Travel Guides (Pty) Ltd - Nedbank Norwood,,,399.123200000000,3250.0032,3250,EFT,CLAUS INN
2013/04/03,00006641,AA Travel Guides (Pty) Ltd - Standard Bank - Rosebank,,,24.5616000000000,200.0016,200,Debit Order,KADIE COTTAGE
2013/04/05,00006640,AA Travel Guides (Pty) Ltd - Nedbank Norwood,,,399.123200000000,3250.0032,3250,EFT,ABER JETZ GUESTHOUSE
2013/04/05,00006639,AA Travel Guides (Pty) Ltd - Nedbank Norwood,,,669.298,5449.998,5450,EFT,BATTLEFIELDS COUNTRY
2013/04/04,00006638,AA Travel Guides (Pty) Ltd - Nedbank Norwood,,,399.123200000000,3250.0032,3250,EFT,THESEN ISLAND LODGES
2013/04/04,00006637,AA Travel Guides (Pty) Ltd - Nedbank Norwood,,,337.719200000000,2749.9992,2750,EFT,HILLTON MANOR
2013/04/04,00006636,AA Travel Guides (Pty) Ltd - Nedbank Norwood,,,337.719200000000,2749.9992,2750,EFT,THE BARRACKS 1432
2013/04/04,00006635,AA Travel Guides (Pty) Ltd - Nedbank Norwood,,,435.964340000000,3549.99534,3550,EFT,LA MAISON
2013/04/02,00006634,AA Travel Guides (Pty) Ltd - Nedbank Norwood,,,337.719200000000,2749.9992,2750,EFT,ST LUCIA THE BRIDGE
2012/03/09,00005990,The Savoy Guest House; Sandton,,,1553.5086,12649.9986,5000,EFT,
,,,,,6 972.25,56 774.00,49 124.00,