"Establishment Code","Establishment Name",Country,Province,Town,Suburb,Assessor,"Due In","QA Status","Invoice Date",Payments,"Renewal Date"
HA4751,"Haig House","South Africa","Eastern Cape","East London",-,-,Cancelled(2011-09-23),,0,,0,-
200434,"Tsitsikamma Lodge & Spa","South Africa","Eastern Cape",Sanddrif,-,-,"3 Months/-",HR,0,,0,2012-02-01
AD7464,"Addo Dung Beetle Guest Farm","South Africa","Eastern Cape",Addo,-,-,-/complete,S,0,,0,2012-06-01
BE7058,"Benri B&B/Self-Catering","South Africa","Eastern Cape","East London",-,-,"3 Months/-",S,0,,0,2012-02-01
026713,"Belvidere Manor Hotel ","South Africa","Western Cape",Knysna,-,-,"3 Months/-",S,0,,0,2012-02-01
126164,"La Plume Guest House","South Africa","Western Cape",Oudtshoorn,-,-,-/complete,S,0,,0,2012-06-01
VI3473,"Victoria And Alfred Guest House","South Africa","Eastern Cape","Port Elizabeth",-,-,-/complete,HR,0,,0,2012-07-01
200073,"Humewood Hotel","South Africa","Eastern Cape","Port Elizabeth",-,-,-/complete,HR,0,,0,2012-10-01
MA7861,"Marula Bay Bed & Breakfast","South Africa","Eastern Cape","East London","Beacon Bay",-,Cancelled(2011-06-14),,0,,0,-
209093,"The White House B&B","South Africa","Eastern Cape","East London",-,-,-/complete,S,0,,0,2012-08-01
TH6469,"Temba Game Reserve & Olive Park Lodge","South Africa","Eastern Cape",Grahamstown,-,-,"1 Month/draft",,0,,0,-
DI2545,"Diaz Strand Hotel and Resort","South Africa","Western Cape","Mossel Bay",-,-,-/complete,S,0,,0,2012-04-01
TH2923,"Cheetah Lodge","South Africa","Western Cape",Brandwacht,-,-,-/complete,HR,0,,0,2012-05-04
TH7558,"The Sundowner","South Africa","Eastern Cape",Addo,-,-,Cancelled(2011-06-16),,0,,0,-
200170,"The Private Guest House","South Africa","Western Cape",Knysna,-,-,Cancelled(2011-11-21),,0,,0,-
228811,"Villa Reinet Guest House","South Africa","Eastern Cape",Graaff-Reinet,-,-,"3 Months/-",HR,0,,0,2012-02-01
AF1653,"Africanos Inn, Bar, Grill And Barn","South Africa","Eastern Cape",Addo,-,-,"4 Months/-",HR,0,,0,2012-03-01
128956,"Lagoonside Cottage","South Africa","Western Cape",Sedgefield,-,-,-/draft,HR,0,,0,2012-07-01
TH7604,"The Cock-inn Guest House","South Africa","Eastern Cape","Kei Mouth",-,-,-/complete,S,0,,0,2012-08-01
DU4187,"Dungbeetle River Lodge (off N2)","South Africa","Eastern Cape",Addo,-,-,Cancelled(2011-09-07),,0,,0,-
SU5425,"Sunshowers Plett","South Africa","Western Cape","Plettenberg Bay",-,-,-/complete,S,0,,0,2012-05-01
260165,"Zuurberg Mountain Village","South Africa","Eastern Cape",Addo,-,-,"2 Months/-",HR,0,,0,2012-01-01
200339,"The Paxton Hotel","South Africa","Eastern Cape","Port Elizabeth",-,-,-/complete,S,0,,0,2012-06-01
TH8541,"Thomas River Historical Village","South Africa","Eastern Cape",Cathcart,-,-,Cancelled(2011-10-04),,0,,0,-
AM5637,"Amanda's B&B","South Africa","Eastern Cape","East London",-,-,overdue/-,S,0,,0,2011-09-01
117424,"Kleinplaas Holiday Resort","South Africa","Western Cape",Oudtshoorn,-,-,-/complete,HR,0,,0,2012-10-01
138378,"Meander Inn","South Africa","Eastern Cape","East London",-,-,-/complete,HR,0,,0,2012-08-01
TH1682,"The Lofts Boutique Hotel","South Africa","Western Cape",Knysna,"Thesen Island",-,"3 Months/-",S,0,,0,2012-02-01
LA8538,"Lalapanzi Guest Lodge","South Africa","Eastern Cape","Port Elizabeth",-,-,-/complete,HR,0,,0,2012-09-01
079119,"Ganora Guest Farm","South Africa","Eastern Cape",Graaff-Reinet,-,-,-/complete,HR,0,,0,2012-06-01
WH1645,"Whalesong Hotel and Hydro ","South Africa","Western Cape","Plettenberg Bay",-,-,"1 Month/-",S,0,,0,2011-12-01
KR1834,"Kronenhoff Guest House","South Africa","Eastern Cape",Addo,-,-,-/complete,S,0,,0,2012-10-01
040318,"Dreamers Guest House","South Africa","Eastern Cape","King William's Town",-,-,overdue/-,S,0,,0,2011-10-01
TH3439,"The White House","South Africa","Eastern Cape",Grahamstown,-,-,-/complete,S,0,,0,2012-06-01
139894,"Misty Mountain Reserve","South Africa","Eastern Cape",Nompumelelo,-,-,-,S,0,,0,2012-05-01
208372,"The Thatch Guest House","South Africa","Eastern Cape","East London","Beacon Bay",-,"1 Month/-",S,0,,0,2011-04-18*
200291,"Toll Inn Guest Farm","South Africa","Eastern Cape","Aliwal North",-,-,overdue/-,HR,0,,0,2011-11-01
SI4248,"Sibuya Game Reserve & Tented Camps","South Africa","Eastern Cape",Kenton-on-sea,-,-,overdue/-,HR,0,,0,2011-10-01
EA8430,"Eagles Ridge Country House","South Africa","Eastern Cape",Stutterheim,-,-,Cancelled(2011-09-07),,0,,0,-
200429,"The Stagger Inn (carnarvon Estate - Queenstown District)","South Africa","Eastern Cape",Queenstown,-,-,"4 Months/-",R,0,,0,2012-03-01
126784,"Lakeside Lodge","South Africa","Western Cape",Sedgefield,-,-,-/complete,S,0,,0,2012-08-01
078044,"Great View B&B","South Africa","Western Cape","Mossel Bay",-,-,Cancelled(2011-04-04),,0,,0,-
HO8168,"Hotel Victoria Mews - Self Catering","South Africa","Eastern Cape",Grahamstown,-,-,-/complete,R,0,,0,2012-04-01
AM2712,"Ambience Africa B&B","South Africa","Eastern Cape","East London",-,-,Cancelled(2011-09-02),,0,,0,-
BE7814,"Beach Break - Cape St Francis Resort","South Africa","Eastern Cape","Cape St Francis",-,-,Cancelled(2011-05-17),,0,,0,-
009494,"17 On 5th Avenue Guest House - Walmer","South Africa","Eastern Cape","Port Elizabeth",-,-,"2 Months/-",HR,0,,0,2012-01-01
B12856,"Beach Court","South Africa","Western Cape","Cape Town","Sea Point",-,Cancelled(2011-06-21),,0,,0,-
237350,"Woodbourne Resort","South Africa","Western Cape",Knysna,-,-,-/complete,HR,0,,0,2012-05-01
120777,Leh-lo,"South Africa","Western Cape","Plettenberg Bay",-,-,overdue/-,HR,0,,0,2011-09-01
BL2459,"Blue Oyster B&B","South Africa","Western Cape",Knysna,-,-,-/complete,S,0,,0,2012-08-01
126715,"Leisure Isle Boutique Lodge","South Africa","Western Cape",Knysna,"Leisure Isle",-,"4 Months/-",S,0,,0,2012-03-01
198191,"Stumble Inn","South Africa","Eastern Cape","East London",-,-,-/complete,S,0,,0,2012-08-01
130059,"Margate Place Guest House","South Africa","Eastern Cape","Port Elizabeth",-,-,-/complete,HR,0,,0,2012-04-15
130196,"coral reef lodge","South Africa","Eastern Cape","East London",Quigney,-,Cancelled(2011-08-11),,0,,0,-
SE4687,"Sederkloof Lodge","South Africa","Eastern Cape","Baviaanskloof Wilderness Area",-,-,-/draft,S,0,,0,2012-11-01
SH4233,"Sheilan House","South Africa","Eastern Cape","Port Alfred",-,-,Cancelled(2011-11-17),,0,,0,-
136349,"Moontide Guest  Lodge","South Africa","Western Cape",Wilderness,-,-,-/complete,S,0,,0,2012-05-01
047981,"Dolphin View Guest House (bluelilies Bush)","South Africa","Eastern Cape",Stormsrivier,-,-,overdue/-,HR,0,,0,2011-11-01
150241,"Oak Lodge Guest House - Afritemba Leisure","South Africa","Eastern Cape",Grahamstown,-,-,-/complete,R,0,,0,2012-05-25
010144,"Admiral's Lodge Guest House","South Africa","Eastern Cape","Port Elizabeth",-,-,overdue/-,HR,0,,0,2011-11-01
016096,"Altes Landhaus Country Lodge","South Africa","Western Cape",Oudtshoorn,-,-,-/complete,S,0,,0,2012-05-01
029275,"Buffalo Hills Game Reserve And Lodges","South Africa","Western Cape","Plettenberg Bay",-,-,"3 Months/-",S,0,,0,2012-02-01
CA2632,"Cape Vacca Estates","South Africa","Western Cape","Mossel Bay",-,-,"3 Months/-",S,0,,0,2012-02-01
196353,"Shining Waters Guest House","South Africa","Western Cape",Wilderness,-,-,-/complete,HR,0,,0,2012-11-01
220246,"Hotel Victoria Mews","South Africa","Eastern Cape",Grahamstown,-,-,-/complete,HR,0,,0,2012-04-01
020586,"Beach Cabanas","South Africa","Eastern Cape","Jeffreys Bay",-,-,"2 Months/-",HR,0,,0,2012-01-01
KE5417,"Kellys Self-catering Accommodation","South Africa","Eastern Cape","Port Alfred",-,-,"3 Months/-",S,0,,0,2012-02-01
GA4066,"The Garden Lodge Guest House,B&B","South Africa","Eastern Cape",Uitenhage,-,-,-/complete,HR,0,,0,2012-08-01
160236,"Evelyn Guest House - Afritemba Leisure","South Africa","Eastern Cape",Grahamstown,-,-,-/complete,HR,0,,0,2012-06-26
116683,"Tonquani Lodge & Spa","South Africa","Western Cape",Knysna,-,-,"3 Months/-",S,0,,0,2012-02-01
SU2926,"Summerstrand Beach Lodge","South Africa","Eastern Cape","Port Elizabeth",-,-,-/complete,HR,0,,0,2012-06-01
AR0738,"Aristocats Guest House","South Africa","Eastern Cape","East London","Bunkers Hill",-,"1 Month/-",HR,0,,0,2011-12-01
167934,"Paradise Found  ","South Africa","Western Cape",Knysna,-,-,-/complete,HR,0,,0,2012-06-01
206722,"Thylitshia Villa","South Africa","Western Cape",Oudtshoorn,-,-,-/complete,S,0,,0,2012-08-01
CA4660,"Casa Da Arvore","South Africa","Eastern Cape",Graaff-Reinet,-,-,Cancelled(2009-08-01),,0,,0,-
BA1563,"Bar-t-nique Guest House","South Africa","Western Cape","Mossel Bay",-,-,-/complete,HR,0,,0,2012-06-01
198664,"Stellenhof Farm & Country House","South Africa","Eastern Cape",Addo,-,-,-/complete,HR,0,,0,2012-05-01
136790,"Mont Fleur B&B","South Africa","Western Cape",Wilderness,-,-,-/complete,HR,0,,0,2012-09-01
198736,"Sangweni Lodge B&B & Conference Centre","South Africa","Eastern Cape",Alice,-,-,"1 Month/-",R,0,,0,2011-12-01
089394,"Homtini Guest Farm","South Africa","Western Cape",Knysna,-,-,"3 Months/-",HR,0,,0,2012-02-01
HI2174,"Hitgeheim Country Lodge & Eco-Reserve","South Africa","Eastern Cape","Addo Elephant National Park",-,-,"2 Months/-",S,0,,0,2012-01-01
180399,"River Bend Lodge ","South Africa","Eastern Cape","Addo Elephant National Park",-,-,"4 Months/-",S,0,,0,2012-03-01
PO4832,"Portofino Hotel","South Africa","Eastern Cape","Port Alfred",-,-,-/complete,HR,0,,0,2012-09-01
GA4247,"Garden Route Boutique Hotel And Spa","South Africa","Western Cape","Mossel Bay",-,-,Cancelled(2011-08-11),,0,,0,-
QE2885,"Queens Terrace B&B","South Africa","Eastern Cape","Aliwal North",-,-,"1 Month/-",HR,0,,0,2011-12-01
200581,"The Edge Mountain Retreat","South Africa","Eastern Cape",Hogsback,-,-,Cancelled(2011-07-19),,0,,0,-
FI2725,"Fish Eagle Manor","South Africa","Eastern Cape","East London",-,-,-/complete,S,0,,0,2012-04-01
206508,"Boardwalk Lodge - Wilderness","South Africa","Western Cape",Wilderness,-,-,Cancelled(2011-12-03),,0,,0,-
JO7186,"Joy Of Art Guest House","South Africa","Eastern Cape","Port Elizabeth",-,-,-/complete,S,0,,0,2012-04-01
186343,"Hildesheim Guest House And Self-catering","South Africa","Western Cape",Wilderness,-,-,-/complete,HR,0,,0,2012-06-01
200441,"Oakhampton B&B","South Africa","Eastern Cape","East London",-,-,-/complete,HR,0,,0,2012-08-01
018011,"Arch Rock Seaside Accommodation","South Africa","Western Cape","Plettenberg Bay",-,-,overdue/draft,HR,0,,0,2011-11-01
MO0566,"Mossievale Guest Cottage B&B S/C","South Africa","Eastern Cape",Graaff-Reinet,-,-,overdue/-,R,0,,0,2011-09-01
TH2842,"Thesen Islands Destinations Cc","South Africa","Western Cape",Knysna,"Thesen Island",-,"2 Months/-",HR,0,,0,2012-01-01
036175,"Crescent Country House And Conference Centre","South Africa","Western Cape","Plettenberg Bay",-,-,"3 Months/-",S,0,,0,2012-02-01
117998,"Knysna River Club","South Africa","Western Cape",Knysna,-,-,-/complete,S,0,,0,2012-06-01
220435,"Villa de Mer Guest House","South Africa","Eastern Cape","Port Alfred",-,-,-/complete,S,0,,0,2012-10-01
130014,"Morgan Bay Hotel","South Africa","Eastern Cape","Morgan's Bay",-,-,-/complete,S,0,,0,2012-10-01
020360,"Beachwalk B&B","South Africa","Eastern Cape","Port Elizabeth",-,-,"2 Months/-",S,0,,0,2012-01-01
HE0699,"Heather's B&B/Self-catering","South Africa","Eastern Cape",Graaff-Reinet,-,-,-/complete,HR,0,,0,2012-04-01
HL2945,"Amanzi Island Lodge","South Africa","Western Cape",Knysna,"Leisure Isle",-,-/complete,S,0,,0,2012-05-04
030707,"Colonel Graham Guest House","South Africa","Eastern Cape",Grahamstown,-,-,"4 Months/-",HR,0,,0,2012-03-01
TH7866,"Thornycroft Lodge","South Africa","Eastern Cape","East London",-,-,overdue/draft,HR,0,,0,2011-10-01
TR4533,"Treehaven Self-catering","South Africa","Western Cape","Plettenberg Bay",-,-,Cancelled(2011-10-04),,0,,0,-
RI7925,"River Road Guest House","South Africa","Eastern Cape","Port Elizabeth",-,-,overdue/draft,HR,0,,0,2011-10-01
LY6243,"Lyell's Bed & Breakfast","South Africa","Western Cape","Plettenberg Bay",-,-,Cancelled(2011-09-01),,0,,0,-
208016,"Stone Cottage","South Africa","Western Cape","Plettenberg Bay",-,-,Cancelled(2011-10-03),,0,,0,-
110396,"Kilkerran House","South Africa","Eastern Cape","East London",-,-,Cancelled(2011-05-24),,0,,0,-
TH1832,"Royal Guest House","South Africa","Eastern Cape","Port Alfred",-,-,-/complete,S,0,,0,2012-08-01
LO2722,"Lonach Guest House","South Africa","Eastern Cape","Port Elizabeth",-,-,overdue/-,S,0,,0,2011-11-01
080384,"Homestead B&B","South Africa","Eastern Cape",Addo,-,-,"4 Months/-",HR,0,,0,2012-03-01
JI1172,"Jameson Inn","South Africa","Eastern Cape","East London",-,-,-/complete,R,0,,0,2012-07-01
WA7107,"Waterside Living Estate","South Africa","Eastern Cape","Jeffreys Bay",-,-,-/complete,R/H,0,,0,2012-06-01
190153,"Sandals Guest House","South Africa","Eastern Cape","St Francis Bay",-,-,"3 Months/-",HR,0,,0,2012-02-01
A14635,"A1 Bay View and A1 Kynaston B&B","South Africa","Eastern Cape","Jeffreys Bay",-,-,Cancelled(2011-06-06),,0,,0,-
TH7573,"The Beach House Port Alfred","South Africa","Eastern Cape","Port Alfred",-,-,-/complete,S,0,,0,2012-09-12
196031,"The St James of Knysna","South Africa","Western Cape",Knysna,-,-,"2 Months/-",S,0,,0,2012-01-01
170440,"Quarry Lake Inn ","South Africa","Eastern Cape","East London",Selborne,-,-/complete,S,0,,0,2012-10-01
160759,"Psa Holiday Resort","South Africa","Eastern Cape","East London",-,-,-/complete,HR,0,,0,2012-05-01
168141,"Phantom View River Resort","South Africa","Western Cape",Knysna,-,-,Cancelled(2011-11-15),,0,,0,-
JU6014,"Justine's Bed and Breakfast","South Africa","Eastern Cape",Queenstown,-,-,-/complete,S,0,,0,2012-08-01
LE7613,"Le Petit Provence","South Africa","Eastern Cape",Cintsa,-,-,-/complete,HR,0,,0,2012-04-01
FR1886,"Frontier Country Hotel","South Africa","Eastern Cape",Grahamstown,-,-,-/auto,R,0,,0,2012-05-01
PO4040,"Positano Guest House","South Africa","Eastern Cape",Queenstown,-,-,"3 Months/-",S,0,,0,2012-02-01
TH2972,"The Old Trading Post","South Africa","Western Cape",Wilderness,-,-,Cancelled(2011-11-29),,0,,0,-
030450,"Carthews Corner","South Africa","Eastern Cape",Queenstown,-,-,"3 Months/-",S,0,,0,2012-02-01
060046,"First Avenue Lodge","South Africa","Eastern Cape","Port Elizabeth",-,-,Cancelled(2011-10-07),,0,,0,-
CA3513,"Casa Mia Health Spa & Guesthouse","South Africa","Eastern Cape",Addo,-,-,"3 Months/-",HR,0,,0,2012-02-01
CA2812,"The Caribbean B&B","South Africa","Eastern Cape","Port Elizabeth",-,-,overdue/-,HR,0,,0,2011-11-02
021645,"Brenton View","South Africa","Western Cape",Knysna,-,-,"1 Month/-",S,0,,0,2011-12-01
PA7724,"Palm Tree Manor","South Africa","Eastern Cape","East London",-,-,Cancelled(2011-10-04),,0,,0,-
197255,"Seabreeze Cabanas","South Africa","Western Cape","Victoria Bay",-,-,-/complete,HR,0,,0,2012-11-19
056720,"Eight Bells Mountain Inn ","South Africa","Western Cape","Mossel Bay",-,-,-/complete,HR,0,,0,2012-05-06
VJ0642,"Vj's Guest House With Self-catering","South Africa","Eastern Cape",Uitenhage,-,-,-/complete,S,0,,0,2012-06-01
CH3518,"Chamberlain Guest House","South Africa","Eastern Cape","East London",-,-,overdue/-,S,0,,0,2011-05-01
DO2773,"Dolphin View Guest House - Jeffreys Bay","South Africa","Eastern Cape","Jeffreys Bay",-,-,"2 Months/-",HR,0,,0,2012-01-01
200027,"The Royal St Andrews Lodge","South Africa","Eastern Cape","Port Alfred",-,-,overdue/-,S,0,,0,2011-10-01
BI1698,"Bishops Inn","South Africa","Eastern Cape","Port Elizabeth",-,-,"4 Months/-",HR,0,,0,2012-03-01
NA1890,"NA Smit Oudtshoorn Holiday Resort","South Africa","Western Cape",Oudtshoorn,-,-,Cancelled(2011-07-06),,0,,0,-
225333,"Vincent Valley Lodge","South Africa","Eastern Cape","East London",-,-,overdue/-,HR,0,,0,2011-11-01
MA7584,"Marren House","South Africa","Eastern Cape","Port Elizabeth",-,-,"1 Month/-",HR,0,,0,2011-12-01
156850,"Overmeer Guest House","South Africa","Western Cape",Knysna,-,-,"3 Months/-",S,0,,0,2012-02-01
120576,"Lowestoffe Country Lodge (Hogsback Area)","South Africa","Eastern Cape",Hogsback,-,-,-/draft,HR,0,,0,2012-05-01
TH6248,"The Plantation","South Africa","Eastern Cape","Port Elizabeth",-,-,-/complete,S,0,,0,2012-09-01
128133,"Locomotive Lodge","South Africa","Eastern Cape",Cookhouse,-,-,Cancelled(2009-11-01),,0,,0,-
206729,"The Lodge On The Beach - Wilderness","South Africa","Western Cape",Wilderness,-,-,Cancelled(2010-12-02),,0,,0,-
MA5095,"Marnic Woonstel 2","South Africa","Eastern Cape","Jeffreys Bay",-,-,"4 Months/-",R,0,,0,2012-03-01
116774,"Knysna Manor House ","South Africa","Western Cape",Knysna,-,-,overdue/-,HR,0,,0,2011-11-01
DE6126,"De Denne Guest House","South Africa","Western Cape",Oudtshoorn,-,-,Cancelled(2011-04-05),,0,,0,-
230078,"Wilmot Cottages","South Africa","Eastern Cape","Port Elizabeth",-,-,"1 Month/-",HR,0,,0,2011-12-01
LA4626,"La Cigale","South Africa","Eastern Cape","Port Elizabeth",-,-,"1 Month/-",S,0,,0,2011-12-01
080249,"Haga-haga Hotel And Cabanas","South Africa","Eastern Cape",Haga-haga,-,-,-/complete,R,0,,0,2012-10-01
110253,"King's Lodge","South Africa","Eastern Cape",Hogsback,-,-,"1 Month/-",R,0,,0,2011-12-01
TH4177,"Bamboo, the Guest House","South Africa","Western Cape",Knysna,-,-,Cancelled(2011-11-17),,0,,0,-
EL5042,"Elandsrivier Guest House","South Africa","Eastern Cape",Tsitsikamma,-,-,"1 Month/-",HR,0,,0,2011-12-01
SE7449,"See More Guest House","South Africa","Eastern Cape","East London","Bunkers Hill",-,"3 Months/-",S,0,,0,2012-02-01
026006,"Blackwaters River Lodge","South Africa","Western Cape",Knysna,-,-,-/complete,S,0,,0,2012-09-01
070171,"Getaway Gateway - The Umtali Country Inn","South Africa","Eastern Cape","Aliwal North",-,-,overdue/-,R,0,,0,2011-11-01
PA4636,"Palm Beach Guest House","South Africa","Eastern Cape","Port Elizabeth",-,-,"3 Months/-",S,0,,0,2012-02-01
SA8539,"Santorini Guest House","South Africa","Eastern Cape","East London","Bunkers Hill",-,overdue/-,S,0,,0,2011-09-01
LE7345,"Lenmore Chalets","South Africa","Eastern Cape",Addo,-,-,-/draft,S,0,,0,2012-05-01
029466,"African Oceans Manor on the Beach","South Africa","Western Cape","Mossel Bay",-,-,-/complete,S,0,,0,2012-04-01
037986,Castleton,"South Africa","Western Cape","Plettenberg Bay",-,-,"3 Months/-",S,0,,0,2012-02-01
156817,"Oceansong Beach House","South Africa","Western Cape","Plettenberg Bay",-,-,overdue/-,HR,0,,0,2011-06-01
120056,"Algoa Guest House Cc","South Africa","Eastern Cape","Port Elizabeth",-,-,"4 Months/-",HR,0,,0,2012-03-01
NG6117,"Nguni River Lodge","South Africa","Eastern Cape","Addo Elephant National Park",-,-,Cancelled(2011-06-27),,0,,0,-
126827,"Lagoona Inn","South Africa","Western Cape",Knysna,-,-,"1 Month/-",HR,0,,0,2011-12-01
SU7174,"Sundays River Mouth Guesthouse","South Africa","Eastern Cape",Colchester,-,-,-/complete,S,0,,0,2012-09-01
155939,"Oakhurst Hotel","South Africa","Western Cape",George,-,-,"2 Months/-",HR,0,,0,2012-01-01
030558,"Club Wild Coast","South Africa","Eastern Cape",Haga-haga,-,-,-/complete,HR,0,,0,2012-04-01
TO6902,"Toorbos Self-catering Cottages","South Africa","Western Cape",Wilderness,-,-,"3 Months/draft",HR,0,,0,2012-02-01
116734,"Knysna Log-inn","South Africa","Western Cape",Knysna,-,-,-/complete,S,0,,0,2012-06-24
190275,Seashells,"South Africa","Eastern Cape","Jeffreys Bay",-,-,-/complete,S,0,,0,2012-08-01
FO4065,"Forest Hall Guest House ","South Africa","Eastern Cape","Port Elizabeth",-,-,Cancelled(2011-09-23),,0,,0,-
PI7671,"Pinnacle Point Beach & Golf Resort -  Lodge No 2","South Africa","Western Cape","Mossel Bay",-,-,-/complete,S,0,,0,2012-08-01
SU5316,"Summer Blue Guest House","South Africa","Eastern Cape","Port Elizabeth",-,-,-/draft,HR,0,,0,2012-07-01
110657,"Kingfisher Guest House","South Africa","Eastern Cape","Port Elizabeth",-,-,-/complete,S,0,,0,2012-05-01
086106,"Hlangana Lodge","South Africa","Western Cape",Oudtshoorn,-,-,-/complete,S,0,,0,2012-07-01
BY7807,"Bydand B&B","South Africa","Eastern Cape",Addo,-,-,-/complete,HR,0,,0,2012-09-01
200203,"Teniqua Treetops","South Africa","Western Cape",Karatara,-,-,overdue/-,HR,0,,0,2011-11-01
168818,"Poseidon Lodge","South Africa","Eastern Cape","Port Elizabeth",-,-,Cancelled(2011-10-18),,0,,0,-
TH2610,"Thunzi Bush Lodge","South Africa","Eastern Cape","Port Elizabeth",-,-,"3 Months/-",S,0,,0,2012-02-01
AF7636,"African Dreams B&B","South Africa","Eastern Cape","East London",Quigney,-,-/complete,S,0,,0,2012-07-01
RI0613,"Rietfontein Ostrich Palace","South Africa","Western Cape",Oudtshoorn,-,-,-/complete,S,0,,0,2012-04-01
070206,"Gonubie Hotel","South Africa","Eastern Cape","East London",-,-,"1 Month/-",R,0,,0,2011-12-01
SL7220,"Sleep and Dream Guest House","South Africa","Eastern Cape","Mthatha (Umtata)",-,-,-/complete,HR,0,,0,2012-07-01
127332,"Lightley's Holiday Houseboats","South Africa","Western Cape",Knysna,-,-,Cancelled(2011-11-01),,0,,0,-
199436,"Stratfords Guest House","South Africa","Eastern Cape","East London",-,-,-/complete,S,0,,0,2012-04-01
NA7683,"Nahoon Mouth Guest House","South Africa","Eastern Cape","East London",-,-,overdue/-,HR,0,,0,2011-08-01
066728,"Fairy Knowe Hotel","South Africa","Western Cape",Wilderness,-,-,overdue/draft,R,0,,0,2011-10-01
HA5974,"Harewood Lodge & Hampton Court Guest Lodge","South Africa","Eastern Cape","East London",Nahoon,-,-/complete,S,0,,0,2012-04-01
040601,"Die Kraaltjie Guest House And Caravan Park","South Africa","Eastern Cape",Joubertina,-,-,-/draft,R,0,,0,2012-05-01
016095,"Adley House","South Africa","Western Cape",Oudtshoorn,-,-,Cancelled(2011-09-23),,0,,0,-
AF4702,"Africa's Call Guest House","South Africa","Western Cape","Plettenberg Bay",-,-,Cancelled(2011-08-23),,0,,0,-
OC7640,"Oceana Beach & Wildlife Reserve","South Africa","Eastern Cape","Port Alfred",-,-,Cancelled(2011-06-01),,0,,0,-
019492,"Anchorage Guest House","South Africa","Eastern Cape","Port Elizabeth",-,-,"2 Months/-",S,0,,0,2012-01-01
167253,"Pine Lodge Resort","South Africa","Western Cape",George,-,-,overdue/-,HR,0,,0,2011-10-01
130136,"Maylodge Country Cottages","South Africa","Eastern Cape",Hogsback,-,-,overdue/-,HR,0,,0,2011-03-01
KE7707,"Keiskama B&B","South Africa","Eastern Cape","Port Elizabeth",-,-,-/complete,S,0,,0,2012-09-01
196408,"Southern Cross Beach House","South Africa","Western Cape","Plettenberg Bay",-,-,Cancelled(2011-04-04),,0,,0,-
197944,"Summerhill Farm - Afritemba - Bathurst/Port Alfred","South Africa","Eastern Cape","Port Alfred",-,-,"1 Month/draft",,0,,0,-
DE6587,"De Old Drift Guest Farm","South Africa","Eastern Cape",Addo,-,-,overdue/-,HR,0,,0,2011-11-01
030040,"39 On Church Guest House & Conference Centre","South Africa","Eastern Cape","Port Elizabeth",-,-,overdue/-,S,0,,0,2011-11-01
209458,"Tsitsikamma On Sea Luxury Lodge","South Africa","Eastern Cape",Eersterivierstrand,-,-,-/complete,S,0,,0,2012-07-01
TH2857,"The Lookout Guest House","South Africa","Eastern Cape","Port Alfred",-,-,"3 Months/-",S,0,,0,2012-02-01
TI7927,"Tidewaters B&B","South Africa","Eastern Cape","East London",-,-,Cancelled(2011-11-09),,0,,0,-
AL6681,"Aloe Rest B&B","South Africa","Eastern Cape","Mthatha (Umtata)",-,-,"1 Month/-",HR,0,,0,2011-12-01
107489,"10 On Cape","South Africa","Eastern Cape","Port Elizabeth",-,-,overdue/-,S,0,,0,2011-11-01
MO7717,"Moya Manzi Beach House","South Africa","Eastern Cape","Jeffreys Bay",-,-,Cancelled(2010-12-23),,0,,0,-
MI2575,"Miles B&B Guest House","South Africa","Western Cape",Oudtshoorn,-,-,-/complete,HR,0,,0,2012-08-01
018568,"ATKV Hartenbos Beach Resort","South Africa","Western Cape",Hartenbos,-,-,overdue/-,R,0,,0,2011-08-01
TH7273,"The Feather Palace","South Africa","Western Cape",Oudtshoorn,-,-,-/complete,S,0,,0,2012-05-01
206200,"Tarn Country House","South Africa","Western Cape","Plettenberg Bay",-,-,Cancelled(2011-07-19),,0,,0,-
020038,"Brookes Hill Suites","South Africa","Eastern Cape","Port Elizabeth",-,-,"4 Months/-",HR,0,,0,2012-03-01
TO7347,"Tobago B&B","South Africa","Eastern Cape","Jeffreys Bay",-,-,Cancelled(2011-08-18),,0,,0,-
020205,"Bluewaters Hotel Gonubie","South Africa","Eastern Cape","East London","Gonubie North",-,-/complete,HR,0,,0,2012-06-01
206723,"The Point Hotel ","South Africa","Western Cape","Mossel Bay",-,-,-/complete,S,0,,0,2012-06-01
137965,"Millbury Guest House","South Africa","Eastern Cape","Port Elizabeth",-,-,-/complete,S,0,,0,2012-09-01
200443,"The Cock House","South Africa","Eastern Cape",Grahamstown,-,-,"4 Months/-",HR,0,,0,2012-03-01
HO5440,"Hotel Wild","South Africa","Eastern Cape",Venterstad,-,-,"1 Month/-",R,0,,0,2011-12-01
030523,"Crawford's Beach Lodge and Cabins","South Africa","Eastern Cape",Cintsa,-,-,"4 Months/-",HR,0,,0,2012-03-01
200028,"Crowned Crane B&B And Self-catering","South Africa","Eastern Cape","East London","Gonubie North",-,"3 Months/-",HR,0,,0,2012-02-01
TH7722,"The View","South Africa","Eastern Cape","Jeffreys Bay",-,-,"2 Months/-",R,0,,0,2012-01-01
086150,"Hotel Portao Diaz","South Africa","Western Cape","Mossel Bay",-,-,"1 Month",,0,,0,-
029366,"Boulders Lodge & Spa","South Africa","Western Cape",Oudtshoorn,-,-,-/complete,S,0,,0,2012-07-01
BA7913,"Bamburgh Place","South Africa","Eastern Cape","East London",-,-,"4 Months/-",HR,0,,0,2012-03-01
078765,"Good Hope Farm B&B","South Africa","Eastern Cape",Addo,-,-,-/complete,HR,0,,0,2012-09-01
KU6998,"Kududu Guest House","South Africa","Eastern Cape","Addo Elephant National Park",-,-,-/complete,S,0,,0,2012-10-01
KL6982,"Klipheuwel Country House","South Africa","Western Cape",Oudtshoorn,-,-,"4 Months/draft",S,0,,0,2012-03-01
AR7896,"Aristotle Guest House","South Africa","Eastern Cape","Port Elizabeth",-,-,-/complete,S,0,,0,2012-06-01
TH8022,"The Palace Guest House","South Africa","Eastern Cape","Port Elizabeth",-,-,-/complete,HR,0,,0,2012-05-01
SH8349,"Shabanga Guest Farm","South Africa","Eastern Cape","East London",-,-,overdue/-,HR,0,,0,2011-07-01
007298,"Be My Guest","South Africa","Western Cape",Knysna,-,-,Cancelled(2011-06-21),,0,,0,-
OY2553,"Oyster Creek Lodge","South Africa","Western Cape",Knysna,-,-,"2 Months/-",S,0,,0,2012-01-01
SU8432,"Summerhill Lodge","South Africa","Eastern Cape","St Francis Bay",-,-,overdue/draft,HR,0,,0,2011-07-01
010422,"Andries StockenstrÍm Guest House","South Africa","Eastern Cape",Graaff-Reinet,-,-,"3 Months/-",S,0,,0,2012-02-01
030104,"Country Village Accommodation","South Africa","Eastern Cape",Graaff-Reinet,-,-,-/complete,R,0,,0,2012-06-01
030732,"Areena Riverside Resort & Private Game Reserve","South Africa","Eastern Cape",Cintsa,-,-,-/complete,S,0,,0,2012-05-01
DO8467,"Dolphin Dance Lodge","South Africa","Eastern Cape","Port Elizabeth",-,-,-/complete,S,0,,0,2012-08-01
ID6979,"Idlewild Guest House","South Africa","Eastern Cape",Queenstown,-,-,"4 Months/-",HR,0,,0,2012-03-01
TW2783,"Twins Guest House","South Africa","Eastern Cape","King William's Town",-,-,"3 Months/draft",S,0,,0,2012-02-01
HO1618,"Housemartin Guest Lodge","South Africa","Western Cape","De Rust",-,-,overdue/-,S,0,,0,2011-05-01
CA8695,"Carros Guest House Game Farm","South Africa","Eastern Cape",Stutterheim,-,-,overdue/-,HR,0,,0,2011-10-01
080365,"Historic Cottages","South Africa","Eastern Cape",Grahamstown,-,-,-/complete,HR,0,,0,2012-09-01
BU8693,"Burns Lodge","South Africa","Eastern Cape","Jeffreys Bay",-,-,Cancelled(2011-09-27),,0,,0,-
OU8729,"Outeniqua Travel Lodge","South Africa","Western Cape",George,-,-,"3 Months/-",R,0,,0,2012-02-01
230296,"Woodleigh Guest Lodge","South Africa","Eastern Cape","East London",-,-,-/complete,HR,0,,0,2012-10-01
JE7494,"Jemima's Hospitality, Bunker On Bailie Guest Lodge","South Africa","Eastern Cape","East London","Bunkers Hill",-,overdue/-,S,0,,0,2011-11-01
TH5209,"Angler and Antelope Guesthouse","South Africa","Eastern Cape","Somerset East",-,-,overdue/-,S,0,,0,2011-10-01
130090,"Milkwood Country Cottage","South Africa","Eastern Cape","St Francis Bay",-,-,Cancelled(2011-09-27),,0,,0,-
HO3716,"Hotel Savoy and Conference Centre","South Africa","Eastern Cape","Mthatha (Umtata)",-,-,-/complete,HR,0,,0,2012-10-01
160238,"Graham Hotel - Afritemba Leisure","South Africa","Eastern Cape",Grahamstown,-,-,"1 Month/draft",,0,,0,-
000087,"34 Lovemore Crescent","South Africa","Eastern Cape","St Francis Bay",-,-,Cancelled(2011-09-07),,0,,0,-
056440,"Edward Charles Manor","South Africa","Western Cape","Mossel Bay",-,-,-/complete,HR,0,,0,2012-05-01
067315,"Forest Edge - Nature Lovers' Retreat","South Africa","Western Cape",Knysna,-,-,-/complete,HR,0,,0,2012-07-01
000370,"I Lollo Lodge","South Africa","Eastern Cape","St Francis Bay",-,-,overdue/-,HR,0,,0,2011-09-01
100366,"Jenny's Guest House","South Africa","Eastern Cape",Grahamstown,-,-,"3 Months/-",HR,0,,0,2012-02-01
MA8414,"Maidenhead Country Lodge","South Africa","Eastern Cape",Queenstown,-,-,-/complete,HR,0,,0,2012-07-01
EU8494,"Europa Inn Bed And Breakfast","South Africa","Eastern Cape","East London",-,-,overdue/-,S,0,,0,2011-09-01
AR8792,"Arosfa Lodge Guest House","South Africa","Western Cape","Mossel Bay",-,-,Cancelled(2011-10-18),,0,,0,-
090302,"Intaba Game And Mountain Lodge","South Africa","Eastern Cape",Addo,-,-,"3 Months/-",S,0,,0,2012-02-01
RO8736,"Rosedale Farm Bed & Breakfast","South Africa","Eastern Cape",Addo,-,-,"2 Months/-",HR,0,,0,2012-01-01
DU8854,"Duiwekloof Lodge","South Africa","Eastern Cape","Baviaanskloof Wilderness Area",-,-,"2 Months/draft",HR,0,,0,2012-01-01
NE8902,"Nelson Mandela Museum","South Africa","Eastern Cape","Mthatha (Umtata)",-,-,overdue/draft,HR,0,,0,2011-08-01
KW0724,"Kwantu Game Reserve","South Africa","Eastern Cape",Alicedale,-,-,-/complete,S,0,,0,2012-07-01
TH8911,"The Sandpiper","South Africa","Eastern Cape","East London",-,-,"1 Month/-",R,0,,0,2011-12-01
TH7678,"The Tusks Tree Top Lodge ","South Africa","Eastern Cape","East London",-,-,"3 Months/-",HR,0,,0,2012-02-01
AD8812,"Addo Afrique","South Africa","Eastern Cape",Addo,-,-,"1 Month/-",S,0,,0,2011-12-01
PR6797,"Profcon Country Cottages","South Africa","Eastern Cape",Graaff-Reinet,-,-,overdue/-,HR,0,,0,2011-09-01
SA8961,"Sandringham Guest House","South Africa","Eastern Cape","East London",-,-,Cancelled(2011-08-30),,0,,0,-
120427,"Lemon Tree Lane","South Africa","Eastern Cape","Port Elizabeth",-,-,"2 Months/-",S,0,,0,2012-01-01
AD7822,"Adventure Executive Self-catering","South Africa","Eastern Cape","Port Elizabeth",-,-,Cancelled(2011-06-20),,0,,0,-
RE8912,"Request Guest Farm","South Africa","Eastern Cape",Bedford,-,-,Cancelled(2011-09-23),,0,,0,-
TH8883,"Loerie's View","South Africa","Western Cape",Wilderness,-,-,Cancelled(2011-05-17),,0,,0,-
236357,"Wilderness Manor Guest House","South Africa","Western Cape",Wilderness,-,-,"2 Months/-",S,0,,0,2012-01-01
066198,"Forest Hall  Estate","South Africa","Western Cape","Plettenberg Bay",-,-,"2 Months/-",S,0,,0,2012-01-01
IN8869,"Deer Cottage","South Africa","Eastern Cape",Addo,-,-,"3 Months/-",HR,0,,0,2012-02-01
LI8837,"Little Brak Beach House","South Africa","Western Cape","Little Brak River",-,-,Cancelled(2011-05-15),,0,,0,-
DA8988,"Day's End Guesthouse","South Africa","Eastern Cape","East London","Beacon Bay",-,-/complete,S,0,,0,2012-04-01
ST8978,"St Aidan's Guest Cottage","South Africa","Eastern Cape",Grahamstown,-,-,"4 Months/-",S,0,,0,2012-03-01
HO8997,"House Purfikt @ Kleinemonde","South Africa","Eastern Cape","Port Alfred",-,-,"4 Months/-",S,0,,0,2012-03-01
SO8999,"Sola Fide Self Catering Residence","South Africa","Eastern Cape","Jeffreys Bay",-,-,"4 Months/-",S,0,,0,2012-03-01
MA8915,"Makarios On Sea","South Africa","Western Cape",George,-,-,"4 Months/-",S,0,,0,2012-03-01
MO9002,"Mountain Breeze Log Cabins","South Africa","Eastern Cape",Witelsbos,-,-,-/auto,HR,0,,0,2012-04-01
RI9070,"River's Rest","South Africa","Eastern Cape","BUSHMANS RIVER MOUTH",-,-,overdue/-,R,0,,0,2011-04-01
LO9199,"Lord Selborne Guest House","South Africa","Eastern Cape","East London",Selborne,-,-/complete,S,0,,0,2012-05-01
LA9076,"La Maison Bleue","South Africa","Eastern Cape","Jeffreys Bay",-,-,-/complete,HR,0,,0,2012-04-01
PA9037,"Paradise Sands No 7 And 8","South Africa","Eastern Cape","Jeffreys Bay",-,-,Cancelled(2011-11-10),,0,,0,-
GE9206,"Georgiou Boutique Hotel And Spa","South Africa","Eastern Cape","Port Elizabeth",-,-,overdue/-,S,0,,0,2011-05-01
120082,"Longview Lodge","South Africa","Eastern Cape",Queenstown,-,-,-/draft,R,0,,0,2012-05-01
EU9395,"Eurentia Holiday Flats","South Africa","Eastern Cape","Jeffreys Bay",-,-,overdue/-,R,0,,0,2011-06-01
TH9458,"The Golf House On Sea","South Africa","Eastern Cape","St Francis Bay",-,-,overdue/-,S,0,,0,2011-06-01
AB2062,"Abalone Lodges","South Africa","Western Cape",Knysna,-,-,overdue/-,S,0,,0,2011-11-01
HI9662,"Hill Street Manor","South Africa","Eastern Cape",Grahamstown,-,-,"1 Month/-",S,0,,0,2011-12-01
AR9793,"Arum Cottage","South Africa","Eastern Cape","Cape St Francis",-,-,overdue/-,R,0,,0,2011-08-01
BI9772,"Big Five B&B","South Africa","Eastern Cape",Butterworth,-,-,-/complete,R,0,,0,2012-09-01
EB9018,"Ebubeleni Guest House","South Africa","Eastern Cape","Port Elizabeth",-,-,-/complete,S,0,,0,2012-10-01
RE9204,"Reflections Eco-reserve","South Africa","Western Cape",Wilderness,-,-,Cancelled(2011-11-09),,0,,0,-
RE9257,"Renaissance Guest Farm","South Africa","Eastern Cape",Queenstown,-,-,Cancelled(2011-09-16),,0,,0,-
VA9720,"Valparaiso Guesthouse","South Africa","Eastern Cape","Jeffreys Bay",-,-,Cancelled(2011-09-05),,0,,0,-
BE8840,"Beach Walk Bed & Breakfast East London","South Africa","Eastern Cape","East London",Quigney,-,"1 Month/-",R,0,,0,2011-12-01
ON8861,"On The Spot B&B At St Francis Bay","South Africa","Eastern Cape","St Francis Bay",-,-,"2 Months/-",S,0,,0,2012-01-01
030164,"Addo Elephant Country Estate ","South Africa","Eastern Cape",Addo,-,-,overdue/-,S,0,,0,2011-10-01
LA9423,"Lagoon View Lodge ","South Africa","Eastern Cape","East London","Beacon Bay",-,overdue/-,S,0,,0,2011-11-01
TH7780,"The Farm House ","South Africa","Eastern Cape",Addo,-,-,Cancelled(2011-07-22),,0,,0,-
229592,"Villa Vista Guest House","South Africa","Eastern Cape","Port Alfred",-,-,"3 Months/-",S,0,,0,2012-02-01
030451,"Cosmos Cuisine ","South Africa","Eastern Cape",Addo,-,-,-/complete,S,0,,0,2012-04-01
GA9168,"Garden Route Casino Hotel and Spa","South Africa","Western Cape","Mossel Bay",-,-,-/complete,HR,0,,0,2012-04-01
160636,"Port Alfred Sands","South Africa","Eastern Cape","Port Alfred",-,-,-/complete,R,0,,0,2012-08-01
ON5244,"On The Beach","South Africa","Eastern Cape","Jeffreys Bay",-,-,Cancelled(2011-06-23),,0,,0,-
130022,"Mpekweni Beach Resort ","South Africa","Eastern Cape","Port Alfred",-,-,-/complete,HR,0,,0,2012-10-01
A00030,"Jaybay House ","South Africa","Eastern Cape","Jeffreys Bay",-,-,-/complete,HR,0,,0,2012-05-01
HA9304,"Hard Rock Backpackers","South Africa","Eastern Cape","Jeffreys Bay",-,-,Cancelled(2011-09-23),,0,,0,-
ED9131,Eden@Astonbay,"South Africa","Eastern Cape","Jeffreys Bay",-,-,-/complete,R,0,,0,2012-07-18
AH9260,"Ahoy Boutique Hotel","South Africa","Eastern Cape","Port Elizabeth",-,-,overdue/-,S,0,,0,2011-05-01
A00020,"Albert Road Garden Guesthouse","South Africa","Eastern Cape","Port Elizabeth",-,-,Cancelled(2011-08-22),,0,,0,-
A00032,"B.R.O. Homes and Villas","South Africa","Eastern Cape","Port Elizabeth",-,-,-/complete,HR,0,,0,2012-06-01
A00033,"Panorama Port Alfred","South Africa","Eastern Cape","Port Alfred",-,-,-/complete,HR,0,,0,2012-09-01
A00055,Dunwerkin,"South Africa","Eastern Cape",Kenton-on-sea,-,-,-/complete,HR,0,,0,2012-06-01
MI9276,"Millard Crescent B&B","South Africa","Eastern Cape","Port Elizabeth",-,-,-/complete,HR,0,,0,2012-07-01
PI9533,"Pie's Cottage B&B","South Africa","Eastern Cape","St Francis Bay",-,-,Cancelled(2011-08-11),,0,,0,-
A00188,"The Green Dolphin","South Africa","Eastern Cape",Kenton-on-sea,-,-,Cancelled(2011-08-04),,0,,0,-
A00190,"Lighthouse View B&B","South Africa","Eastern Cape","Cape St Francis",-,-,Cancelled(2011-06-02),,0,,0,-
A00195,"Le Blue Guest House ","South Africa","Eastern Cape","Port Elizabeth",-,-,-/complete,HR,0,,0,2012-07-19
A00222,"Aberdeen Self-Catering CC","South Africa","Eastern Cape",Aberdeen,-,-,Cancelled(2011-08-11),,0,,0,-
A00281,"Lavender Leisure Country House","South Africa","Eastern Cape",Stutterheim,-,-,-/complete,HR,0,,0,2012-05-01
108570,"Jon-Jen Guest House","South Africa","Eastern Cape","Port Elizabeth",-,-,Cancelled(2011-07-18),,0,,0,-
A00311,"Hydeaway Country Lodge","South Africa","Eastern Cape","Port Elizabeth",-,-,-/complete,HR,0,,0,2012-08-01
A00338,"Mount Lodge Humewood","South Africa","Eastern Cape","Port Elizabeth",-,-,overdue/-,HR,0,,0,2011-09-01
A00351,"Me Casa","South Africa","Eastern Cape","Port Elizabeth",-,-,"3 Months/-",HR,0,,0,2012-02-01
A00420,"Sunnyside Suites cc","South Africa","Eastern Cape","Port Elizabeth",-,-,-/complete,HR,0,,0,2012-09-01
A00441,"Cleveland Bed and Breakfast","South Africa","Eastern Cape",Addo,-,-,-/complete,HR,0,,0,2012-10-01
A00516,"The Copper Pot Guest House","South Africa","Eastern Cape","Port Elizabeth",-,-,-/complete,HR,0,,0,2013-01-01
A00566,"The Whitehouse Accommodation","South Africa","Eastern Cape","Port Elizabeth",-,-,Cancelled(2011-10-24),,0,,0,-
A00615,"13 Beachy Head Drive - Plettenberg Bay","South Africa","Western Cape","Plettenberg Bay",-,-,-/complete,S,0,,0,2012-11-01
A00691,"Brenton Beach House ","South Africa","Western Cape",Knysna,-,-,-/complete,HR,0,,0,2012-04-01
A00780,"On the Beach Guest House (duplicate record)","South Africa","Eastern Cape","Jeffreys Bay",-,-,Cancelled(2011-06-23),,0,,0,-
A00909,"Green Pastures Bed & Breakfast","South Africa","Western Cape",George,-,-,-/complete,HR,0,,0,2012-03-22
A00920,"Fat Fish Bed & Breakfast","South Africa","Eastern Cape","BUSHMANS RIVER MOUTH",-,-,"2 Months/-",HR,0,,0,2012-01-01
A00937,"Paradiso Bay Guest House","South Africa","Eastern Cape","Port Elizabeth",-,-,"3 Months/-",HR,0,,0,2012-02-01
A01062,"Access Guest House","South Africa","Eastern Cape","Port Elizabeth",-,-,-/complete,R,0,,0,2012-03-09
A01107,"Urban Manor B&B ","South Africa","Eastern Cape","Port Elizabeth",-,-,-/complete,HR,0,,0,2012-04-04
A01123,"Afritemba Leisure (Grahamstown)","South Africa","Eastern Cape",Grahamstown,-,-,"1 Month",,0,,0,-
A01152,"Angler's Paradise","South Africa","Eastern Cape",Eersterivierstrand,-,-,-/complete,HR,0,,0,2012-04-20
A01185,"6 Jakaranda House","South Africa","Western Cape",George,-,-,-/complete,S,0,,0,2012-04-18
A01302,"Guesthouse Stratos","South Africa","Eastern Cape","Jeffreys Bay",-,-,-/complete,HR,0,,0,2012-06-13
A01457,"Ibitshi Corporate Guest Lodge","South Africa","Western Cape",Wilderness,-,-,"1 Month",,0,,0,-
A01477,"Addo Reach & Hein's Cottage","South Africa","Eastern Cape",Alicedale,-,-,-/complete,HR,0,,0,2012-07-13
A01639,"Stoneridge Guest House","South Africa","Free State","Gariep Dam",-,-,"1 Month/draft",,0,,0,-
A01748,"The Mitford Lodge","South Africa","Eastern Cape","Morgan's Bay",-,-,-/complete,R,0,,0,2012-10-11
A01815,"Riders Rest B&B","South Africa","Eastern Cape","Port Alfred",-,-,-/complete,HR,0,,0,2012-11-23
A01823,"Sondel Beach House","South Africa","Western Cape","Plettenberg Bay",-,-,"1 Month/draft",,0,,0,-
A01835,"Pegasus Equestrian Estate","South Africa","Eastern Cape","Port Alfred",-,-,"1 Month/draft",,0,,0,-
